EDI_MTCHG_20170705
TableName	Actflag	Created	Changed	MtChgID	SecID	ISIN	NotificationDate	OldMaturityDate	NewMaturityDate	Reason	EventType	OldMaturityBenchmark	NewMaturityBenchmark	Notes
EDI_ENDOFFILE
