EDI_BOND_20170705
Tablename	Actflag	Created	Changed	SecID	ISIN	BondType	DebtMarket	DebtCurrency	NominalValue	IssueDate	IssueCurrency	IssuePrice	IssueAmount	IssueAmountDate	OutstandingAmount	OutstandingAmountDate	InterestBasis	InterestRate	InterestAccrualConvention	InterestPaymentFrequency	IntCommencementDate	OddFirstCoupon	FirstCouponDate	OddLastCoupon	LastCouponDate	InterestPayDate1	InterestPayDate2	InterestPayDate3	InterestPayDate4	DomesticTaxRate	NonResidentTaxRate	FRNType	FRNIndexBenchmark	FrnMargin	FrnMinInterestRate	FrnMaxInterestRate	Rounding	Series	Class	OnTap	MaximumTapAmount	TapExpiryDate	Guaranteed	SecuredBy	SecurityCharge	Subordinate	SeniorJunior	WarrantAttached	MaturityStructure	Perpetual	MaturityDate	MaturityExtendible	Callable	Puttable	Denomination1	Denomination2	Denomination3	Denomination4	Denomination5	Denomination6	Denomination7	MinimumDenomination	DenominationMultiple	Strip	StripInterestNumber	Bondsrc	MaturityBenchmark	ConventionMethod	FrnInterestAdjFreq	InterestBusDayConv	InterestCurrency	MaturityBusDayConv	MaturityCurrency	TaxRules	VarInterestPaydate	PriceAsPercent	PayOutMode	Cumulative	MatPrice	MatPriceAsPercent	SinkingFund	GovCity	GovState	GovCntry	GovLaw	GovLawNotes	Municipal	PrivatePlacement	Syndicated	Tier	UppLow	Collateral	CoverPool	PikPay	YieldAtIssue	CoCoTrigger	CoCoAct	CoCoNonViability	Taxability	LatestAppliedINTPYAnlCpnRateDate	LatestAppliedINTPYAnlCpnRate	FirstAnnouncementDate	PerformanceBenchmarkISIN	InterestGraceDays	InterestGraceDayConvention	MatGraceDays	MatGraceDayConvention	ExpMatDate	GreenBond	IndicativeIssAmtDate	IndicativeIssAmt	CoCoCapRatioTriggerPercent	ZCMarker	Notes
BOND	U	2005/01/23	2017/07/05	213534	MX0MGO000003	BD		MXN	0	2003/10/29	MXN		1000.00000	2003/10/29	91676.90460	2017/07/04	FXD	8.00000	A360	SMA	2003/10/30	S	2003/12/31															231207		F			F						R		2023/12/07		N		100.000000							100.000000	100			SR					MXN		MXN		T				100.00000000	100.000000000																					0.00000										0.00000	0.000000000		
BOND	U	2005/08/08	2017/07/05	272386	MX0MGO000078	BD		MXN	0	2004/12/29	MXN		1500.00000	2004/12/29	254098.40850	2017/07/04	FXD	10.00000	A360	SMA	2004/12/30		2005/06/30	S	2024/06/30	3006	2912											241205		F			F						R		2024/12/05		N		100.000000							100.000000	100			SR					MXN		MXN		F				100.00000000	100.000000000																					0.00000										0.00000	0.000000000		
BOND	U	2008/07/08	2017/07/05	987677	MX0MGO0000B2	BD		MXN	0	2006/06/29	MXN		62448.69890	2006/06/29	73663.12550	2017/07/04	FXD	10.00000	A360	SMA	2006/06/28		2006/12/28															361120		F			F						R		2036/11/20		N		100.000000							100.000000	100			SR					MXN		MXN		F				100.00000000	100.000000000																					0.00000										0.00000	0.000000000		
BOND	U	2008/08/23	2017/07/05	1118229	MX0MGO0000D8	BD		MXN	0	2006/12/27	MXN		4650.00000	2006/12/27	120929.33340	2017/07/04	FXD	7.50000	A360	SMA	2006/12/27		2007/06/28															270603		F			F						R		2027/06/03		N		100.000000							100.000000	100			SR					MXN		MXN		F				100.00000000	100.000000000																					0.00000										0.00000	0.000000000		
BOND	U	2008/08/25	2017/07/05	1118444	MX0SGO000015	BD		MXV	0	2005/12/29	MXV		6440.36120	2005/12/29	40815.99400	2017/07/04	FXD	4.50000	A360	SMA	2005/12/29																	251204		F			F						R		2025/12/04				100.000000							100.000000				SR					MXN		MXN		F				100.00000000	100.000000000																					0.00000										0.00000	0.000000000		
BOND	U	2008/08/25	2017/07/05	1118449	MX0SGO000023	BD		MXV	0	2005/12/28	MXV		21117.04040	2005/12/28	22669.81470	2017/07/04	FXD	4.50000	A360	SMA	2005/12/28		2006/06/29															351122		F			F						R		2035/11/22				100.000000							100.000000				SR					MXN		MXN		F				100.00000000	100.000000000																					0.00000										0.00000	0.000000000		
BOND	U	2009/09/22	2017/07/05	1592237	MX0MGO0000G1	BD		MXN	0	2008/12/24	MXN		200000.00000	2008/12/24	212274.50020	2017/07/04	FXD	8.50000	A360	SMA	2008/12/24		2009/06/25		2018/06/13													181213		F			F						R		2018/12/13		N		100.000000							100.000000	100			SR					MXN		MXN		T				100.00000000	100.000000000																					0.00000										0.00000	0.000000000		
BOND	U	2009/09/22	2017/07/05	1592241	MX0MGO0000J5	BD		MXN	0	2008/12/24	MXN		200000.00000	2008/12/24	92984.15110	2017/07/04	FXD	8.50000	A360	SMA	2008/12/24		2009/06/25															381118		F			F						R		2038/11/18		N		100.000000							100.000000	100			SR					MXN		MXN		F				100.00000000	100.000000000																					0.00000										0.00000	0.000000000		
BOND	U	2010/07/16	2017/07/05	2022037	MX0MGO0000H9	BD		MXN	0	2008/12/24	MXN		5506.80000	2008/12/24	100283.63840	2017/07/04	FXD	8.50000	A360	SMA	2008/12/24		2009/06/25	S	2028/12/25	2506	2512											290531		F			F						R		2029/05/31		N		100.000000							100.000000	100			SR					MXN		MXN		F				100.00000000	100.000000000																					0.00000										0.00000	0.000000000		
BOND	U	2010/09/24	2017/07/05	2120877	MX0QAM000007	BD		MXN	0	2008/10/15	MXN		500.00000	2008/10/15	500.00000	2008/10/15	FR			MNT	2008/10/15											BASIC	MXNTIIE28					8		F			F			Y			R		2018/10/15				100.000000											SR					MXN		MXN		F				100.00000000	100.000000000																				2017/08/01	7.76500										0.00000	0.000000000		
BOND	U	2010/12/27	2017/07/05	2291432	MX0MGO0000L1	BD		MXN	0	2009/12/24	MXN		25000.00000	2009/12/24	250525.75540	2017/07/04	FXD	8.00000	A360	SMA	2009/12/24		2010/06/24															200611		F			F						R		2020/06/11		N		100.000000							100.000000	100			SR					MXN		MXN		F				100.00000000	100.000000000																					0.00000										0.00000	0.000000000		
BOND	U	2011/02/05	2017/07/05	2427195	MX90CH1C0018	BD		MXN	0	2007/06/28	MXN		800.00000	2007/06/28	716.25928	2016/08/01	FR			MNT	2007/06/28											BASIC	MXNTIIE28	1.20000				07		F			F						R		2037/06/25				98.494137											SR					MXN		MXN		F				100.00000000	100.000000000																				2017/07/31	7.91681										0.00000	0.000000000		
BOND	U	2011/05/03	2017/07/05	2660479	MXLDGO0001P5	BD		MXN	0	2011/04/07	MXN		6089.43620	2011/04/07	26341.18530	2012/03/08	FR				2011/04/07											BASIC						180328		F			F						R		2018/03/28				100.000000											SR					MXN		MXN		F				100.00000000	100.000000000																				2017/07/20	7.02000										0.00000	0.000000000		
BOND	U	2011/12/14	2017/07/05	3358647	MXLDGO0001U5	BD		MXN	0	2011/10/06	MXN		30000.00000	2011/10/06	26157.90790	2015/11/20	FR			MNT	2011/10/06				2018/08/27							BASIC	MXNTIIE28					180927		F			F						R		2018/09/27				100.000000											SR					MXN		MXN		F				100.00000000	100.000000000																				2017/07/06	6.90000										0.00000	0.000000000		
BOND	U	2012/01/11	2017/07/05	3438979	MX0MGO0000N7	NT		MXN	0	2010/12/23	MXN		200000.00000	2010/12/23	316235.78620	2017/07/04	FXD	6.50000	A360	SMA	2010/12/23			S	2020/12/23	2306	2312											210610		F			F						R		2021/06/10				100.000000											SR					MXN		MXN		F				100.00000000	100.000000000																					0.00000										0.00000	0.000000000		
BOND	U	2012/01/19	2017/07/05	3464155	MXLDGO0001S9	BD		MXN	0	2011/07/07	MXN		39532.04620	2011/07/07	34277.88620	2015/11/27	FR				2011/07/07											BASIC						180628		F			F						R		2018/06/28				100.000000											SR					MXN		MXN		F				100.00000000	100.000000000																				2017/07/27	7.09000										0.00000	0.000000000		
BOND	U	2012/01/24	2017/07/05	3478452	MXLDGO0001X9	BD		MXN	0	2012/01/05	MXN				13258.43610	2012/03/30	FR				2012/01/05											BASIC						181227		F			F						R		2018/12/27				100.000000											SR					MXN		MXN		F				100.00000000	100.000000000																				2017/07/13	6.95000										0.00000	0.000000000		
BOND	U	2012/03/13	2017/07/05	3628784	MX0SGO0000A1	BD		MXV	0	2011/03/02	MXV		13881.82300	2011/03/02	24981.49100	2017/07/04	FXD	2.50000	A360		2011/03/02																	201210		F			F						R		2020/12/10		N	N	100.000000											SR					MXN		MXN		F				100.00000000	100.000000000																					0.00000										0.00000	0.000000000		
BOND	U	2012/03/14	2017/07/05	3629402	MX0MGO0000Q0	BD		MXN	0	2011/12/22	MXN		200000.00000	2011/12/22	174955.81160	2017/07/04	FXD	6.50000	A360	SMA	2011/12/22		2012/06/21	S	2021/12/21	2106	2112											220609		F			F						R		2022/06/09				100.000000											SR					MXN		MXN		F				100.00000000	100.000000000																					0.00000										0.00000	0.000000000		
BOND	U	2012/03/14	2017/07/05	3629415	MX0MGO0000P2	BD		MXN	0	2011/06/23	MXN		46216.61210	2011/06/23	133342.61590	2017/07/04	FXD	7.75000	A360	SMA	2011/06/23		2011/12/22	S	2030/12/22	2212	2206											310529		F			F						R		2031/05/29				100.000000											SR					MXN		MXN		F				100.00000000	100.000000000																					0.00000										0.00000	0.000000000		
BOND	U	2012/04/09	2017/07/05	3712105	MXLDGO0001Z4	BD		MXN	0	2012/04/04	MXN		1000.00000	2012/04/04	20793.37260	2016/06/24	FR				2012/04/04											BASIC						190328		F			F						R		2019/03/28		N	N												SR					MXN		MXN		F				100.00000000	100.000000000																				2017/07/20	7.02000										0.00000	0.000000000		
BOND	U	2012/04/25	2017/07/05	3753452	MX0MGO0000R8	BD		MXN	0	2011/12/22	MXN		15000.00000	2011/12/22	200311.75220	2017/07/04	FXD	7.75000	A360	SMA	2011/12/22		2012/06/21	S	2042/06/21	2106	2112											421113		F			F						R		2042/11/13		N	N	100.000000											SR					MXN		MXN		F				100.00000000	100.000000000																					0.00000										0.00000	0.000000000		
BOND	U	2012/07/12	2017/07/05	3870481	MXLDGO000231	BD		MXN	0	2012/07/05	MXN		1000.00000	2012/07/05	35609.85650	2016/09/30	FR				2012/07/05																	190627		F			F						R		2019/06/27		N	N	100.000000											SR					MXN		MXN		F				100.00000000	100.000000000																				2017/07/27	7.09000										0.00000	0.000000000		
BOND	U	2012/09/03	2017/07/05	3894338	MXLDGO000256	BD		MXN	0	2012/08/30	MXN		1523.19470	2012/08/30	18174.37230	2012/10/19	FR				2012/08/30																	170824		F			F						R		2017/08/24				100.000000											SR					MXN		MXN		F				100.00000000	100.000000000																				2017/07/27	7.09000										0.00000	0.000000000		
BOND	U	2012/09/08	2017/07/05	3897291	MX0SGO0000B9	BD		MXV	0	2012/06/21	MXV		3000.00000	2012/06/21	22057.57050	2017/07/04	FXD	2.00000	A360		2012/06/21		2012/12/20															220609		F			F						R		2022/06/09				100.000000											SR					MXN		MXN		F				100.00000000	100.000000000																					0.00000										0.00000	0.000000000		
BOND	U	2012/10/30	2017/07/05	3923374	MXLDGO000264	BD		MXN	0	2012/10/25	MXN		1524.98330	2012/10/25	34658.88660	2015/11/27	FR				2012/10/25											BASIC						171019		F			F						R		2017/10/19				100.000000											SR					MXN		MXN		F				100.00000000	100.000000000																				2017/07/27	7.09000										0.00000	0.000000000		
BOND	U	2012/12/31	2017/07/05	3956268	MXLDGO000272	BD		MXN	0	2012/12/27	MXN		3023.74380	2012/12/27	33662.74130	2015/11/06	FR		A360	MNT	2012/12/27											BASIC	MXNTIIE28					171221		F			F						R		2017/12/21				100.000000											SR					MXN		MXN		F				100.00000000	100.000000000																				2017/07/06	6.90000										0.00000	0.000000000		
BOND	U	2013/01/07	2017/07/05	3958630	MXLDGO000280	BD		MXN	0	2013/01/03	MXN		1021.83640	2013/01/03	27389.84790	2013/07/05	FR				2013/01/03											BASIC						191226		F			F						R		2019/12/26				100.000000											SR					MXN		MXN		F				100.00000000	100.000000000																				2017/07/13	6.95000										0.00000	0.000000000		
BOND	U	2013/02/26	2017/07/05	3988649	MXLDGO000298	BD		MXN	0	2013/02/21	MXN		3098.70020	2013/02/21	38206.87040	2015/11/27	FR		A360	MNT	2013/02/21											BASIC	MXNTIIE28					180215		F			F						R		2018/02/15				100.000000											SR					MXN		MXN		F				100.00000000	100.000000000																				2017/07/06	6.90000										0.00000	0.000000000		
BOND	U	2013/05/03	2017/07/05	4030524	MXLDGO0002A5	BD		MXN	0	2013/04/25	MXN		1514.72300	2013/04/25	28031.55360	2015/11/27	FR				2013/04/25																	180419		F			F						R		2018/04/19				100.000000											SR					MXN		MXN		F				100.00000000	100.000000000																				2017/07/13	6.95000										0.00000	0.000000000		
BOND	U	2013/06/27	2017/07/05	4064759	MXLDGO0002B3	BD		MXN	0	2013/06/20	MXN		1515.96850	2013/06/20	29686.34590	2015/11/27	FR				2013/06/20																			F			F						R		2018/06/14				100.000000											SR					MXN		MXN		F				100.00000000	100.000000000																				2017/07/13	6.95000										0.00000	0.000000000		
BOND	U	2013/07/11	2017/07/05	4072802	MX91LA010007	CTF		MXN	0	2013/07/08	MXN	100.00000	2000.00000	2013/07/08	2000.00000	2013/07/08	FR			MNT	2013/07/08		2013/08/05									BASIC	MXNTIIE28	0.70000				13		F			F						R		2018/07/02	N	Y	N	100.000000							100.000000				PS				FBD	MXN	FBD	MXN		F	100.000000000			100.00000000	100.000000000					Mexican															2017/07/31	8.06000										0.00000	0.000000000		
BOND	U	2013/07/16	2017/07/05	4075739	MXLDGO0002C1	BD		MXN	0	2013/07/11	MXN		1015.89700	2013/07/11	38475.94690	2016/08/16	FR				2013/07/11											BASIC						200702		F			F						R		2020/07/02				100.000000											SR					MXN		MXN		F				100.00000000	100.000000000																				2017/07/06	6.90000										0.00000	0.000000000		
BOND	U	2013/08/30	2017/07/05	4100413	MXLDGO0002D9	BD		MXN	0	2013/08/22	MXN		3316.71180	2013/08/22	26447.87610	2015/11/27	FR			MNT	2013/08/22											BASIC						180816		F			F						R		2018/08/16				100.000000											SR					MXN		MXN		F				100.00000000	100.000000000																				2017/07/20	7.02000										0.00000	0.000000000		
BOND	U	2013/08/30	2017/07/05	4100469	MX0MGO0000T4	BD		MXN	0	2013/06/20	MXN		9500.00000	2013/06/20	152608.73870	2017/07/04	FXD	4.75000	A360	SMA	2013/06/20		2013/12/19															M 180614		F			F						R		2018/06/14				100.000000											SR					MXN		MXN		F				100.00000000	100.000000000																					0.00000										0.00000	0.000000000		
BOND	U	2013/10/02	2017/07/05	4118823	MX91KI0000A3	CTF		MXN	0	2013/09/30	MXN	100.00000	750.00000	2013/09/30	750.00000	2013/09/30	FR			MNT	2013/09/30		2013/10/28									BASIC	MXNTIIE28					13-2		F			F						R		2018/09/24	N	N	N	100.000000							100.000000				PS				FBD	MXN	FBD	MXN		F	100.000000000			100.00000000	100.000000000					Mexican															2017/07/31	7.51000										0.00000	0.000000000		
BOND	U	2013/10/17	2017/07/05	4127271	MXLDGO0002E7	BD		MXN	0	2013/10/17	MXN		3822.01600	2013/10/17	27664.57090	2016/06/01	FR				2013/10/17											BASIC						181011		F			F						R		2018/10/11				100.000000											SR					MXN		MXN		F				100.00000000	100.000000000																				2017/07/20	7.02000										0.00000	0.000000000		
BOND	U	2013/12/28	2017/07/05	4167516	MXLDGO0002F4	BD		MXN	0	2013/12/19	MXN		1519.31010	2013/12/19	30360.51150	2016/03/28	FR				2013/12/19		2014/01/16									BASIC						181213		F			F						R		2018/12/13				100.000000											SR					MXN		MXN		F				100.00000000	100.000000000																				2017/07/27	7.09000										0.00000	0.000000000		
BOND	U	2014/02/17	2017/07/05	4202361	MXLDGO0002H0	BD		MXN	0	2014/02/13	MXN		1517.23600	2014/02/13	25149.42580	2014/04/11	FR				2014/02/13		2014/03/13									BASIC						190207		F			F						R		2019/02/07				100.000000											SR					MXN		MXN		F				100.00000000	100.000000000																				2017/07/27	7.09000										0.00000	0.000000000		
BOND	U	2014/04/10	2017/07/05	4243364	MX0MGO0000U2	BD		MXN	0	2013/12/19	MXN		200000.00000	2013/12/19	90930.27050	2017/07/04	FXD	7.75000			2013/12/19		2014/06/19																	F			F						R		2034/11/23				100.000000											SR					MXN		MXN		F				100.00000000	100.000000000																					0.00000										0.00000	0.000000000		
BOND	U	2014/04/17	2017/07/05	4248887	MXLDGO0002I8	BD		MXN	0	2014/04/16	MXN		4514.98770	2014/04/16	24105.69330	2016/05/24	FR				2014/04/16		2014/05/15									BASIC								F			F						R		2019/04/11				100.000000											SR					MXN		MXN		F				100.00000000	100.000000000																				2017/07/06	6.90000										0.00000	0.000000000		
BOND	U	2014/06/12	2017/07/05	4286412	MX94CO0H0053	CTF		MXN	0	2014/06/09	MXN	100.00000	2000.00000	2014/06/09	2000.00000	2014/06/09	FR			MNT	2014/06/09		2014/07/07									BASIC	MXNTIIE28	0.40000				14		F			F	N		N			R		2019/06/03		N	N	100.000000							100.000000				PR				FBD	MXN	FBD	MXN		F	100.000000000			100.00000000	100.000000000			New York	United States o		Mexican law<BR>														2017/07/31	7.76000										0.00000	0.000000000		
BOND	U	2014/06/13	2017/07/05	4287672	MX0SGO0000E3	BD		MXV	0	2013/12/19	MXV		3000.00000	2013/12/19	24556.86000	2017/07/04	FXD	4.00000	A360	SMA	2013/12/19		2014/06/19															461108		F			F						R		2046/11/08				100.000000											SR					MXN		MXN		T				100.00000000	100.000000000																					0.00000										0.00000	0.000000000		
BOND	U	2014/06/14	2017/07/05	4288448	MXLDGO0002J6	BD		MXN	0	2014/06/12	MXN		4515.95620	2014/06/12	28621.81620	2014/08/08	FR				2014/06/12		2014/07/10									BASIC						190606		F			F						R		2019/06/06				100.000000											SR					MXN		MXN		F				100.00000000	100.000000000																				2017/07/06	6.90000										0.00000	0.000000000		
BOND	U	2014/07/15	2017/07/05	4308581	MXXLBR000007	BD		MXN	0	2014/06/19	MXN		55000.00000	2014/06/19	55000.00000	2014/06/19	FR				2014/06/19		2014/07/17									BASIC						240606		F			F						R		2024/06/06				100.000000											SR					MXN		MXN		F				100.00000000	100.000000000																				2017/07/13	6.92000										0.00000	0.000000000		
BOND	U	2014/08/18	2017/07/05	4328786	MXLDGO0002K4	BD		MXN	0	2014/08/14	MXN		1513.35570	2014/08/14	39673.70520	2016/08/16	FR				2014/08/14		2014/09/11									BASIC						190808		F			F						R		2019/08/08				100.000000											SR					MXN		MXN		F				100.00000000	100.000000000																				2017/07/13	6.95000										0.00000	0.000000000		
BOND	U	2014/10/10	2017/07/05	4362805	MXLDGO0002M0	BD		MXN	0	2014/10/09	MXN		2022.07310	2014/10/09	36958.00190	2016/12/02	FR				2014/10/09		2014/11/06									BASIC						191003		F			F						R		2019/10/03				100.000000											SR					MXN		MXN		F				100.00000000	100.000000000																				2017/07/13	6.95000										0.00000	0.000000000		
BOND	U	2014/11/10	2017/07/05	4382343	MX0MGO0000V0	BD		MXN	0	2014/06/19	MXN	101.38563	15000.00000	2014/06/19	233372.38650	2017/07/04	FXD	5.00000			2014/06/19		2014/12/18															191211		F			F						R		2019/12/11		N	N	100.000000											SR					MXN		MXN		F	101.385637000			100.00000000	100.000000000																					0.00000										0.00000	0.000000000		
BOND	U	2015/11/07	2017/07/05	4640579	MXLDGO0002G2	BD		MXN	0	2015/11/05	MXN		15133.46000	2015/11/05	35251.02690	2015/11/27	FR				2015/11/05		2015/12/03									BASIC						201224		F			F						R		2020/12/24				100.000000											SR					MXN		MXN		F				100.00000000	100.000000000																				2017/07/13	6.95000										0.00000	0.000000000		
BOND	U	2014/12/11	2017/07/05	4404270	MXLDGO0002N8	BD		MXN	0	2014/12/11	MXN		5024.66510	2014/12/11	36788.77380	2017/01/27	FR		A360	MNT	2014/12/11		2015/01/08									BASIC	MXNTIIE28					191205		F			F						R		2019/12/05				100.000000											SR					MXN		MXN		F				100.00000000	100.000000000																				2017/07/20	7.02000										0.00000	0.000000000		
BOND	U	2015/02/06	2017/07/05	4441170	MXLDGO0002O6	BD		MXN	0	2015/02/05	MXN	99.59966	5020.71610	2015/02/05	42247.96920	2017/03/31	FR		A360	MNT	2015/02/05		2015/03/05									BASIC	MXNTIIE28					200130		F			F						R		2020/01/30		N	N	100.000000											SR					MXN		MXN		F	99.599660000			100.00000000	100.000000000																				2017/07/20	7.02000										0.00000	0.000000000		
BOND	U	2015/04/13	2017/07/05	4487040	MXLDGO0002Q1	BD		MXN	0	2015/04/09	MXN	98.95260	2000.00000	2015/04/09	40203.31550	2017/05/25	FR		A360	MNT	2015/04/09											BASIC	MXNTIIE28					200402		F			F						R		2020/04/02		N	N	100.000000											SR					MXN		MXN		F	98.952600000			100.00000000	100.000000000																				2017/07/27	7.09000										0.00000	0.000000000		
BOND	U	2017/03/25	2017/07/05	5093087	MXLDGO000397	BD		MXN	0	2017/03/23	MXN	99.15679	1008.50370	2017/03/23	30567.82190	2017/05/12	FR		A360		2017/03/23		2017/04/20									BASIC	MXNTIIE28					220317		F			F						R		2022/03/17				100.000000											SR					MXN		MXN		F	99.156790000			100.00000000	100.000000000																				2017/07/13	6.95000										0.00000	0.000000000		
BOND	U	2017/05/13	2017/07/05	5140389	MX93AR150524	CTF		MXN	0	2016/12/19	MXN		391.90000	2016/12/19	391.90000	2016/12/19	FR				2016/12/19		2017/01/16									BASIC						8816		F			F						R		2017/11/16				100.000000											SR					MXN		MXN		F				100.00000000	100.000000000																				2017/07/31	9.06000										0.00000	0.000000000		
BOND	U	2015/06/08	2017/07/05	4528996	MXLDGO0002R9	BD		MXN	0	2015/06/04	MXN	98.86491	2000.00000	2015/06/04	34654.89790	2017/06/30	FR		A360	MNT	2015/06/04											BASIC	MXNTIIE28					LD200528		F			F						R		2020/05/28		N	N	100.000000											SR					MXN		MXN		F	98.864910000			100.00000000	100.000000000																				2017/07/27	7.09000										0.00000	0.000000000		
BOND	U	2015/08/07	2017/07/05	4577019	MXLDGO0002T5	BD		MXN	0	2015/08/06	MXN		5000.00000	2015/08/06	24080.45720	2015/09/25	FR			MNT	2015/08/06		2015/09/03									BASIC	TD1M					200730		F			F						R		2020/07/30				100.000000											SR					MXN		MXN		F				100.00000000	100.000000000																				2017/07/06	6.90000										0.00000	0.000000000		
BOND	U	2015/10/01	2017/07/05	4617003	MXLDGO0002V1	BD		MXN	0	2015/10/01	MXN		5005.47950	2015/10/01	29543.69010	2015/11/27	FR				2015/10/01		2015/10/29									BASIC						200924		F			F						R		2020/09/24				100.000000											SR					MXN		MXN		F				100.00000000	100.000000000																				2017/07/06	6.90000										0.00000	0.000000000		
BOND	U	2015/10/13	2017/07/05	4624053	MX0MGO0000Y4	BD		MXN	0	2015/09/17	MXN		17000.00000	2015/09/17	158257.69140	2017/07/04	FXD	5.75000		SMA	2015/09/17		2016/03/17			1703	1709											260305		F			F						R		2026/03/05				100.000000											SR					MXN		MXN		F				100.00000000	100.000000000																					0.00000										0.00000	0.000000000		
BOND	U	2016/07/30	2017/07/05	4849405	MXLDGO000330	BD		MXN	0	2016/07/28	MXN	98.94978	750.00000	2016/07/28	18052.86600	2016/09/19	FR		A360	MNT	2016/07/28											BASIC	MXNTIIE28					LD210722		F			F						R		2021/07/22		N	N												SR					MXN		MXN		T	98.949780000			100.00000000	100.000000000																				2017/07/27	7.09000										0.00000	0.000000000		
BOND	U	2015/11/19	2017/07/05	4647955	MX91AD040004	CTF		MXN	0	2007/06/18	MXN		1400.00000	2007/06/18	1400.00000	2007/06/18	FR				2007/06/18											BASIC	BSI					07		F			F						R		2022/05/10				100.000000											SR	BSI				MXN		MXN		F																									2017/07/31	8.11000										0.00000	0.000000000		
BOND	U	2015/11/19	2017/07/05	4648050	MX91AD050003	CTF		MXN	0	2007/06/18	MXN		400.00000	2007/06/18	400.00000	2007/06/18	FR				2007/06/18											BASIC	BSI					07		F			F						R		2022/05/10				100.000000											SR	BSI				MXN		MXN		F																									2017/07/31	8.11000										0.00000	0.000000000		
BOND	U	2015/12/05	2017/07/05	4659040	MXLDGO0002W9	BD		MXN	0	2015/12/03	MXN	98.90801	500.00000	2015/12/03	23042.23720	2016/01/22	FR		A360	MNT	2015/12/03		2015/12/31									BASIC						LD201126		F			F						R		2020/11/26				100.000000											SR					MXN		MXN		F	98.908010000			100.00000000	100.000000000																				2017/07/13	6.95000										0.00000	0.000000000		
BOND	U	2016/02/01	2017/07/05	4697567	MXLDGO0002Y5	BD		MXN	0	2016/01/28	MXN	98.87721	505.67760	2016/01/28	22579.79680	2016/03/28	FR		A360	MNT	2016/01/28		2016/02/25									BASIC						LD210121		F			F						R		2021/01/21				100.000000											SR					MXN		MXN		F	98.877210000			100.00000000	100.000000000																				2017/07/13	6.95000										0.00000	0.000000000		
BOND	U	2016/04/05	2017/07/05	4744077	MXLDGO0002Z2	BD		MXN	0	2016/03/31	MXN	98.94936	5007.02880	2016/03/31	20534.33650	2016/05/20	FR		A360	MNT	2016/03/31		2016/04/28									BASIC	MXNTIIE28					LD210325		F			F						R		2021/03/25		N	N	100.000000											SR					MXN		MXN		T	98.949360000			100.00000000	100.000000000																				2017/07/20	7.02000										0.00000	0.000000000		
BOND	U	2016/05/27	2017/07/05	4787456	MXLDGO000314	BD		MXN	0	2016/05/26	MXN	99.09231	3000.00000	2016/05/26	39425.58350	2016/08/16	FR		A360	MNT	2016/05/26		2016/06/23									BASIC						210520		F			F						R		2021/05/20		N	N	100.000000											SR					MXN		MXN		T	99.092310000			100.00000000	100.000000000																				2017/07/20	7.02000										0.00000	0.000000000		
BOND	U	2016/07/08	2017/07/05	4827275	MXLDGO000322	BD		MXN	0	2016/07/07	MXN	99.90432	500.00000	2016/07/07	9747.03560	2016/09/30	FR		A360	MNT	2016/07/07											BASIC	MXNTIIE28					LD170706		F			F						R		2017/07/06		N	N	100.000000											SR					MXN		MXN		T	99.904320000			100.00000000	100.000000000																				2017/07/06	6.90000										0.00000	0.000000000		
BOND	U	2016/08/08	2017/07/05	4858151	MX0FCS0601S5	CD		MXN	0	2016/08/04	MXN		120.00000	2016/08/04	81.60000	2016/11/24	FR				2016/08/04		2016/09/01									BASIC						16027		F			F						R		2017/08/03				100.000000											SR					MXN		MXN		F				100.00000000	100.000000000																				2017/07/06	7.84012										0.00000	0.000000000		
BOND	U	2016/08/31	2017/07/05	4884487	MX0FBS0006I0	CD		MXN	0	2016/08/29	MXN		650.00000	2016/08/29	650.00000	2016/08/29	FR				2016/08/29											BASIC								F			F						R		2017/07/31															SR					MXN		MXN		F				100.00000000	100.000000000																				2017/07/31	7.46500										0.00000	0.000000000		
BOND	U	2017/06/06	2017/07/05	5163929	MX0FBM1D0AG3	CD		MXN	0	2017/06/05	MXN		500.00000	2017/06/05	500.00000	2017/06/05	FR				2017/06/05		2017/07/03									BASIC						17055		F			F						R		2017/08/28				100.000000											SR					MXN		MXN		F				100.00000000	100.000000000																				2017/07/31	7.59000										0.00000	0.000000000		
BOND	U	2017/06/06	2017/07/05	5163933	MX0FBM1D0AH1	CD		MXN	0	2017/06/05	MXN		150.00000	2017/06/05	150.00000	2017/06/05	FR				2017/06/05		2017/07/03									BASIC						17056		F			F						R		2017/08/28				100.000000											SR					MXN		MXN		F				100.00000000	100.000000000																				2017/07/31	7.64000										0.00000	0.000000000		
BOND	U	2017/06/06	2017/07/05	5163939	MX0FBM1D0AI9	CD		MXN	0	2017/06/05	MXN		200.00000	2017/06/05	200.00000	2017/06/05	FR				2017/06/05		2017/07/03									BASIC						17057		F			F						R		2017/09/25				100.000000											SR					MXN		MXN		F				100.00000000	100.000000000																				2017/07/31	7.65000										0.00000	0.000000000		
BOND	U	2016/09/21	2017/07/05	4908183	MXLDGO000348	BD		MXN	0	2016/09/22	MXN	99.05400	750.00000	2016/09/22	18806.57180	2016/11/22	FR		A360	MNT	2016/09/22		2016/10/20									BASIC	MXNTIIE28					LD210915		F			F						R		2021/09/15				100.000000											SR					MXN		MXN		T	99.054000000			100.00000000	100.000000000																				2017/07/27	7.09000										0.00000	0.000000000		
BOND	U	2016/10/04	2017/07/05	4923781	MXLDGO000355	BD		MXN	0	2016/10/06	MXN		750.00000	2016/10/06	9747.45900	2016/12/30	FR		A360	MNT	2016/10/06											BASIC						LD171005		F			F						R		2017/10/05				100.000000											SR					MXN		MXN		T				100.00000000	100.000000000																				2017/07/13	6.95000										0.00000	0.000000000		
BOND	U	2016/10/25	2017/07/05	4944400	MX0FBA012OS9	CD		MXN	0	2016/09/26	MXN		1000.00000	2016/09/26	1000.00000	2016/09/26	FR				2016/09/26		2016/10/24															16039		F			F						R		2017/09/25				100.000000											SR					MXN		MXN		F				100.00000000	100.000000000																				2017/07/31	7.40500										0.00000	0.000000000		
BOND	U	2016/10/28	2017/07/05	4947942	MX0FBI0210W0	BD		MXN	0	2016/10/24	MXN		20.00000	2016/10/24	20.00000	2016/10/24	FR				2016/10/24		2016/11/22									BASIC						16029		F			F						R		2017/10/23				100.000000											SR					MXN		MXN		F				100.00000000	100.000000000																				2017/07/31	7.61500										0.00000	0.000000000		
BOND	U	2016/11/24	2017/07/05	4971705	MXLDGO000363	BD		MXN	0	2016/11/24	MXN	98.93447	4750.00000	2016/11/24	23056.16670	2017/01/13	FR		A360	MNT	2016/11/24											BASIC	MXNTIIE28					LD211118		F			F						R		2021/11/18				100.000000											SR					MXN		MXN		T	98.934470000			100.00000000	100.000000000																				2017/07/06	6.90000										0.00000	0.000000000		
BOND	U	2016/12/23	2017/07/05	5000561	MX0FBI0005R4	CD		MXN	0	2016/12/21	MXN		200.00000	2016/12/21		2017/07/05	FR				2016/12/21		2017/01/18									BASIC						16063		F			F						R		2017/07/05				100.000000											SR					MXN		MXN		F				100.00000000	100.000000000																				2017/07/05	8.06000										0.00000	0.000000000		
BOND	U	2017/01/04	2017/07/05	5009493	MXLDGO000371	BD		MXN	0	2017/01/05	MXN	99.94826	1001.37070	2017/01/05	11989.02550	2017/03/24	FR		A360		2017/01/05		2017/02/02									BASIC	MXNTIIE28					180104		F			F						R		2018/01/04				100.000000											SR					MXN		MXN		F	99.948260000			100.00000000	100.000000000																				2017/07/20	7.02000										0.00000	0.000000000		
BOND	U	2017/01/19	2017/07/05	5023606	MXLDGO000389	BD		MXN	0	2017/01/19	MXN	99.05276	5500.00000	2017/01/19	33719.04340	2017/03/17	FR		A360	MNT	2017/01/19											BASIC	MXNTIIE28					LD220113		F			F						R		2022/01/13				100.000000											SR					MXN		MXN		T	99.052760000			100.00000000	100.000000000																				2017/07/06	6.90000										0.00000	0.000000000		
BOND	U	2017/02/14	2017/07/05	5048766	MX0FBM1D09A0	CD		MXN	0	2017/02/13	MXN						FR				2017/02/13		2017/03/13									BASIC						17013		F			F						R		2018/02/12															SR					MXN		MXN		F				0.00000000	100.000000000																				2017/07/31	0.07670										0.00000	0.000000000		
BOND	U	2017/05/05	2017/07/05	5133178	MXIQBP070170	BD		MXN	0	2017/05/04	MXN	99.11746	1400.00000	2017/05/04	12600.00000	2017/06/29	FR		A360	QTR	2017/05/04		2017/08/03									BASIC	CETES91					IQ220428		F			F						R		2022/04/28		N	N	100.000000											SR					MXN		MXN		F	99.117460000			100.00000000	100.000000000																					0.00000										0.00000	0.000000000		
BOND	U	2017/03/10	2017/07/05	5075356	MX0MGO000102	BD		MXN	0	2017/02/23	MXN		15000.00000	2017/02/23	36775.29920	2017/07/04	FXD	8.00000	A360		2017/02/23		2017/06/15															M471107		F			F						R		2047/11/07				100.000000											SR					MXN		MXN		F				100.00000000	100.000000000																					0.00000										0.00000	0.000000000		
BOND	U	2017/04/07	2017/07/05	5107730	MXLDGO0003A3	BD		MXN	0	2017/04/06	MXN	99.90359	1501.44750	2017/04/06	19280.79030	2017/06/30	FR		A360		2017/04/06		2017/05/04									BASIC	MXNTIIE28					180405		F			F						R		2018/04/05		N	N	100.000000											SR					MXN		MXN		F	99.903590000			100.00000000	100.000000000																				2017/07/27	7.09000										0.00000	0.000000000		
BOND	U	2017/04/11	2017/07/05	5111015	MX0FBS000797	CD		MXN	0	2017/04/10	MXN		1500.00000	2017/04/10	1500.00000	2017/04/10	FR				2017/04/10		2017/05/08									BASIC						17012		F			F						R		2018/03/12				100.000000											SR					MXN		MXN		F				100.00000000	100.000000000																				2017/07/31	7.48500										0.00000	0.000000000		
BOND	U	2017/04/11	2017/07/05	5111019	MX0FBS0007A5	CD		MXN	0	2017/04/10	MXN		1500.00000	2017/04/10	1500.00000	2017/04/10	FR				2017/04/10		2017/05/08									BASIC						17013		F			F						R		2018/04/09				100.000000											SR					MXN		MXN		F				100.00000000	100.000000000																				2017/07/31	7.48500										0.00000	0.000000000		
BOND	U	2017/04/20	2017/06/14	5118420	MX0FBB0J01S1	CD		MXN	0	2017/04/19	MXN		40.00000	2017/04/19		2017/06/14	FR				2017/04/19		2017/05/17									BASIC						17016		F			F						R		2017/06/14				100.000000											SR					MXN		MXN		F				100.00000000	100.000000000																				2017/06/14	7.33850										0.00000	0.000000000		
BOND	U	2017/04/29	2017/06/14	5128137	MX93CF0800C1	CTF		MXN	0	2016/11/30	MXN		3500.00000	2016/11/30		2017/06/14	FR				2016/11/30		2016/12/28									BASIC						616		F			F						R		2017/06/14				100.000000											SR					MXN		MXN		F				100.00000000	100.000000000																				2017/06/14	6.99000										0.00000	0.000000000		
BOND	U	2017/05/09	2017/07/05	5135749	MX0FBA0606S4	CD		MXN	0	2017/05/08	MXN		1000.00000	2017/05/08	1000.00000	2017/05/08	FR				2017/05/08		2017/06/05									BASIC						17044		F			F						R		2018/05/07				100.000000											SR					MXN		MXN		F				100.00000000	100.000000000																				2017/07/31	7.30500										0.00000	0.000000000		
BOND	U	2017/05/09	2017/07/05	5135750	MX0FBM1D0A65	CD		MXN	0	2017/05/08	MXN		200.00000	2017/05/08	200.00000	2017/05/08	FR				2017/05/08		2017/06/05									BASIC						17045		F			F						R		2017/07/31				100.000000											SR					MXN		MXN		F				100.00000000	100.000000000																				2017/07/31	7.62000										0.00000	0.000000000		
BOND	U	2017/05/18	2017/07/05	5144676	MXIMBP060118	BD		MXN	0	2017/05/18	MXN	99.51520	1500.00000	2017/05/18	10500.00000	2017/06/29	FR		A360	MNT	2017/05/18		2017/06/15									BASIC	CETES28					200514		F			F						R		2020/05/14		N	N	100.000000											SR					MXN		MXN		F	99.515200000			100.00000000	100.000000000																				2017/07/13	6.79000										0.00000	0.000000000		
BOND	U	2017/05/18	2017/07/05	5144681	MXLDGO0003B1	BD		MXN	0	2017/05/18	MXN	99.14140	1500.00000	2017/05/18	24070.38060	2017/06/30	FR		A360	MNT	2017/05/18		2017/06/15									BASIC	MXNTIIE28					220512		F			F						R		2022/05/12		N	N	100.000000											SR					MXN		MXN		F	99.141400000			100.00000000	100.000000000																				2017/07/13	6.95000										0.00000	0.000000000		
BOND	U	2017/06/06	2017/07/05	5163908	MX0FBB0J0204	CD		MXN	0	2017/06/05	MXN		200.00000	2017/06/05	200.00000	2017/06/05	FR				2017/06/05		2017/07/03									BASIC						17024		F			F						R		2017/11/21				100.000000											SR					MXN		MXN		F				100.00000000	100.000000000																				2017/07/31	7.91000										0.00000	0.000000000		
BOND	U	2017/06/06	2017/07/05	5163944	MX0FSH0003L8	CD		MXN	0	2017/06/05	MXN		300.00000	2017/06/05	300.00000	2017/06/05	FR				2017/06/05		2017/07/03									BASIC						17013		F			F						R		2018/06/04				100.000000											SR					MXN		MXN		F				100.00000000	100.000000000																				2017/07/31	7.36500										0.00000	0.000000000		
BOND	U	2017/06/07	2017/07/05	5165128	MX0FHS0B06Y0	CD		USD	0	2017/06/02	USD		150.00000	2017/06/02	150.00000	2017/06/02	FR				2017/06/02		2017/07/02									BASIC						D17003		F			F						R		2018/05/28				100.000000											SR					USD		USD		F				100.00000000	100.000000000																				2017/08/01	1.62389										0.00000	0.000000000		
BOND	U	2017/07/04	2017/07/05	5191969	MX0FBM1D0AV2	CD		MXN	0	2017/07/03	MXN		200.00000	2017/07/03	200.00000	2017/07/03	FR				2017/07/03		2017/07/31									BASIC						17071		F			F						R		2018/01/15				100.000000											SR					MXN		MXN		F				100.00000000	100.000000000																				2017/07/31	7.74000										0.00000	0.000000000		
BOND	U	2017/07/04	2017/07/05	5191977	MX0FBM1D0AW0	BD		MXN	0	2017/07/03	MXN		300.00000	2017/07/03	300.00000	2017/07/03	FR				2017/07/03		2017/07/31									BASIC						17070		F			F						R		2017/11/21				100.000000											SR					MXN		MXN		F				100.00000000	100.000000000																				2017/07/31	7.69000										0.00000	0.000000000		
BOND	U	2017/07/04	2017/07/05	5191983	MX0FBA0A0SL4	CD		MXN	0	2017/06/30	MXN		1000.00000	2017/06/30	1000.00000	2017/06/30	FR				2017/06/30		2017/07/21									BASIC						17105		F			F						R		2018/06/22				100.000000											SR					MXN		MXN		F				100.00000000	100.000000000																				2017/07/21	7.46000										0.00000	0.000000000		
BOND	U	2017/07/04	2017/07/05	5192009	MX0FBA012R53	CD		MXN	0	2017/06/26	MXN		1000.00000	2017/06/26	1000.00000	2017/06/26	FR				2017/06/26		2017/07/24									BASIC						17007		F			F						R		2018/06/25				100.000000											SR					MXN		MXN		F				100.00000000	100.000000000																				2017/07/24	7.37650										0.00000	0.000000000		
BOND	U	2017/07/05	2017/07/05	5193312	MX0FBM1D0AX8	CD		MXN	0	2017/07/04	MXN		8.00000	2017/07/04	8.00000	2017/07/04	FR				2017/07/04		2017/08/01									BASIC						17072		F			F						R		2017/10/24				100.000000											SR					MXN		MXN		F				100.00000000	100.000000000																					0.00000										0.00000	0.000000000		
EDI_ENDOFFILE
