EDI_SACHG_20160302
TableName	Actflag	Created	Changed	SachgID	ScagyID	SecID	ISIN	EffectiveDate	OldRelationship	NewRelationship	OldAgncyID	NewAgncyID	OldSpStartDate	NewSpStartDate	OldSpEndDate	NewSpEndDate	OldGuaranteeType	NewGuaranteeType
SACHG	I	2016/01/16	2016/01/18	21180	1747053	4674015	INE145P07028	2015/12/23	TST	TST	6808	7053						
SACHG	I	2016/01/16	2016/01/18	21181	1750885	4677333	INE008A08V00	2015/12/31	TST	TST	24345	21785						
SACHG	I	2016/01/16	2016/01/18	21182	1732198	4659287	INE013A07S33	2015/12/03	TST	TST	6808	7053						
SACHG	I	2016/01/16	2016/01/18	21183	1688403	4612964	INE515Q07145	2015/09/23	GUR	GUR	12266	19255					GTD	GTD
SACHG	I	2016/01/16	2016/01/18	21184	1753259	4612964	INE515Q07145	2015/09/23	MGR	MGR	12266	19255						
SACHG	I	2016/01/16	2016/01/18	21185	1688405	4612964	INE515Q07145	2015/09/23	TST	TST	18371	17725						
SACHG	I	2016/01/16	2016/01/18	21186	1688404	4612964	INE515Q07145	2015/09/23	GUR	GUR	25792	20402					GTD	GTD
SACHG	I	2016/01/16	2016/01/18	21187	1758335	4684648	US035242AG14	2016/01/14	GUR	GUR	12033	14661					GTD	GTD
SACHG	I	2016/01/16	2016/01/18	21188	1758341	4684657	US035242AJ52	2016/01/14	GUR	GUR	12033	14661					GTD	GTD
SACHG	I	2016/01/16	2016/01/18	21189	1758290	4684631	US035242AP13	2016/01/14	GUR	GUR	12033	14661					GTD	GTD
SACHG	I	2016/01/16	2016/01/18	21190	1758317	4684642	US035242AN64	2016/01/14	GUR	GUR	12033	14661					GTD	GTD
SACHG	I	2016/01/16	2016/01/18	21191	1758302	4684637	US035242AM81	2016/01/14	GUR	GUR	12033	14661					GTD	GTD
SACHG	I	2016/01/16	2016/01/18	21192	1758332	4684667	US035242AK26	2016/01/14	GUR	GUR	12033	14661					GTD	GTD
SACHG	I	2016/01/16	2016/01/18	21193	1758355	4684674	US035242AL09	2016/01/14	GUR	GUR	12033	14661					GTD	GTD
SACHG	I	2016/01/16	2016/01/18	21194	1759774	4659142	XS1314342608	2016/01/05	UNW	UNW	2971	15491						
SACHG	I	2016/01/16	2016/01/18	21195	1725280	4647773	INE750H07071	2015/11/19	TST	TST	3161	3136						
SACHG	I	2016/01/16	2016/01/18	21196	1464366	3931361	XS0852986313	2012/11/16	GUR	GUR	27942	31100					GTD	GTD
SACHG	I	2016/01/18	2016/01/18	21197	1737010	4664263	XS1333661483	2015/12/22	DEP	DEP	3558	3198						
SACHG	I	2016/01/18	2016/01/18	21198	1304675	4166200	US984245AJ90	2013/12/20	REG	REG	25705	16541						
SACHG	I	2016/01/18	2016/01/18	21199	1304674	4166200	US984245AJ90	2013/12/20	PA	PA	16488	4958						
SACHG	I	2016/01/18	2016/01/18	21200	1304673	4166200	US984245AJ90	2013/12/20	TST	TST	16488	18614						
SACHG	I	2016/01/18	2016/01/18	21201	1760596	441745	AU0000AXJHA9	2006/10/27	PA	PA	1678	1388						
SACHG	I	2016/01/18	2016/01/18	21202	1753950	4680706	INE860H07CG4	2016/01/08	TST	TST	6808	29978						
SACHG	I	2016/01/18	2016/01/18	21203	1304659	4166200	US984245AJ90	2013/12/20	MGR	MGR	17156	9026						
SACHG	I	2016/01/18	2016/01/18	21204	1753586	4680274	INE860H07CH2	2016/01/08	TST	TST	6808	29978						
SACHG	I	2016/01/18	2016/01/18	21205	1753577	4680264	INE860H07CF6	2016/01/08	TST	TST	6808	29978						
SACHG	I	2016/01/18	2016/01/18	21206	1736661	4663906	INE915D07SW8	2015/12/09	TST	TST	3161	3136						
SACHG	I	2016/01/18	2016/01/18	21207	1736662	4663906	INE915D07SW8	2015/12/09	REG	REG	31555	22121						
SACHG	I	2016/01/19	2016/01/19	21209	1750842	4677292	INE649A08029	2015/12/31	TST	TST	3161	3136						
SACHG	I	2016/01/19	2016/01/19	21211	1753173	4679722	NO0010755028	2016/01/07	MGR	MGR	18021	15557						
SACHG	I	2016/01/19	2016/01/19	21212	1751133	4677535	INE836B08061	2015/12/31	TST	TST	18371	26174						
SACHG	I	2016/01/19	2016/01/19	21213	1749990	4676403	INE918K07EH8	2015/12/30	TST	TST	24345	21785						
SACHG	I	2016/01/19	2016/01/19	21214	1751024	4677442	INE148I07DN6	2015/12/31	TST	TST	3161	3136						
SACHG	I	2016/01/19	2016/01/19	21215	1751002	4677432	INE148I07DM8	2015/12/31	TST	TST	3161	3136						
SACHG	I	2016/01/19	2016/01/19	21216	1751914	4678283	INE148I07DO4	2016/01/01	TST	TST	3161	3136						
SACHG	I	2016/01/19	2016/01/19	21217	1736666	4663917	INE879Q07046	2015/12/11	TST	TST	18371	26602						
SACHG	I	2016/01/19	2016/01/19	21218	1746371	4673349	INE879Q08028	2015/12/23	TST	TST	18371	26602						
SACHG	I	2016/01/19	2016/01/19	21219	1732523	4659653	INE915D07SV0	2015/12/03	REG	REG	11720	22119						
SACHG	I	2016/01/19	2016/01/19	21220	1732522	4659653	INE915D07SV0	2015/12/03	TST	TST	3161	3136						
SACHG	I	2016/01/19	2016/01/19	21221	1745427	4659653	INE915D07SV0	2015/12/03	CAL	CAL	6388	22119						
SACHG	I	2016/01/19	2016/01/19	21222	1732523	4659653	INE915D07SV0	2015/12/04	REG	REG	22119	22121						
SACHG	I	2016/01/19	2016/01/19	21223	1748396	4675394	INE851M07101	2015/12/28	TST	TST	6808	7053						
SACHG	I	2016/01/19	2016/01/19	21224	1748381	4675386	INE851M07119	2015/12/28	TST	TST	6808	7053						
SACHG	I	2016/01/19	2016/01/19	21225	1755373	4682446	XS1345388992	2016/01/15	DEP	DEP	3556	16060						
SACHG	I	2016/01/19	2016/01/19	21226	1760888	4682446	XS1345388992	2016/01/15	PA	PA	3556	16060						
SACHG	I	2016/01/19	2016/01/19	21227	1761604	4682420	XS1345634866	2016/01/15	GUR	GUR	18089	2953					GTD	GTD
SACHG	I	2016/01/19	2016/01/19	21228	1756006	4683329	XS1346200055	2016/01/15	MGR	MGR	7687	14737						
SACHG	I	2016/01/20	2016/01/20	21229	1454998	4352585	AT000B020953	2014/09/19	PA	PA	14781	32087						
SACHG	I	2016/01/20	2016/01/20	21230	1563819	4455017	AT000B020987	2014/09/19	CAL	CAL	14781	32087						
SACHG	I	2016/01/20	2016/01/20	21231	1563816	4455017	AT000B020987	2014/09/19	PA	PA	14781	32087						
SACHG	I	2016/01/20	2016/01/20	21232	1740821	4667715	INE217K07521	2015/12/16	TST	TST	3161	15668						
SACHG	I	2016/01/20	2016/01/20	21233	1668616	4591875	INE331M07104	2015/08/15	TST	TST	6912	26073						
SACHG	I	2016/01/20	2016/01/20	21234	1684111	4607863	INE331M07112	2015/09/17	TST	TST	6912	26073						
SACHG	I	2016/01/20	2016/01/20	21238	1743228	4669424	INE906B07EG4	2016/01/11	MGR	MGR	25670	11789						
SACHG	I	2016/01/20	2016/01/20	21239	1743230	4669424	INE906B07EG4	2016/01/11	REG	REG	1318	29845						
SACHG	I	2016/01/20	2016/01/20	21240	1743229	4669424	INE906B07EG4	2016/01/11	TST	TST	24345	21785						
SACHG	I	2016/01/20	2016/01/20	21241	1758268	4683943	INE906B07EI0	2016/01/11	MGR	MGR	25670	11789						
SACHG	I	2016/01/20	2016/01/20	21242	1758269	4683943	INE906B07EI0	2016/01/11	TST	TST	24345	21785						
SACHG	I	2016/01/20	2016/01/20	21243	1758246	4683936	INE906B07EH2	2016/01/11	MGR	MGR	25670	11789						
SACHG	I	2016/01/20	2016/01/20	21244	1758247	4683936	INE906B07EH2	2016/01/11	TST	TST	24345	21785						
SACHG	I	2016/01/20	2016/01/20	21245	1758277	4683952	INE906B07EJ8	2016/01/11	MGR	MGR	25670	11789						
SACHG	I	2016/01/20	2016/01/20	21246	1758278	4683952	INE906B07EJ8	2016/01/11	TST	TST	24345	21785						
SACHG	I	2016/01/20	2016/01/20	21247	1753987	4680722	INE148I07DP1	2016/01/07	TST	TST	3161	3136						
SACHG	I	2016/01/20	2016/01/20	21248	1755475	4682563	INE013A07U05	2016/01/05	TST	TST	6808	29845						
SACHG	I	2016/01/20	2016/01/20	21249	1755476	4682563	INE013A07U05	2016/01/05	REG	REG	24343	29845						
SACHG	I	2016/01/21	2016/01/21	21252	1756557	4683745	INE881J08367	2016/01/12	TST	TST	18371	26602						
SACHG	I	2016/01/21	2016/01/21	21253	1636334	4555312	INE296A08730	2015/07/11	TST	TST	18371	26174						
SACHG	I	2016/01/21	2016/01/21	21254	1623829	4541097	INE296A07GX2	2015/06/23	REG	REG	6763	29845						
SACHG	I	2016/01/21	2016/01/21	21255	1623828	4541097	INE296A07GX2	2015/06/23	TST	TST	18371	26174						
SACHG	I	2016/01/21	2016/01/21	21256	1623957	4541190	INE296A07HC4	2015/06/23	REG	REG	6763	29845						
SACHG	I	2016/01/21	2016/01/21	21257	1623956	4541190	INE296A07HC4	2015/06/23	TST	TST	18371	26174						
SACHG	I	2016/01/21	2016/01/21	21258	1623789	4541047	INE296A07GT0	2015/06/23	REG	REG	6763	29845						
SACHG	I	2016/01/21	2016/01/21	21259	1623788	4541047	INE296A07GT0	2015/06/23	TST	TST	18371	26174						
SACHG	I	2016/01/21	2016/01/21	21260	1623856	4541115	INE296A07GY0	2015/06/23	REG	REG	6763	29845						
SACHG	I	2016/01/21	2016/01/21	21261	1623855	4541115	INE296A07GY0	2015/06/23	TST	TST	18371	26174						
SACHG	I	2016/01/21	2016/01/21	21262	1623937	4541182	INE296A07HB6	2015/06/23	REG	REG	6763	29845						
SACHG	I	2016/01/21	2016/01/21	21263	1623936	4541182	INE296A07HB6	2015/06/23	TST	TST	18371	26174						
SACHG	I	2016/01/21	2016/01/21	21264	1725597	4652565	XS1318363766	2015/12/01	MGR	MGR	28598	16060						
SACHG	I	2016/01/21	2016/01/21	21265	1725600	4652569	XS1318364228	2015/12/01	MGR	MGR	28598	16060						
SACHG	I	2016/01/21	2016/01/21	21266	1623874	4541126	INE296A07GZ7	2015/06/23	REG	REG	6763	29845						
SACHG	I	2016/01/21	2016/01/21	21267	1623873	4541126	INE296A07GZ7	2015/06/23	TST	TST	18371	26174						
SACHG	I	2016/01/21	2016/01/21	21268	1623796	4541064	INE296A07GU8	2015/06/23	REG	REG	6763	29845						
SACHG	I	2016/01/21	2016/01/21	21269	1623795	4541064	INE296A07GU8	2015/06/23	TST	TST	18371	26174						
SACHG	I	2016/01/21	2016/01/21	21270	1731587	4652569	XS1318364228	2015/12/01	DEP	DEP	3556	16060						
SACHG	I	2016/01/21	2016/01/21	21271	1623913	4541164	INE296A07HA8	2015/06/23	REG	REG	6763	29845						
SACHG	I	2016/01/21	2016/01/21	21272	1623912	4541164	INE296A07HA8	2015/06/23	TST	TST	18371	26174						
SACHG	I	2016/01/21	2016/01/21	21273	1623805	4541071	INE296A07GV6	2015/06/23	REG	REG	6763	29845						
SACHG	I	2016/01/21	2016/01/21	21274	1623804	4541071	INE296A07GV6	2015/06/23	TST	TST	18371	26174						
SACHG	I	2016/01/21	2016/01/21	21275	1623824	4541085	INE296A07GW4	2015/06/23	REG	REG	6763	29845						
SACHG	I	2016/01/21	2016/01/21	21276	1623823	4541085	INE296A07GW4	2015/06/23	TST	TST	18371	26174						
SACHG	I	2016/01/21	2016/01/21	21277	1517793	4436095	INE296A07EX7	2015/01/28	TST	TST	18371	26174						
SACHG	I	2016/01/21	2016/01/21	21278	1517803	4436105	INE296A07EY5	2015/01/28	TST	TST	18371	26174						
SACHG	I	2016/01/21	2016/01/21	21279	1517660	4435902	INE296A07EU3	2015/01/28	TST	TST	18371	26174						
SACHG	I	2016/01/21	2016/01/21	21280	1517678	4435921	INE296A07EW9	2015/01/28	TST	TST	18371	26174						
SACHG	I	2016/01/21	2016/01/21	21281	1517670	4435907	INE296A07EV1	2015/01/28	TST	TST	18371	26174						
SACHG	I	2016/01/22	2016/01/22	21284	1521131	4439738	INE296A07FA2	2015/02/04	TST	TST	18371	26174						
SACHG	I	2016/01/22	2016/01/22	21285	1521139	4439743	INE296A07EZ2	2015/02/04	TST	TST	18371	26174						
SACHG	I	2016/01/22	2016/01/22	21286	1521119	4439736	INE296A07FB0	2015/02/04	TST	TST	18371	26174						
SACHG	I	2016/01/22	2016/01/22	21287	1763544	4688770	US53944VAM19	2016/01/21	PA	PA	3623	4757						
SACHG	I	2016/01/22	2016/01/22	21288	1763543	4688770	US53944VAM19	2016/01/21	TST	TST	3623	4757						
SACHG	I	2016/01/22	2016/01/22	21289	1536850	4455429	INE296A07FF1	2015/02/28	TST	TST	18371	26174						
SACHG	I	2016/01/22	2016/01/22	21290	1757832	4683555	XS1346201889	2016/01/18	MGR	MGR	30501	3751						
SACHG	I	2016/01/22	2016/01/22	21291	1757822	4683548	XS1346201616	2016/01/18	MGR	MGR	30501	3751						
SACHG	I	2016/01/22	2016/01/22	21292	1536917	4455484	INE296A07FC8	2015/02/28	TST	TST	18371	26174						
SACHG	I	2016/01/22	2016/01/22	21293	1536853	4455431	INE296A07FE4	2015/02/28	TST	TST	18371	26174						
SACHG	I	2016/01/22	2016/01/22	21294	1536865	4455440	INE296A07FD6	2015/02/28	TST	TST	18371	26174						
SACHG	I	2016/01/22	2016/01/22	21295	1558611	4475441	INE296A07FN5	2015/03/26	TST	TST	18371	26174						
SACHG	I	2016/01/22	2016/01/22	21296	1558571	4475416	INE296A07FJ3	2015/03/26	TST	TST	18371	26174						
SACHG	I	2016/01/22	2016/01/22	21297	1558586	4475428	INE296A07FL9	2015/03/26	TST	TST	18371	26174						
SACHG	I	2016/01/22	2016/01/22	21298	1558595	4475433	INE296A07FM7	2015/03/26	TST	TST	18371	26174						
SACHG	I	2016/01/23	2016/01/25	21299	1755976	4683299	XS1346130419	2016/01/18	MGR	MGR	3863	18938						
SACHG	I	2016/01/23	2016/01/25	21300	1762574	4670655	XS1333208731	2015/12/12	UNW	UNW	32116	31098						
SACHG	I	2016/01/23	2016/01/25	21301	1762641	4670655	XS1333208731	2015/12/12	CAL	CAL	32116	31098						
SACHG	I	2016/01/23	2016/01/25	21302	1558533	4475393	INE296A07FH7	2015/03/26	TST	TST	18371	26174						
SACHG	I	2016/01/23	2016/01/25	21303	1705300	4629813	NO0010747777	2015/10/19	MGR	MGR	20816	15557						
SACHG	I	2016/01/23	2016/01/25	21304	1558543	4475400	INE296A07FI5	2015/03/26	TST	TST	18371	26174						
SACHG	I	2016/01/23	2016/01/25	21305	1558578	4475422	INE296A07FK1	2015/03/26	TST	TST	18371	26174						
SACHG	I	2016/01/23	2016/01/25	21306	1562127	4478859	INE296A07FU0	2015/04/01	TST	TST	18371	26174						
SACHG	I	2016/01/23	2016/01/25	21307	435130	115998	CA3175041084	2003/10/09	CUST	CUST	3086	32138						
SACHG	I	2016/01/23	2016/01/25	21308	1562028	4478748	INE296A07FO3	2015/03/31	TST	TST	18371	26174						
SACHG	I	2016/01/23	2016/01/25	21309	1562108	4478839	INE296A07FT2	2015/04/01	TST	TST	18371	26174						
SACHG	I	2016/01/23	2016/01/25	21310	1562037	4478767	INE296A07FP0	2015/04/01	TST	TST	18371	26174						
SACHG	I	2016/01/23	2016/01/25	21311	1562078	4478810	INE296A07FR6	2015/04/01	TST	TST	18371	26174						
SACHG	I	2016/01/23	2016/01/25	21312	1562092	4478823	INE296A07FS4	2015/04/01	TST	TST	18371	26174						
SACHG	I	2016/01/23	2016/01/25	21313	1632243	4550245	INE296A07HG5	2015/07/07	TST	TST	18371	26174						
SACHG	I	2016/01/23	2016/01/25	21314	1631713	4549322	INE296A07HD2	2015/07/07	TST	TST	18371	26174						
SACHG	I	2016/01/23	2016/01/25	21315	1631741	4549371	INE296A07HE0	2015/07/07	TST	TST	18371	26174						
SACHG	I	2016/01/23	2016/01/25	21316	1565793	4482569	INE296A07FV8	2015/04/08	TST	TST	18371	26174						
SACHG	I	2016/01/23	2016/01/25	21317	1553180	4470812	INE296A08722	2015/03/20	TST	TST	18371	26174						
SACHG	I	2016/01/23	2016/01/25	21318	1546859	4465558	INE296A07FG9	2015/03/14	TST	TST	18371	26174						
SACHG	I	2016/01/23	2016/01/25	21319	1653684	4575050	INE296A07HR2	2015/08/03	TST	TST	18371	26174						
SACHG	I	2016/01/23	2016/01/25	21320	1653772	4575106	INE296A07HS0	2015/08/04	TST	TST	18371	26174						
SACHG	I	2016/01/23	2016/01/25	21321	1712495	4633301	XS1313647841	2015/11/05	MGR	MGR	30501	4378						
SACHG	I	2016/01/23	2016/01/25	21322	1653674	4575046	INE296A07HQ4	2015/08/04	TST	TST	18371	26174						
SACHG	I	2016/01/23	2016/01/25	21323	1666213	4590021	INE296A07HW2	2015/08/21	TST	TST	18371	26174						
SACHG	I	2016/01/23	2016/01/25	21324	1666202	4590009	INE296A07HX0	2015/08/21	TST	TST	18371	26174						
SACHG	I	2016/01/23	2016/01/25	21325	1758402	4685328	INE916DA7JV1	2016/01/12	TST	TST	3161	3136						
SACHG	I	2016/01/23	2016/01/25	21326	1764997	4324915	US472145AA96	2014/08/13	BC	BC	13478	32156						
SACHG	I	2016/01/25	2016/01/25	21327	1632244	4550245	INE296A07HG5	2015/07/07	REG	REG	6132	29845						
SACHG	I	2016/01/25	2016/01/25	21329	1631714	4549322	INE296A07HD2	2015/07/07	REG	REG	6132	29845						
SACHG	I	2016/01/25	2016/01/25	21330	1631742	4549371	INE296A07HE0	2015/07/07	REG	REG	6132	29845						
SACHG	I	2016/01/25	2016/01/25	21331	1653685	4575050	INE296A07HR2	2015/08/04	REG	REG	6763	29845						
SACHG	I	2016/01/25	2016/01/25	21332	1765248	4688074	XS1339638048	2016/01/23	REG	REG	4757	6582						
SACHG	I	2016/01/25	2016/01/25	21333	1752538	4679076	INE414G07AQ5	2016/01/21	TST	TST	3161	3136						
SACHG	I	2016/01/25	2016/01/25	21334	1653773	4575106	INE296A07HS0	2015/08/04	REG	REG	6763	29845						
SACHG	I	2016/01/25	2016/01/25	21335	1653675	4575046	INE296A07HQ4	2015/08/04	REG	REG	6763	29845						
SACHG	I	2016/01/25	2016/01/25	21336	1666214	4590021	INE296A07HW2	2015/08/21	REG	REG	6763	29845						
SACHG	I	2016/01/25	2016/01/25	21337	1666203	4590009	INE296A07HX0	2015/08/21	REG	REG	6763	29845						
SACHG	I	2016/01/25	2016/01/25	21338	1691136	4615572	INE071G08668	2015/09/28	TST	TST	6912	26073						
SACHG	I	2016/01/25	2016/01/25	21339	1691131	4615567	INE071G08650	2015/09/28	MGR	MGR	25670	11789						
SACHG	I	2016/01/25	2016/01/25	21340	1691132	4615567	INE071G08650	2015/09/28	TST	TST	6912	26073						
SACHG	I	2016/01/26	2016/01/26	21343	1766304	4682551	ZAG000131327	2015/11/12	CAL	CAL	4790	24931						
SACHG	I	2016/01/26	2016/01/26	21344	1766305	4682551	ZAG000131327	2015/11/12	PA	PA	4790	24931						
SACHG	I	2016/01/26	2016/01/26	21345	1754021	4680765	INE296A07IR0	2016/01/09	TST	TST	18371	26174						
SACHG	I	2016/01/26	2016/01/26	21350	1754030	4680770	INE296A07IS8	2016/01/09	TST	TST	18371	26174						
SACHG	I	2016/01/26	2016/01/26	21351	1759408	4686498	XS1348774644	2016/01/25	MGR	MGR	15439	2128						
SACHG	I	2016/01/26	2016/01/26	21352	1754010	4680750	INE296A07IQ2	2016/01/09	TST	TST	18371	26174						
SACHG	I	2016/01/26	2016/01/26	21353	1662990	4521228	FR0012766889	2015/06/04	MGR	MGR	17160	1398						
SACHG	I	2016/01/26	2016/01/26	21354	1607505	4525207	XS1243938849	2015/06/11	MGR	MGR	15439	2128						
SACHG	I	2016/01/26	2016/01/26	21356	1754184	4680960	INE663T07014	2016/01/09	TST	TST	6808	32198						
SACHG	I	2016/01/26	2016/01/26	21357	1757503	4684436	INE202B07GJ7	2016/01/12	TST	TST	18371	26629						
SACHG	I	2016/01/26	2016/01/26	21358	1754763	4681551	INE896L07280	2016/01/08	TST	TST	3161	3136						
SACHG	I	2016/01/27	2016/01/27	21359	1760229	4687035	INE916DA7JX7	2016/01/15	TST	TST	3161	3136						
SACHG	I	2016/01/27	2016/01/27	21360	1760237	4687041	INE916DA7JY5	2016/01/15	TST	TST	3161	3136						
SACHG	I	2016/01/28	2016/01/28	21361	1768600	4690210	XS1351716896	2016/01/27	PA	PA	3196	1650						
SACHG	I	2016/01/28	2016/01/28	21362	1635643	4499852	US208242AB38	2015/05/29	PA	PA	29531	21373						
SACHG	I	2016/01/28	2016/01/28	21363	1635642	4499852	US208242AB38	2015/05/29	REG	REG	29531	21373						
SACHG	I	2016/01/28	2016/01/28	21364	1635641	4499852	US208242AB38	2015/05/29	TST	TST	29531	21373						
SACHG	I	2016/01/29	2016/01/29	21365	1769569	4646313	XS1279283128	2015/11/21	CAL	CAL	6819	7833						
SACHG	I	2016/01/29	2016/01/29	21367	1562128	4478859	INE296A07FU0	2015/04/01	REG	REG	6763	6132						
SACHG	I	2016/01/29	2016/01/29	21368	1562029	4478748	INE296A07FO3	2015/04/01	REG	REG	6763	6132						
SACHG	I	2016/01/29	2016/01/29	21369	1562109	4478839	INE296A07FT2	2015/04/01	REG	REG	6763	6132						
SACHG	I	2016/01/29	2016/01/29	21370	1562038	4478767	INE296A07FP0	2015/04/01	REG	REG	6763	6132						
SACHG	I	2016/01/29	2016/01/29	21371	1562079	4478810	INE296A07FR6	2015/04/01	REG	REG	6763	6132						
SACHG	I	2016/01/29	2016/01/29	21372	1562093	4478823	INE296A07FS4	2015/04/01	REG	REG	6763	6132						
SACHG	I	2016/01/29	2016/01/29	21373	1769495	4696470	INE556S07566	2016/01/23	REG	REG	6763	6132						
SACHG	I	2016/01/29	2016/01/29	21374	1769519	4696479	INE556S07574	2016/01/23	REG	REG	6763	6132						
SACHG	I	2016/01/29	2016/01/29	21375	1769671	4696533	INE556S07160	2016/01/23	REG	REG	6763	6132						
SACHG	I	2016/01/29	2016/01/29	21376	1769685	4696536	INE556S07178	2016/01/23	REG	REG	6763	6132						
SACHG	I	2016/01/29	2016/01/29	21377	1769721	4696552	INE556S07186	2016/01/23	REG	REG	6763	6132						
SACHG	I	2016/01/29	2016/01/29	21378	1769743	4696564	INE556S07194	2016/01/23	REG	REG	6763	6132						
SACHG	I	2016/01/29	2016/01/29	21379	1769791	4696583	INE556S07202	2016/01/23	REG	REG	6763	6132						
SACHG	I	2016/01/29	2016/01/29	21380	1769821	4696597	INE556S07210	2016/01/23	REG	REG	6763	6132						
SACHG	I	2016/01/29	2016/01/29	21381	1769854	4696615	INE556S07228	2016/01/23	REG	REG	6763	6132						
SACHG	I	2016/01/29	2016/01/29	21382	1769897	4696624	INE556S07236	2016/01/23	REG	REG	6763	6132						
SACHG	I	2016/01/29	2016/01/29	21383	1769915	4696630	INE556S07244	2016/01/23	REG	REG	6763	6132						
SACHG	I	2016/01/29	2016/01/29	21384	1769937	4696636	INE556S07277	2016/01/23	REG	REG	6763	6132						
SACHG	I	2016/02/01	2016/02/01	21385	1768492	4695335	INE556S07582	2016/01/23	REG	REG	6763	6132						
SACHG	I	2016/02/01	2016/02/01	21386	1768505	4695347	INE556S07590	2016/01/23	REG	REG	6763	6132						
SACHG	I	2016/02/01	2016/02/01	21387	1768541	4695413	INE556S07608	2016/01/23	REG	REG	6763	6132						
SACHG	I	2016/02/01	2016/02/01	21388	1768559	4695422	INE556S07616	2016/01/23	REG	REG	6763	6132						
SACHG	I	2016/02/01	2016/02/01	21389	1768564	4695428	INE556S07624	2016/01/23	REG	REG	6763	6132						
SACHG	I	2016/02/01	2016/02/01	21390	1768573	4695436	INE556S07632	2016/01/23	REG	REG	6763	6132						
SACHG	I	2016/02/01	2016/02/01	21391	1768598	4695466	INE556S07640	2016/01/23	REG	REG	6763	6132						
SACHG	I	2016/02/01	2016/02/01	21392	1768612	4695482	INE556S07657	2016/01/23	REG	REG	6763	6132						
SACHG	I	2016/02/01	2016/02/01	21393	1768640	4695512	INE556S07665	2016/01/23	REG	REG	6763	6132						
SACHG	I	2016/02/01	2016/02/01	21394	1768799	4695627	INE556S07095	2016/01/23	REG	REG	6763	6132						
SACHG	I	2016/02/01	2016/02/01	21395	1768823	4695642	INE556S07103	2016/01/23	REG	REG	6763	6132						
SACHG	I	2016/02/01	2016/02/01	21396	1768839	4695654	INE556S07111	2016/01/23	REG	REG	6763	6132						
SACHG	I	2016/02/01	2016/02/01	21397	1768864	4695670	INE556S07129	2016/01/23	REG	REG	6763	6132						
SACHG	I	2016/02/01	2016/02/01	21398	1768901	4695696	INE556S07137	2016/01/23	REG	REG	6763	6132						
SACHG	I	2016/02/01	2016/02/01	21399	1768917	4695705	INE556S07145	2016/01/23	REG	REG	6763	6132						
SACHG	I	2016/02/01	2016/02/01	21400	1770724	4697496	INE556S07475	2016/01/23	REG	REG	6763	6132						
SACHG	I	2016/02/02	2016/02/02	21401	1766794	4692131	XS1353555003	2016/01/29	MGR	MGR	30139	3757						
SACHG	I	2016/02/02	2016/02/02	21403	1440550	4358746	TH0380A3TA00	2016/02/01	REG	REG	9546	10131						
SACHG	I	2016/02/02	2016/02/02	21404	1440572	4358770	TH0380A31A07	2016/02/01	REG	REG	9546	10131						
SACHG	I	2016/02/02	2016/02/02	21405	1440564	4358759	TH038003TA00	2016/02/01	REG	REG	9546	10131						
SACHG	I	2016/02/02	2016/02/02	21406	1440591	4358788	TH0380031A00	2016/02/01	REG	REG	9546	10131						
SACHG	I	2016/02/02	2016/02/02	21407	1751467	4677971	INE918K07EI6	2015/12/30	TST	TST	24345	21785						
SACHG	I	2016/02/02	2016/02/02	21408	1765109	4692393	XS1353627786	2016/02/01	DEP	DEP	3556	16060						
SACHG	I	2016/02/02	2016/02/02	21409	1751462	4677954	INE918K07EJ4	2015/12/30	TST	TST	24345	21785						
SACHG	I	2016/02/03	2016/02/03	21413	240533	1367686	XS0420378779	2009/04/01	DEP	DEP	3565	23079						
SACHG	I	2016/02/03	2016/02/03	21414	1753537	4680224	INE477A07159	2016/01/07	TST	TST	24345	21785						
SACHG	I	2016/02/03	2016/02/03	21415	1760186	4686993	INE528G08311	2016/01/15	TST	TST	6912	12368						
SACHG	I	2016/02/03	2016/02/03	21416	1770695	4697466	US00206RCT77	2016/02/02	TST	TST	4240	8449						
SACHG	I	2016/02/03	2016/02/03	21417	1770711	4697486	US00206RCU41	2016/02/02	TST	TST	4240	8449						
SACHG	I	2016/02/03	2016/02/03	21418	1764913	4692163	INE918K07EL0	2016/01/21	TST	TST	24345	21785						
SACHG	I	2016/02/03	2016/02/03	21419	1761591	4688465	INE804I07I97	2016/01/18	TST	TST	24345	21785						
SACHG	I	2016/02/03	2016/02/03	21420	1764937	4692193	INE296A07IX8	2016/01/22	REG	REG	6132	29845						
SACHG	I	2016/02/03	2016/02/03	21421	1764936	4692193	INE296A07IX8	2016/01/22	TST	TST	18371	26174						
SACHG	I	2016/02/03	2016/02/03	21422	1757761	4684574	INE918K07EK2	2016/01/11	TST	TST	24345	21785						
SACHG	I	2016/02/04	2016/02/04	21423	1754803	4681602	INE896L07272	2016/01/08	TST	TST	3161	3136						
SACHG	I	2016/02/04	2016/02/04	21424	1772020	4670394	AT0000A1HH81	2015/12/22	PA	PA	26752	6212						
SACHG	I	2016/02/04	2016/02/04	21425	1764739	4691924	INE148I07DT3	2016/01/19	TST	TST	3161	3136						
SACHG	I	2016/02/04	2016/02/04	21426	1772224	4694078	XS1354476175	2016/02/02	MGR	MGR	3863	29246						
SACHG	I	2016/02/04	2016/02/04	21427	1764730	4691910	INE148I07DR7	2016/01/19	TST	TST	3161	3136						
SACHG	I	2016/02/04	2016/02/04	21428	1757657	4684533	INE572E09312	2016/01/12	TST	TST	3161	3136						
SACHG	I	2016/02/04	2016/02/04	21429	1763268	4690591	INE528G08329	2016/01/20	TST	TST	6912	12368						
SACHG	I	2016/02/04	2016/02/04	21432	1773360	4693332		2016/01/23	MGR	MGR	31663	27122						
SACHG	I	2016/02/04	2016/02/04	21433	1760139	4686962	INE013A07U21	2016/01/14	TST	TST	6808	7053						
SACHG	I	2016/02/04	2016/02/04	21434	1760140	4686962	INE013A07U21	2016/01/14	REG	REG	24343	29845						
SACHG	I	2016/02/04	2016/02/04	21435	1757742	4684565	INE804I07I89	2016/01/11	TST	TST	24345	21785						
SACHG	I	2016/02/04	2016/02/04	21436	1773669	4696548	XS1237725392	2016/02/02	REG	REG	16080	7638						
SACHG	I	2016/02/05	2016/02/05	21437	1756500	4683726	INE537P07075	2016/01/08	TST	TST	3161	3136						
SACHG	I	2016/02/05	2016/02/05	21438	1755756	4682861	INE537P07083	2016/01/08	TST	TST	3161	3136						
SACHG	I	2016/02/05	2016/02/05	21439	1760218	4687024	INE916DA7JW9	2016/01/14	TST	TST	3161	3136						
SACHG	I	2016/02/05	2016/02/05	21441	1761602	4688469	INE651A08058	2016/01/18	TST	TST	3161	3136						
SACHG	I	2016/02/05	2016/02/05	21444	1763244	4690574	INE804I07J05	2016/01/19	TST	TST	24345	21785						
SACHG	I	2016/02/05	2016/02/05	21446	1771290	4698275	INE013A07U39	2016/01/27	TST	TST	6808	7053						
SACHG	I	2016/02/05	2016/02/05	21447	1771305	4698284	INE013A07U47	2016/01/27	TST	TST	6808	7053						
SACHG	I	2016/02/05	2016/02/05	21448	1763355	4690677	INE331A07182	2016/01/20	TST	TST	6912	26073						
SACHG	I	2016/02/05	2016/02/05	21449	1752299	4678852	INE217K07547	2015/12/30	TST	TST	3161	3136						
SACHG	I	2016/02/05	2016/02/05	21451	1767932	4694622	INE217K08222	2016/01/21	REG	REG	24343	30713						
SACHG	I	2016/02/05	2016/02/05	21452	1767930	4694622	INE217K08222	2016/01/21	TST	TST	18371	26602						
SACHG	I	2016/02/05	2016/02/05	21453	1767534	4694307	INE916DA7KA3	2016/01/22	TST	TST	3161	3136						
SACHG	I	2016/02/05	2016/02/05	21454	1767547	4694324	INE916DA7JZ2	2016/01/22	TST	TST	3161	3136						
SACHG	I	2016/02/05	2016/02/05	21455	1767530	4694305	INE916DA7KB1	2016/01/22	TST	TST	3161	3136						
SACHG	I	2016/02/06	2016/02/08	21456	1763325	4690667	INE331A07190	2016/01/20	TST	TST	6912	26073						
SACHG	I	2016/02/06	2016/02/08	21457	1767557	4694330	INE871D07OX0	2016/01/25	TST	TST	25090	29876						
SACHG	I	2016/02/06	2016/02/08	21458	1767571	4694355	INE871D07OW2	2016/01/25	TST	TST	25090	29876						
SACHG	I	2016/02/06	2016/02/08	21465	1758654	4685535	INE101Q07300	2016/01/27	TST	TST	6808	7053						
SACHG	I	2016/02/06	2016/02/08	21466	1758653	4685535	INE101Q07300	2016/01/27	MGR	MGR	25791	27985						
SACHG	I	2016/02/06	2016/02/08	21467	1771893	4697102	INE101Q07326	2016/01/27	MGR	MGR	25791	27985						
SACHG	I	2016/02/06	2016/02/08	21468	1771894	4697102	INE101Q07326	2016/01/27	TST	TST	6808	7053						
SACHG	I	2016/02/06	2016/02/08	21469	1771896	4697117	INE101Q07334	2016/01/27	MGR	MGR	25791	27985						
SACHG	I	2016/02/06	2016/02/08	21470	1771898	4697117	INE101Q07334	2016/01/27	TST	TST	6808	7053						
SACHG	I	2016/02/06	2016/02/08	21471	1771903	4697127	INE101Q08084	2016/01/27	MGR	MGR	25791	27985						
SACHG	I	2016/02/06	2016/02/08	21472	1771905	4697127	INE101Q08084	2016/01/27	TST	TST	6808	7053						
SACHG	I	2016/02/06	2016/02/08	21473	1771884	4697072	INE101Q07318	2016/01/27	MGR	MGR	25791	27985						
SACHG	I	2016/02/06	2016/02/08	21474	1771885	4697072	INE101Q07318	2016/01/27	TST	TST	6808	7053						
SACHG	I	2016/02/06	2016/02/08	21475	1771900	4697122	INE101Q07342	2016/01/27	MGR	MGR	25791	27985						
SACHG	I	2016/02/06	2016/02/08	21476	1771901	4697122	INE101Q07342	2016/01/27	TST	TST	6808	7053						
SACHG	I	2016/02/06	2016/02/08	21477	1771910	4697136	INE101Q08092	2016/01/27	MGR	MGR	25791	27985						
SACHG	I	2016/02/06	2016/02/08	21478	1771912	4697136	INE101Q08092	2016/01/27	TST	TST	6808	7053						
SACHG	I	2016/02/06	2016/02/08	21479	1772109	4699005	XS1351950149	2016/02/06	MGR	MGR	11938	1846						
SACHG	I	2016/02/06	2016/02/08	21480	1769878	4696620	JP304749AG28	2016/02/04	PA	PA	4944	26760						
SACHG	I	2016/02/06	2016/02/08	21481	1769879	4696620	JP304749AG28	2016/02/04	UNW	UNW	5390	7931						
SACHG	I	2016/02/08	2016/02/08	21482	1761626	4688524	INE535H07761	2016/01/19	TST	TST	18371	17725						
SACHG	I	2016/02/08	2016/02/08	21483	1764929	4692177	INE688I07204	2016/01/23	TST	TST	3161	3136						
SACHG	I	2016/02/08	2016/02/08	21484	1762208	4689420	INE477L07578	2016/01/19	TST	TST	6808	7053						
SACHG	I	2016/02/08	2016/02/08	21485	1762204	4689417	INE477L07586	2016/01/18	TST	TST	6808	7053						
SACHG	I	2016/02/08	2016/02/08	21486	1762198	4689414	INE477L07594	2016/01/19	TST	TST	6808	7053						
SACHG	I	2016/02/08	2016/02/08	21487	1767567	4694352	INE860H07CI0	2016/01/26	TST	TST	6808	29978						
SACHG	I	2016/02/08	2016/02/08	21488	1675650	4599123	INE660A07ND7	2015/08/19	TST	TST	3161	3136						
SACHG	I	2016/02/08	2016/02/08	21489	1678826	4601981	INE857Q07075	2015/09/04	TST	TST	3161	3136						
SACHG	I	2016/02/08	2016/02/08	21490	1739732	4666968	INE033L08239	2015/12/15	TST	TST	6808	7053						
SACHG	I	2016/02/09	2016/02/09	21491	1760171	4686982	INE486R08012	2016/01/16	TST	TST	6912	12368						
SACHG	I	2016/02/09	2016/02/09	21492	1760172	4686982	INE486R08012	2016/01/16	REG	REG	4936	8227						
SACHG	I	2016/02/09	2016/02/09	21493	1760208	4687013	INE608T07027	2016/01/23	TST	TST	3161	3136						
SACHG	I	2016/02/09	2016/02/09	21494	1760209	4687013	INE608T07027	2016/01/23	REG	REG	1318	29845						
SACHG	I	2016/02/09	2016/02/09	21495	1760272	4687075	INE608T07019	2016/01/23	REG	REG	1318	29845						
SACHG	I	2016/02/09	2016/02/09	21496	1760271	4687075	INE608T07019	2016/01/23	TST	TST	3161	3136						
SACHG	I	2016/02/09	2016/02/09	21497	1761609	4688471	INE572E09320	2016/01/19	TST	TST	3161	3136						
SACHG	I	2016/02/09	2016/02/09	21498	1439509	4357854	INE063P07064	2014/10/01	TST	TST	18371	26602						
SACHG	I	2016/02/09	2016/02/09	21499	1776308	4357854	INE063P07064	2014/10/01	MGR	MGR	32375	11789						
SACHG	I	2016/02/09	2016/02/09	21500	1439616	4357904	INE063P07080	2014/10/01	TST	TST	18371	26602						
SACHG	I	2016/02/09	2016/02/09	21501	1776365	4693789	US25714PDJ49	2016/01/29	GUR	GUR	7646	5630					BPA	BPA
SACHG	I	2016/02/09	2016/02/09	21502	1776366	4693789	US25714PDJ49	2016/01/29	MGR	MGR	7646	5630						
SACHG	I	2016/02/09	2016/02/09	21503	1776364	4693789	US25714PDJ49	2016/01/29	UNW	UNW	7646	5630						
SACHG	I	2016/02/09	2016/02/09	21504	1458729	4377868	INE063P07098	2014/10/31	TST	TST	18371	26602						
SACHG	I	2016/02/09	2016/02/09	21505	1520260	4438633	INE063P07114	2015/01/31	TST	TST	3161	3136						
SACHG	I	2016/02/09	2016/02/09	21506	1531458	4438633	INE063P07114	2015/01/31	MGR	MGR	12266	27106						
SACHG	I	2016/02/09	2016/02/09	21507	1520272	4438640	INE186N07076	2015/01/31	TST	TST	3161	3136						
SACHG	I	2016/02/09	2016/02/09	21508	1685778	4609866	INE186N08033	2015/09/17	TST	TST	18371	26602						
SACHG	I	2016/02/09	2016/02/09	21511	1707237	4632145	INE246R07020	2015/10/21	TST	TST	3161	3136						
SACHG	I	2016/02/09	2016/02/09	21512	1776769	4702996	IS0000026730	2016/02/09	UNW	UNW	5429	16519						
SACHG	I	2016/02/09	2016/02/09	21513	1758381	4685278	IS0000026649	2016/01/16	UNW	UNW	5429	16519						
SACHG	I	2016/02/09	2016/02/09	21514	1770884	4697614	XS1331737574	2016/02/03	DEP	DEP	3556	16060						
SACHG	I	2016/02/10	2016/02/10	21515	1770753	4697522	INE217K07554	2016/01/23	REG	REG	24343	1318						
SACHG	I	2016/02/10	2016/02/10	21516	15912	406460	XS0265843531	2006/09/28	PA	PA	1379	3198						
SACHG	I	2016/02/10	2016/02/10	21517	16766	406460	XS0265843531	2006/09/28	CUST	CUST	1379	3198						
SACHG	I	2016/02/10	2016/02/10	21518	17455	442343	XS0265846476	2006/09/28	PA	PA	1379	3198						
SACHG	I	2016/02/10	2016/02/10	21521	15922	438482	XS0265847441	2006/09/28	PA	PA	1379	3198						
SACHG	I	2016/02/10	2016/02/10	21522	15923	438482	XS0265847441	2006/09/29	CUST	CUST	1379	3198						
SACHG	I	2016/02/10	2016/02/10	21523	17469	442352	XS0265848761	2006/09/29	CUST	CUST	1379	3198						
SACHG	I	2016/02/10	2016/02/10	21524	17468	442352	XS0265848761	2006/09/29	PA	PA	1379	3198						
SACHG	I	2016/02/10	2016/02/10	21525	1758036	4682794	INE140A14IR6	2016/01/07	PA	PA		7849						
SACHG	I	2016/02/10	2016/02/10	21526	1775792	4700813	JP388820BG22	2016/02/06	PA	PA	7812	12585						
SACHG	I	2016/02/11	2016/02/11	21529	17494	442361	XS0266478782	2006/09/28	CUST	CUST	1379	3198						
SACHG	I	2016/02/11	2016/02/11	21530	17493	442361	XS0266478782	2006/09/29	PA	PA	1379	3198						
SACHG	I	2016/02/11	2016/02/11	21531	1773797	4700309	XS1361603209	2016/02/10	MGR	MGR	15439	2128						
SACHG	I	2016/02/11	2016/02/11	21532	1438405	4356806	INE063P07049	2014/09/30	TST	TST	18371	26602						
SACHG	I	2016/02/11	2016/02/11	21533	1438404	4356806	INE063P07049	2014/09/30	MGR	MGR	25670	11789						
SACHG	I	2016/02/11	2016/02/11	21534	1741273	4662845	KR60035315C1	2015/12/10	PA	PA		29850						
SACHG	I	2016/02/11	2016/02/11	21536	1775752	4691312		2016/01/23	TST	TST		18036						
SACHG	I	2016/02/11	2016/02/11	21539	17514	442375	XS0265874171	2006/09/28	PA	PA	1379	3198						
SACHG	I	2016/02/11	2016/02/11	21540	17515	442375	XS0265874171	2006/09/30	CUST	CUST	1379	3198						
SACHG	I	2016/02/11	2016/02/11	21541	1770914	4697641	INE808K07113	2016/01/29	TST	TST	18371	26629						
SACHG	I	2016/02/11	2016/02/11	21543	1542642	4455712	INE063P07122	2015/02/27	MGR	MGR	12266	27106						
SACHG	I	2016/02/11	2016/02/11	21544	1537230	4455712	INE063P07122	2015/02/27	TST	TST	3161	3136						
SACHG	I	2016/02/11	2016/02/11	21545	1537231	4455712	INE063P07122	2015/02/27	REG	REG	6763	6132						
SACHG	I	2016/02/11	2016/02/11	21546	1108136	4080215	TH069903R702	2013/07/19	REG	REG	10100	23554						
SACHG	I	2016/02/11	2016/02/11	21547	1760300	4680440	XS1342698047	2016/01/14	MGR	MGR	19981	2128						
SACHG	I	2016/02/11	2016/02/11	21548	1652025	4573226	INE220T08011	2015/08/06	TST	TST	6808	32427						
SACHG	I	2016/02/11	2016/02/11	21549	1525194	4444702	TH067503S106	2015/01/19	REG	REG	7825	21161						
SACHG	I	2016/02/11	2016/02/11	21550	1757607	4684501	INE518Q07032	2016/01/12	TST	TST	6912	12368						
SACHG	I	2016/02/12	2016/02/12	21551	1638034	4557226	INE532F07BB6	2015/07/10	TST	TST	3161	3136						
SACHG	I	2016/02/12	2016/02/12	21552	1638943	4558344	INE532F07BH3	2015/07/10	TST	TST	3161	3136						
SACHG	I	2016/02/12	2016/02/12	21553	1778821	4696929	XS1357665345	2016/02/10	CAL	CAL	6292	12544						
SACHG	I	2016/02/12	2016/02/12	21554	1774687	4701102	XS1362319284	2016/02/11	MGR	MGR	28848	8600						
SACHG	I	2016/02/12	2016/02/12	21555	1638056	4557246	INE532F07BD2	2015/07/10	TST	TST	3161	3136						
SACHG	I	2016/02/12	2016/02/12	21556	1638043	4557234	INE532F07BC4	2015/07/10	TST	TST	3161	3136						
SACHG	I	2016/02/12	2016/02/12	21557	1638018	4557212	INE532F07BA8	2015/07/10	TST	TST	3161	3136						
SACHG	I	2016/02/12	2016/02/12	21558	1638070	4557261	INE532F07BE0	2015/07/10	TST	TST	3161	3136						
SACHG	I	2016/02/12	2016/02/12	21559	1638093	4557280	INE532F07BG5	2015/07/10	TST	TST	3161	3136						
SACHG	I	2016/02/12	2016/02/12	21560	1638082	4557273	INE532F07BF7	2015/07/10	TST	TST	3161	3136						
SACHG	I	2016/02/13	2016/02/15	21563	1779130	4704545	XS1348955516	2016/02/12	CAL	CAL	15872	25624						
SACHG	I	2016/02/13	2016/02/15	21564	1779131	4704545	XS1348955516	2016/02/12	CUST	CUST	15872	25624						
SACHG	I	2016/02/13	2016/02/15	21565	1779129	4704545	XS1348955516	2016/02/12	PA	PA	15872	25624						
SACHG	I	2016/02/13	2016/02/15	21566	1779133	4704545	XS1348955516	2016/02/12	TST	TST	20903	22769						
SACHG	I	2016/02/15	2016/02/15	21580	1650385	4570916	INE370I07191	2015/07/24	TST	TST	6808	7053						
SACHG	I	2016/02/15	2016/02/15	21581	1770752	4697522	INE217K07554	2016/01/23	TST	TST	3161	3136						
SACHG	I	2016/02/15	2016/02/15	21582	1770753	4697522	INE217K07554	2016/01/24	REG	REG	1318	29845						
SACHG	I	2016/02/15	2016/02/15	21583	1691335	4615747	INE186N08041	2015/09/29	REG	REG	6763	1318						
SACHG	I	2016/02/15	2016/02/15	21584	1691333	4615747	INE186N08041	2015/09/29	TST	TST	3161	3136						
SACHG	I	2016/02/15	2016/02/15	21586	1780184	4703448	XS1365096244	2016/02/13	UNW	UNW	6553	20743						
SACHG	I	2016/02/16	2016/02/16	21588	1771444	4698349	INE688I07212	2016/01/30	TST	TST	3161	3136						
SACHG	I	2016/02/16	2016/02/16	21589	1773512	4700255	INE915D07SX6	2016/01/23	TST	TST	3161	3136						
SACHG	I	2016/02/16	2016/02/16	21590	1781252	4694038	XS1158158656	2016/02/02	CAL	CAL	6292	22113						
SACHG	I	2016/02/16	2016/02/16	21591	1781242	4688654	XS1158158573	2016/01/30	CAL	CAL	6292	12544						
SACHG	I	2016/02/16	2016/02/16	21592	1771672	4698538	INE027E08046	2016/01/30	TST	TST	3161	3136						
SACHG	I	2016/02/16	2016/02/16	21596	1771416	4698331	INE804I07J39	2016/01/29	TST	TST	24345	28207						
SACHG	I	2016/02/16	2016/02/16	21597	1772251	4699111	INE918K07EN6	2016/01/29	TST	TST	24345	21785						
SACHG	I	2016/02/16	2016/02/16	21598	1771405	4698327	INE804I07J47	2016/01/28	TST	TST	24345	21785						
SACHG	I	2016/02/16	2016/02/16	21599	1771256	4698244	INE804I07J21	2016/01/27	TST	TST	24345	21785						
SACHG	I	2016/02/16	2016/02/16	21600	1772097	4699000	INE804I07J54	2016/01/29	TST	TST	24345	21785						
SACHG	I	2016/02/16	2016/02/16	21601	1772130	4699023	INE804I07J62	2016/01/29	TST	TST	24345	21785						
EDI_ENDOFFILE
