EDI_CTCHG_20160302
TableName	Actflag	Created	Changed	CtChgID	SecID	ISIN	EffectiveDate	OldResultantRatio	NewResultantRatio	OldSecurityRatio	NewSecurityRatio	OldCurrency	NewCurrency	OldCurPair	NewCurPair	OldConversionPrice	NewConversionPrice	ResSectyCD	OldResSecID	NewResSecID	EventType	RelEventID	OldFromDate	NewFromDate	OldTodate	NewToDate	ConvtID	OldFXRate	NewFXRate	OldPriceAsPercent	NewPriceAsPercent	Notes
CTCHG	I	2016/01/18	2016/01/18	7307	4676230		2016/01/18					KRW	KRW			1425.00000	1825.00000	EQS	118911	118911	CTCHG		2016/12/30	2017/01/15	2018/11/30	2018/12/15	23748					(As on 18.01.2016)<BR><BR>     7. Terms of conversion<BR>       - Conversion ratio(%) : 100<BR>       - Conversion price(KRW/share) : 1,825<BR>       - Class of shares to be issued subsequent to conversion : Registered common shares <BR>       - Conversion request period : 15 Jan 2017 - 15 Dec 2018<BR>
CTCHG	I	2016/01/19	2016/01/19	7308	4454720	XS1196424698	2016/01/07	1.0000000	1.0000000	5251.6871044	5491.9405772	USD	USD			38.08300	36.41700	EQS	4236125	4236125	CTCHG		2015/06/24	2015/12/24	2017/02/19	2017/02/19	21926					UPDATE 07JAN16<BR>PLEASE BE ADVISED THAT THE`CONVERSION PRICE HAS BEEN AMENDED`TO USD 36.417 WITH EFFECT 24DEC15
CTCHG	I	2016/01/19	2016/01/19	7309	4170564	XS0951366136	2013/10/23	1.0000000	1.0000000	17.3346276	17334.6276521	EUR	EUR			5.76880	5.76880	EQS	55799	55799	CORR		2013/10/22	2013/10/22	2018/09/23	2018/09/23	17691					
CTCHG	I	2016/01/19	2016/01/19	7311	4135907		2016/01/15					HKD	HKD			0.43000	0.42000	EQS	412732	412732	CTCHG		2014/08/19	2016/01/15	2016/10/28	2016/10/28	19698					
CTCHG	I	2016/01/19	2016/01/19	7312	4688456		2016/01/15					HKD	HKD			0.43000	0.42000	EQS	412732	412732	CTCHG		2014/10/14	2016/01/15	2017/10/12	2017/10/12	23816					
CTCHG	I	2016/01/19	2016/01/19	7310	4387194	XS1139087933	2015/11/20	1.0000000	1.0000000	29699.7562541	29699.7650748	GBP	GBP			3.36703	3.36703	EQS	6065	6065	CTCHG		2015/05/14	2015/11/19	2019/11/14	2019/11/14	20576					J Sainsbury plc announces adjustment of Conversion Price to holders of GBP450,000,000 1.25 per cent. Convertible Bonds due 2019<BR> <BR> <BR>J Sainsbury plc (the `Company`) hereby announces (the `Notice`) to the holders of its GBP450,000,000 1.25 per cent. Convertible Bonds due 2019 (ISIN: XS1139087933 / Common Code: 113908793) (the ` Bonds`).<BR> <BR> <BR>Adjustment of Conversion Price<BR> <BR>On 11 November 2015, the Company announced that on 4 January 2016 it would pay an interim dividend of 4.0 pence per Ordinary Share to Shareholders on the register of members on the record date of 20 November 2015.<BR> <BR>In accordance with the terms and conditions of the Bonds (the `Conditions`), notice is hereby given with respect to Condition 6(b)(iii)(A), which requires an adjustment to be made to the Conversion Price if the Company shall announce any Dividend to the Shareholders, provided that such adjustment (rounded down if applicable) would be equal to, or more than, 1 per cent of the Conversion Price then in effect.<BR> <BR>The current Conversion Price is 342.2674 pence per Ordinary Share.<BR> <BR>From and including 19 November 2015, being the Effective Date, the Conversion Price will be adjusted to 336.7031 pence per Ordinary Share. All other Conditions of the Bonds remain unchanged.<BR>
CTCHG	I	2016/01/20	2016/01/20	7313	2122973	PTPETROM0005	2014/10/21		1.0000000		3289.4736842	EUR	EUR			15.20000	15.20000	EQS	423983	423983	CORR		2014/09/25	2014/09/25	2017/09/27	2017/09/27	20508					
CTCHG	I	2016/01/21	2016/01/21	7314	4604313	IL0025601597	2016/01/20	1.0000000	1.0000000	0.0063690	0.0064591	ILS	ILS			157.00000	154.82000	EQS	21575	21575	CTCHG		2015/09/11	2015/09/11	2019/03/10	2019/03/10	23246					
CTCHG	I	2016/01/21	2016/01/21	7315	4119629	XS0976007327	2015/05/15	8156.6068515	1.0000000	2718.1299266	8156.6068510	USD	USD			12.26000	12.26000	EQS	57193	57193	CLEAN		2015/07/01	2015/07/01	2018/10/08	2018/10/08	20402					
CTCHG	I	2016/01/21	2016/01/21	7316	3885944	XS0818638909	2016/01/20	1.0000000	1.0000000	162242.8450905	168736.5010799	SGD	SGD			1.54090	1.48160	UNT	762070	762070	CORR		2015/02/25	2016/02/26	2017/09/02	2017/09/02	14643					The current Conversion Price is SGD1.5409 per Unit. The Manager is pleased to announce, based on the estimated distribution of SGD0.0431 per Unit and the formula set out in Condition 6.3 (i) of the Terms and Conditions, that the indicative adjusted Conversion Price will be<BR>SGD1.4816 per Unit. The adjustment to the Conversion Price will take effect on 26 February 2016, being the date on which the distribution will be paid to CCT Unitholders.
CTCHG	I	2016/01/22	2016/01/22	7317	4637308		2015/12/22					KRW	KRW			3140.00000	3140.00000	EQS	72334	72334	CTCHG		2016/12/22	2017/01/11	2018/11/22	2018/12/11	23398					(As on 22.12.2015)<BR><BR>AIMHIGH GLOBAL CORP. , [revised]Decision on Issuance of Convertible Bonds<BR>Ticker Code : 043580 Aimhigh<BR><BR>     1. Type of bonds: Convertible Bond Series No.5<BR>     2. Total face amount of bonds(KRW) : 13,000,000,000<BR>       - Overseas issuance of convertible bonds<BR>          - Total face amount of bonds(KRW) : --<BR>          - Base exchange rate applied(KRW/USD) : -<BR>          - Place of issuance : -<BR>          - Name of oversea listing exchange :<BR>     3. Use of funds raised<BR>       - Facilities investment(KRW) : -<BR>       - Operating Capital(KRW) : 13,000,000,000<BR>       - Acquisition of securities of other corporation(KRW) : -<BR>       - Other funds uses(KRW) : -<BR>     4. Interest rate<BR>       - Coupon rate(%) : 0<BR>       - Yield to Maturity(%) : 5<BR>     5. Maturity date of bonds : 11 Jan 2019<BR>     6. Method of Issuance : Private placement<BR>     7. Terms of conversion<BR>       - Conversion ratio(%) : 100<BR>       - Conversion price(KRW/share) : 3,140<BR>       - Class of shares to be issued subsequent to conversion : Registered common shares <BR>       - Conversion request period : 11 Jan 2017 - 11 Dec 2018<BR>     8. Subscription date : 30 Oct 2015<BR>     9. Payment date : 11 Jan 2016<BR>     10. Lead manager : -<BR>     11. Guarantor : -<BR>     12. Date of board of directors` resolution : 30 Oct 2015<BR>        - Attendance of Outside Directors :<BR>          - Present(No.) : -<BR>          - Absent(No.) : 1<BR>        - Attendance of Auditors(members of Audit Committee) : Present <BR>     13. Subject to filing of report on asset acquisition: N/A<BR>     14. Applicability of the fair trade act commission: N/A<BR>     13. Other relevant information<BR>       - Date of original announced : 30 Oct 2015<BR><BR><BR>Source:<BR>https://global.factiva.com/ga/default.aspx<BR><BR><BR>
CTCHG	I	2016/01/22	2016/01/22	7318	4637308		2016/01/22					KRW	KRW			3140.00000	3140.00000	EQS	72334	72334	CTCHG		2017/01/11	2017/01/22	2018/12/11	2018/12/22	23398					(As on 22.01.2016)<BR><BR>AIMHIGH GLOBAL CORP. , [revised]Decision on Issuance of Convertible Bonds<BR>Ticker Code : 043580 Aimhigh<BR><BR>     1. Type of bonds: Convertible Bond Series No.5<BR>     2. Total face amount of bonds(KRW) : 10,000,000,000<BR>       - Overseas issuance of convertible bonds<BR>          - Total face amount of bonds(KRW) : --<BR>          - Base exchange rate applied(KRW/USD) : -<BR>          - Place of issuance : -<BR>          - Name of oversea listing exchange :<BR>     3. Use of funds raised<BR>       - Facilities investment(KRW) : -<BR>       - Operating Capital(KRW) : 10,000,000,000<BR>       - Acquisition of securities of other corporation(KRW) : -<BR>       - Other funds uses(KRW) : -<BR>     4. Interest rate<BR>       - Coupon rate(%) : 0<BR>       - Yield to Maturity(%) : 5<BR>     5. Maturity date of bonds : 22 Jan 2019<BR>     6. Method of Issuance :  Private Placement <BR>     7. Terms of conversion<BR>       - Conversion ratio(%) : 100<BR>       - Conversion price(KRW/share) : 3,140<BR>       - Class of shares to be issued subsequent to conversion : Registered common shares <BR>       - Conversion request period : 22 Jan 2017 - 22 Dec 2018<BR>     8. Subscription date : 30 Oct 2015<BR>     9. Payment date : 22 Jan 2016<BR>     10. Lead manager : -<BR>     11. Guarantor : -<BR>     12. Date of board of directors` resolution : 30 Oct 2015<BR>        -Outside directors in attendance: present number - -<BR>absent number - 1<BR>        -Auditors in attendance :  Present<BR>     13. Other relevant information<BR>       - Date of original announced : 30 Oct 2015<BR><BR>Source:<BR>https://global.factiva.com/ga/default.aspx<BR><BR><BR>
CTCHG	I	2016/01/22	2016/01/22	7319	4677430		2016/01/06					KRW	KRW			2854.00000	2854.00000	EQS	32567	32567	CTCHG		2017/01/05	2017/01/14	2018/12/05	2018/12/14	23752					(As on 06.01.2016)<BR><BR>SS COMTECH CO., LTD. , Decision on Issuance of Convertible Bonds<BR>Ticker Code : 036500 SS COMTECH<BR><BR>     1. Type of bonds: Convertible Bond Series No.10<BR>     2. Total face amount of bonds(KRW) : 3,000,000,000<BR>       - Overseas issuance of convertible bonds<BR>          - Total face amount of bonds(KRW) : --<BR>          - Base exchange rate applied(KRW/USD) : -<BR>          - Place of issuance : -<BR>          - Name of oversea listing exchange : -<BR>     3. Use of funds raised<BR>       - Facilities investment(KRW) : 0<BR>       - Operating Capital(KRW) : 3,000,000,000<BR>       - Acquisition of securities of other corporation(KRW) : 0<BR>       - Other funds uses(KRW) : 0<BR>     4. Interest rate<BR>       - Coupon rate(%) : 0.0<BR>       - Yield to Maturity(%) : 5.0<BR>     5. Maturity date of bonds : 14 Jan 2019<BR>     6. Method of Issuance : Private placement<BR>     7. Terms of conversion<BR>       - Conversion ratio(%) : 100<BR>       - Conversion price(KRW/share) : 2,854<BR>       - Class of shares to be issued subsequent to conversion : Registered common shares <BR>       - Conversion request period : 14 Jan 2017 - 14 Dec 2018<BR>     8. Subscription date : 05 Jan 2016<BR>     9. Payment date : 14 Jan 2016<BR>     10. Lead manager : -<BR>     11. Guarantor : -<BR>     12. Date of board of directors` resolu2tion : 04 Jan 2016<BR><BR>Source:<BR>https://global.factiva.com/ga/default.aspx<BR><BR>
CTCHG	I	2016/01/22	2016/01/22	7320	4677430		2016/01/18					KRW	KRW			2854.00000	2854.00000	EQS	32567	32567	CTCHG		2017/01/14	2017/01/21	2018/12/14	2018/12/21	23752					(As on 18.01.2016)<BR><BR>SS COMTECH CO., LTD. , [revised]Decision on Issuance of Convertible Bonds<BR>Ticker Code : 036500 SS COMTECH<BR><BR>     1. Type of bonds: Convertible Bond Series No.10<BR>     2. Total face amount of bonds(KRW) : 3,000,000,000<BR>       - Overseas issuance of convertible bonds<BR>          - Total face amount of bonds(KRW) : --<BR>          - Base exchange rate applied(KRW/USD) : -<BR>          - Place of issuance : -<BR>          - Name of oversea listing exchange : -<BR>     3. Use of funds raised<BR>       - Facilities investment(KRW) : 0<BR>       - Operating Capital(KRW) : 3,000,000,000<BR>       - Acquisition of securities of other corporation(KRW) : 0<BR>       - Other funds uses(KRW) : 0<BR>     4. Interest rate<BR>       - Coupon rate(%) : 0.0%<BR>       - Yield to Maturity(%) : 5.0%<BR>     5. Maturity date of bonds : 21 Jan 2019<BR>     6. Method of Issuance : Private placement<BR>     7. Terms of conversion<BR>       - Conversion ratio(%) : 100%<BR>       - Conversion price(KRW/share) : 2,854<BR>       - Class of shares to be issued subsequent to conversion : Registered common shares <BR>       - Conversion request period : 21 Jan 2017 - 21 Dec 2018<BR>     8. Subscription date : 05 Jan 2016<BR>     9. Payment date : 21 Jan 2016<BR>     10. Lead manager : -<BR>     11. Guarantor : -<BR>     12. Date of board of directors` resolution : 04 Jan 2016<BR>        - Attendance of Outside Directors :<BR>          - Present(No.) : 1<BR>          - Absent(No.) : 0<BR>        - Attendance of Auditors(members of Audit Committee) : Present<BR>     13. Subject to filing of report on asset acquisition: N/A<BR>     14. Applicability of the fair trade act commission: N/A<BR>     13. Other relevant information<BR>       - Date of original announced : 04 Jan 2016<BR><BR>Source:<BR>https://global.factiva.com/ga/default.aspx<BR><BR><BR>
CTCHG	I	2016/01/23	2016/01/25	7321	4445039	DE000A14J3R2	2015/05/20	1.0000000	1.0000000	2632.9647180	2714.7208452	EUR	EUR			37.98000	36.83620	EQS	4024783	4024783	CTCHG		2015/03/31	2015/05/20	2021/02/17	2021/02/17	23836					<BR>Adjustment of the Exchange Price of the<BR>EUR 500.000,000 Exchangeable Bonds due 2021<BR>of RAG- Stiftung<BR>ISIN DE000A14J3R2<BR><BR>RAG- Stiftung EUR 500.000,000 Exchangeable Bonds due 2021 (ISIN DE000A14J3R2) exchangeable into no par value ordinary registered<BR>shares of Evonik Industries AG (the Bonds)<BR><BR>Adjustment of the Exchange Price of the Bonds<BR><BR>In accordance with th Terms and Conditions of the Bonds, RAG- Stiftung the (Issuer) hereby gives notice to Bondholders that, as a result<BR>of the EUR 1.00 per cash share Cash Dividend payable to holders of the shares of  Evonik Industries AG of record as at 19 May 2005,<BR>the Exchange price has been adjusted to EUR 36.8362 (previously EUR 37.98), effective as at the beginning of 20 May 2015.<BR><BR><BR><BR><BR><BR>
CTCHG	I	2016/01/26	2016/01/26	7322	3986809	XS0894197606	2016/01/26	1.0000000	1.0000000	118427.2856466	122428.9911851	SGD	SGD			2.11100	2.04200	UNT	762062	762062	CORR		2014/02/25	2016/02/26	2018/03/11	2018/03/11	15571					The Board of Directors of ARA Trust Management (Suntec) Limited, in its capacity as manager of Suntec REIT (the `Manager`), acting through HSBC Institutional Trust Services (Singapore) Limited as trustee of Suntec REIT (the `Suntec REIT Trustee`), refers to the SGD280,000,000 1.40 per cent. coupon convertible bonds due 2018 (the `Convertible Bonds`) issued by Suntec REIT acting through the Suntec REIT Trustee.  The Manager wishes to announce that Suntec REIT has today declared the payment of a distribution of SGD0.02750 per unit of Suntec REIT (`Unit`) for the period of 1 October 2015 to 31 December 2015 to all entitled holders of Units (the Unitholders). Such distribution has resulted in an Excess Distribution of SGD0.039 per Unit in accordance with Condition 5.6(d) of the Convertible Bonds.  In accordance with Condition 5.5(c) of the Convertible Bonds, such Excess Distribution will result in an adjustment to the Conversion Price. The current Conversion price is SGD2.111 (the `Current Conversion Price`). The adjusted Conversion Price will be SGD2.042 (the `Adjusted Conversion Price`).   The Adjusted Conversion Price is effective as of 26 February 2016. Any exercise of Conversion Rights prior to that date will be based on the Current Conversion Price.
CTCHG	I	2016/01/27	2016/01/27	7323	3940426	XS0860994200	2015/05/26	1.0000000	1.0000000	6452.4454770	6454.5341004	EUR	EUR			15.49800	15.49298	EQS	423983	423983	CTCHG		2013/01/07	2015/05/26	2015/11/15	2015/11/15	15229					
CTCHG	I	2016/01/27	2016/01/27	7324	4295325	XS1082775054	2014/09/30	1.0000000	1.0000000	2453.2051124	2514.7742990	EUR	EUR			40.76300	39.76500	EQS	20070	20070	CTCHG		2014/08/13	2014/09/30	2019/06/20	2019/06/20	19621					UPDATED ON 30 SEPTEMBER 2014 <BR>---------------------------------------------------<BR>DUE TO CAPITAL RETURN PAYABLE ON 30 SEPTEMBER 2014, THE RATIO AND CONVERSION PRICE HAVE BEEN AMENDED.<BR><BR><BR>
CTCHG	I	2016/01/27	2016/01/27	7325	4295325	XS1082775054	2015/09/23	1.0000000	1.0000000	2514.7742990	2554.9310168	EUR	EUR			39.76500	39.14000	EQS	20070	20070	CTCHG		2014/09/30	2015/09/23	2019/06/20	2019/06/20	19621					UPDATE 23 SEP 2015<BR>--------------------------------<BR>DUE TO CAPITAL RETURN PAYABLE ON 29SEP15, THE RATIO AND CONVERSION PRICE HAVE BEEN AMENDED.
CTCHG	I	2016/01/27	2016/01/27	7326	4208994	XS1040531904	2015/04/29	1.0000000	1.0000000	2077.8141395	2084.6451831	EUR	EUR			48.12750	47.96979	EQS	8150	8150	CTCHG		2014/04/14	2015/04/29	2018/08/20	2018/08/20	17759					UPDATED ON  29 APRIL 2015<BR>-----------------------------------------<BR>PLEASE NOTE THAT AMENDED CONVERSION PRICE AND RATIO.
CTCHG	I	2016/01/27	2016/01/27	7327	4385749	XS1139088402	2015/10/05	1.0000000	1.0000000	10028.3803162	10158.3689722	EUR	EUR			9.97170	9.84410	EQS	351101	351101	CTCHG		2015/05/08	2015/09/25	2019/11/11	2019/11/11	20547					UPDATED ON 05 OCT 2015<BR>---------------------------------------<BR>DUE TO THE DISTRIBUTION OF A CASH DIVIDEND OF EUR 0.096 PAYABLE ON 26 OCTOBER 2015 TO SHAREHOLDERS OF RECORD OF 25 SEPTEMBER 2015, THE EXCHANGE PRICE HAS BEEN ADJUSTED FROM EUR 9.9717 PER ORDINARY SHARE TO EUR 9.8441 WITH EFFECT FROM 25 SEPTEMBER 2015.
CTCHG	I	2016/01/27	2016/01/27	7328	4016839	XS0916265787	2016/01/27	1.0000000	1.0000000	3793.0511303	3801.5586390	JPY	JPY			2636.40000	2630.50000	EQS	58107	58107	CTCHG		2014/11/01	2015/11/01	2018/04/12	2018/04/12	15735					
CTCHG	I	2016/01/27	2016/01/27	7329	432246	XS0249101139	2016/01/27	1.0000000	1.0000000	403.2095480	404.7272138	JPY	JPY			2480.10000	2470.80000	EQS	58107	58107	CTCHG		2014/11/01	2015/11/01	2026/03/25	2026/03/25	3348					
CTCHG	I	2016/01/27	2016/01/27	7330	4320553		2016/01/27	1.0000000	1.0000000	5813953.4883720	1449275.3623188	HKD	HKD			0.17200	0.69000	EQS	4059	4059	CTCHG		2014/07/31	2016/01/12	2017/07/29	2017/07/29	19567					
CTCHG	I	2016/01/27	2016/01/27	7331	4320553		2016/01/27	1.0000000	1.0000000	1449275.3623188	4347826.0869565	HKD	HKD			0.69000	0.23000	EQS	4059	4059	CTCHG		2016/01/12	2016/01/27	2017/07/29	2017/07/29	19567					
CTCHG	I	2016/01/28	2016/01/28	7332	4216969	XS1042530326	2016/01/27	1.0000000	1.0000000	5549.3895671	5549.3895671	JPY	JPY			1802.00000	1802.00000	EQS	55791	55791	CTCHG		2014/04/07	2014/04/07	2019/03/10	2016/03/22	18618					
CTCHG	I	2016/01/28	2016/01/28	7333	4483461	CA23290RAB74	2015/04/30	1.0000000	1.0000000	18.9573000	18.9573000	CAD	CAD			52.75000	52.75000	EQS	2296736	2296736	CORR		2015/04/10	2015/04/10	2015/09/29	2020/09/29	22593					
CTCHG	I	2016/01/28	2016/01/28	7334	4216969	XS1042530326	2016/01/28	1.0000000	1.0000000	5549.3895671	5549.3895671	JPY	JPY			1802.00000	1802.00000	EQS	55791	55791	CLEAN		2014/04/07	2014/04/07	2016/03/22	2019/03/10	18618					
CTCHG	I	2016/01/28	2016/01/28	7335	4559368	XS1230255470	2016/01/26	1.0000000	1.0000000	81632.6530612	85470.0854700	HKD	HKD			2.45000	2.34000	EQS	711646	711646	CTCHG		2015/12/24	2015/12/29	2019/07/15	2019/07/15	23071					
CTCHG	I	2016/01/29	2016/01/29	7336	2745512	XS0634907769	2015/09/03	1.0000000	1.0000000	151898.1972428	162403.6281179	TWD	TWD	USDTWD	USDTWD	37.72000	35.28000	EQS	9476	9476	CTCHG		2014/09/04	2015/09/08	2016/05/05	2016/05/05	9183	28.64800	28.64800			03SEP15<BR>CONVERSION PRICE WILL BE UPDATED ON 08SEP15.NEW CONVERSION PRICE WILL BE 35.28
CTCHG	I	2016/01/29	2016/01/29	7337	4078841	SE0005281821	2016/01/26					SEK	SEK			2.75000	2.75000	EQS	19276	19276	CTCHG		2016/03/01	2016/01/25	2016/03/31	2018/06/26	16286					
CTCHG	I	2016/02/01	2016/02/01	7338	4073151	IL0072000826	2016/01/31	1.0000000	1.0000000	1.5151515	1.5151515	ILS	ILS			0.66000	0.66000	EQS	21948	21948	CORR		2013/03/01	2013/03/01	2020/02/04	2016/02/04	15817					As on 31.1.16<BR>ENLIGHT RENEWABLE ENERGY.LTD<BR>Series `4` ISIN: 7200082 (convertible bonds)- IL0072000826<BR>As per the prospectus published on February 27th,2013 for  series `4` notes, the period during which series `4` is convertible into ordinary shares of the company for a price of 0.66 ILS of series `4` for 1 ordinary share, will end on February 4th,2016.After this date the conversion price will stand at 1 ILS of series `4` for 1 ordinary share until the last conversion date (i.e.04/02/2020).<BR>
CTCHG	I	2016/02/01	2016/02/01	7339	4030861	XS0919151380	2016/01/28	1.0000000	1.0000000	120481.9277108	140845.0704225	USD	USD			1.66000	1.42000	EQS	11155	11155	CTCHG		2013/06/13	2016/02/17	2018/08/22	2018/08/22	15708					
CTCHG	I	2016/02/02	2016/02/02	7340	4344750	XS1111075997	2015/11/18	1.0000000	1.0000000	9010.1454237	9275.1472429	EUR	EUR			11.09860	10.78150	EQS	52875	52875	CTCHG		2015/05/12	2015/11/18	2017/08/20	2017/08/20	23865					UPDATE 18NOV15 THE MINIMUM CONVERSION PRICE, CURRENTLY 11.0986 EUROS PER SHARE, HAS BEEN ADJUSTED TO 10.7815 EUR OS PER SHARE
CTCHG	U	2014/05/26	2016/02/02	4363	4256477	NO0010710395	2014/05/23	1.0000000	1.0000000	8512.3769962	9122.2564814	EUR	EUR			11.74760	10.96220	EQS	11817	11817	CTCHG		2014/05/07	2014/05/23	2019/05/05	2019/05/05	18673					(As on 23/05/2014) US_FI(1)<BR>23 May 2014 13:47 GMT Press Release: Marine Harvest: MHG - Adjustment To Conversion Price Of Convertible Bond (ISIN NO0010710395) <BR>Further to the Marine Harvest share trading ex. a NOK 5.00 dividend as  from the 23rd of May, the conversion price of the Company`s EUR 375  million convertible bond (ISIN NO0010710395) has been adjusted. <BR> <BR>The new conversion price is EUR 10.9622. <BR>This information is subject of the disclosure requirements acc. to  --5-12 vphl(Norwegian Securities Trading Act) <BR>This announcement is distributed by NASDAQ OMX Corporate Solutions on  behalf of NASDAQ OMX Corporate Solutions clients. <BR> The issuer of this announcement warrants that they are solely  responsible for the content, accuracy and originality of the information <BR>contained therein. <BR> <BR><BR>
CTCHG	U	2014/09/05	2016/02/02	5022	4256477	NO0010710395	2014/09/04	1.0000000	1.0000000	9122.2564814	9231.1384763	EUR	EUR			10.96220	10.83290	EQS	11817	11817	CTCHG		2014/05/23	2014/09/04	2019/05/05	2019/05/05	18673					(As on 04/09/2014) NO_STD<BR>The Conversion price will be adjusted accordingly from EUR 10.9622 to EUR 10.8329 effective on 4 september 2014, which is the date the shares traded ex-dividend .
CTCHG	U	2014/10/09	2016/02/02	5134	3668197	XS0762115664	2014/10/06	1.0000000		15043.2040821		CAD	CAD	CADUSD	USDCAD	0.66000	0.55000	EQS	78036	78036	CTCHG		2012/08/04	2014/10/06	2017/03/30	2017/03/30	13357	1.00720				As per ca fi141006<BR><BR>Great Western Minerals Group Ltd. (`GWMG` or the `Company`) (TSX VENTURE:GWG) (OTCQX: GWMGF), a leader in the manufacture and supply of rare earth element-based metal alloys and holder of a low cost, high-grade critical rare earth element mineral property in the Western Cape province of South Africa (`Steenkampskraal` or `SKK`), announced that it has adjusted the conversion rate as required by the terms of its 8.0% Convertible Bonds due April 6, 2017 (the `Bonds`). The terms of the Bonds provide that GWMG was required to produce not less than 500 metric tonnes of separated REOs by October 6, 2014, failing which the conversion rate would be reset in accordance with the formula contained in the Trust Deed governing the Bonds.<BR>The new conversion rate is Cad0.55 per Common Share of the Company, effective for conversion rate calculations on or after October 6, 2014. The original conversion rate was Cad0.66 per Common Share. Notices of the conversion rate adjustment have been delivered to holders of the Bonds.<BR>
CTCHG	U	2014/10/10	2016/02/02	5143	4224456	DE000A1YC3T6	2014/08/01	1.0000000	1.0000000	670.3545103	2011.0648789	EUR	EUR			149.17480	49.72490	EQS	20320	20320	CTCHG		2017/03/24	2017/03/24	2019/08/24	2019/08/24	19839					Source : DE000A1YC3T6_ratio.docx<BR>DE000A1YC3T6<BR>3 On August 1, 2014, the share capital of Fresenius SE & Co. KGaA has been increased from company funds. As a result, the current conversion price and the conversion ratio were adjusted from  149.1748 to  49.7249 and from 670.35451 to 2,011.06488, respectively.  <BR><BR>http://www.fresenius.com/5379.htm<BR>EQUITY-NEUTRAL CONVERTIBLE BONDS1<BR>Issuer Fresenius SE & Co. KGaA <BR>Currency  <BR>Issue amount 500,000,000<BR>Value date March 24, 2014<BR>Maturity September 24, 2019<BR>Coupon 0%<BR>Issue price 100%<BR>Rating BB+ / Ba1<BR>Guarantors Fresenius Kabi AG / Fresenius ProServe GmbH<BR>Initial conversion premium 35%<BR>Initial conversion price  149.3786 (35 % above Fresenius` share reference price2<BR>Current conversion price   49.7249 3<BR>Conversion period From March 24, 2017 until 30 days prior to maturity<BR>Conversion Cash settled4 <BR>Stock exchange Frankfurt / Open Market (Freiverkehr)<BR>Denomination 100,000<BR>Clearing agency Clearstream Frankfurt<BR>ISIN Code DE000A1YC3T6<BR>1 Any increase of Fresenius` share price above the conversion price would be offset by a corresponding value increase of the call options; dilution of Fresenius` share capital through issuance of new shares in connection with this transaction is ruled out.<BR>2 The share reference price was fixed at  110.65081, determined as the arithmetic average of Fresenius` daily volume-weighted average XETRA share price over a period of ten consecutive XETRA trading days, starting on March 19, 2014.<BR>3 On August 1, 2014, the share capital of Fresenius SE & Co. KGaA has been increased from company funds. As a result, the current conversion price and the conversion ratio were adjusted from  149.1748 to  49.7249 and from 670.35451 to 2,011.06488, respectively.  <BR>4 Subject to certain exceptions whichwould result in delivery of Fresenius shares by a third party.<BR> <BR><BR>
CTCHG	U	2014/11/01	2016/02/02	5222	4256477	NO0010710395	2014/10/31	1.0000000	1.0000000	9231.1384763	9341.2547173	EUR	EUR			10.83290	10.70520	EQS	11817	11817	CTCHG		2014/09/04	2014/10/31	2019/05/05	2019/05/05	18673					(As on 31/10/2014) NO_STD<BR>The conversion price will be adjusted accordingly from EUR 10.8329 TO EUR 10.7052 effective on 31 october 2014, which is the date the shares traded ex-dividend<BR>
CTCHG	U	2015/02/19	2016/02/02	5687	4256477	NO0010710395	2015/02/19	1.0000000	1.0000000	9341.2547173	9455.9071052	EUR	EUR			10.70520	10.57540	EQS	11817	11817	CTCHG		2014/10/31	2015/02/18	2019/05/05	2019/05/05	18673					(As on 19/02/2015) NO_FI<BR>Further to the Marine Harvest share trading on the Oslo Stock Exchange ex. a NOK 1.20 dividend, in the form of a repayment of paid-in capital, as from the 18th of February, the conversion price of the Company`s EUR 375 million convertible<BR>bond (ISIN NO0010710395) has been adjusted. The new conversion price is EUR 10.5754. This information is subject of the disclosure requirements pursuant to Section 5-12 of the Norwegian Securities Trading Act
CTCHG	U	2015/04/29	2016/02/02	5948	4240528	XS1055092602	2015/04/28	1.0000000	1.0000000	45568.4666210	46200.0462000	HKD	HKD			43.89000	43.29000	EQS	674872	674872	CTCHG		2014/05/22	2015/06/02	2019/04/01	2019/04/01	17751					Kingsoft Corporation Limited ADJUSTMENTS TO CONVERSION PRICES OF HK 2,327,000,000 1.25% CONVERTIBLE BONDS DUE 2019<BR>the Adjustment shall become effective on 2 June 2015, being the day after the Record Date in respect of the 2014 Final Dividend. Assuming that no other event that may trigger adjustment to conversion prices of the Convertible Bonds will occur on or before 2 June 2015, it is expected that the respective conversion price of the Convertible Bonds will be adjusted as follows: Before Adjustment After Adjustment 2014 Convertible Bonds HK 43.89 per Share HK 43.29 per Share
CTCHG	U	2015/05/28	2016/02/02	6185	4256477	NO0010710395	2015/05/28	1.0000000	1.0000000	9455.9071051	9593.7065285	EUR	EUR			10.57540	10.42350	EQS	11817	11817	CTCHG		2015/02/18	2015/05/27	2019/05/05	2019/05/05	18673					BIC_BR<BR>Marine Harvest ASA (OSE:MHG, NYSE:MHG) Adjustment To Conversion Price Of Convertible Bond (ISIN NO0010710395)<BR>Further to the Marine Harvest share trading on the Oslo Stock Exchange excluding a dividend of NOK 1.30 per share, in the form of a repayment of paid-incapital, as from the 27th of May, the conversion price of the Company`s EUR 375 million convertible bond (ISIN NO0010710395) has been adjusted.<BR> <BR>The new conversion price is EUR 10.4235.<BR> <BR>This information is subject of the disclosure requirements pursuant to Section 5-12 of the Norwegian Securities Trading Act<BR>
CTCHG	U	2015/08/22	2016/02/02	6935	4256477	NO0010710395	2015/08/21	1.0000000	1.0000000	9593.7065285	9715.6236944	EUR	EUR			10.42350	10.29270	EQS	11817	11817	CTCHG		2015/05/27	2015/08/21	2019/05/05	2019/05/05	18673					As on 21/08/2015<BR><BR>Further to the Marine Harvest share trading on the Oslo Stock Exchange excluding a dividend of NOK 1.30 per share, in the form of a repayment of paid-in capital, as from the 21st of August, the conversion price of  the Company`s EUR 375 million convertible bond (ISIN NO0010710395) has been adjusted. <BR> <BR>The new conversion price is EUR 10.2927. <BR>
CTCHG	U	2015/11/09	2016/02/02	7198	4256477	NO0010710395	2015/11/06	1.0000000	1.0000000	9715.6236944	9835.7430903	EUR	EUR			10.29270	10.16700	EQS	11817	11817	CTCHG		2015/08/21	2015/11/06	2019/05/05	2019/05/05	18673					As on 06/11/2015<BR><BR>Further to the Marine Harvest share trading on the Oslo Stock Exchange <BR>excluding a dividend of NOK 1.40 per share, in the form of a repayment <BR>of paid-in capital, as from the 6th of November, the conversion price of <BR>the Company`s EUR 375 million convertible bond (ISIN NO0010710395) has <BR>been adjusted. <BR> <BR> <BR> <BR>   The new conversion price is EUR 10.1670. <BR> <BR>
CTCHG	I	2016/02/02	2016/02/02	7342	4064504	ZAE000180204	2016/02/01	1.0000000	1.0000000	1396648.0446927	1396648.0446927	ZAR	ZAR			0.71600	0.66300	EQS	493277	493277	CTCHG		2015/08/14	2015/08/14	2018/12/04	2018/12/04	15784					(As on 01/02/2016)<BR>ADJUSTMENT TO THE SOAPSTONE S CONVERTIBLE BOND CONVERSION PRICE<BR>Soapstone wishes to advise holders of the Soapstone Convertible Bond<BR>( the Bond ) that in terms of Condition 9.2 (a)(iv)( Adjustment of<BR>Conversion Price ) of the final offering circular dated 14 December<BR>2012, the conversion price in relation to the Bond has been adjusted<BR>as a result of additional shares being issued. The price has been<BR>adjusted from ZAR 0.716 to ZAR 0.663<BR>
CTCHG	I	2016/02/02	2016/02/02	7343	3903942	XS0827986174	2016/02/02	1.0000000	1.0000000	234082.3970037	239670.2137858	SGD	SGD			1.06800	1.04310	UNT	2228985	2228985	CTCHG		2015/10/26	2016/02/03	2017/09/13	2017/09/13	15289					NOTICE IS HEREBY GIVEN THAT the Conversion Price will be adjusted from SGD1.0680 to SGD1.0431 per Unit. The adjustment to the Conversion Price is effective as at 3 February 2016, being the day immediately after the Book Closure Date.
CTCHG	I	2016/02/02	2016/02/02	7344	783477	CA13523ZAA18	2015/10/01	1.0000000	1.0000000	568.9131640	0.5689131	CAD	CAD			1.75773	1757.73749	BND	783520	783520	CLEAN		2015/10/01	2015/10/01	2018/10/31	2018/10/31	6859					
CTCHG	I	2016/02/02	2016/02/02	7345	783477	CA13523ZAA18	2016/02/01	1.0000000	1.0000000	0.5689131	0.5811211	CAD	CAD			1757.73749	1720.81172	BND	783520	783520	CTCHG		2015/10/01	2006/02/01	2018/10/31	2018/10/31	6859					
CTCHG	I	2016/02/02	2016/02/02	7346	783477	CA13523ZAA18	2016/02/01	1.0000000	1.0000000	0.5811211	0.5811211	CAD	CAD			1720.81172	1720.81172	BND	783520	783520	CLEAN		2006/02/01	2016/02/01	2018/10/31	2018/10/31	6859					
CTCHG	I	2016/02/02	2016/02/02	7347	783732	CA13523ZAB90	2015/10/01	1.0000000	1.0000000	536.8910670	0.5368910	CAD	CAD			1.86257	1862.57522	BND	783522	783522	CLEAN		2015/10/01	2015/10/01	2018/11/30	2018/11/30	8041					As on 01/10/2015<BR>----------------------------------------------------------------------------------------------------------------------------------------------------------<BR>Event Type     : Voluntary conversion                                 Status : Confirmed <BR>Security Issuer: GOVERNMENT OF CANADA                              <BR>Security Descrp: CPB SERIES 04 C 12/01/18                               ISIN : CA13523ZAB90<BR>Mandatory/Volun: Voluntary  Action Required Indicator: Y Related Bulletin ID :            <BR>Subject to Tax : N        Residency Restriction Indi.: N Rts Step-up Indicat.: N<BR>Addtnl rts indi: Additional quantity  unavailable        Action: Changed         <BR>AB int. rate   : 0.0000000000000                 AB principal repayment rate : 0.0000000000000 <BR>Date Code      : Activation Date                                        Date : 01/12/2008<BR>Date Code      : Start Date                                             Date : 01/12/2008<BR>Date Code      : End Date                                               Date : 30/11/2018<BR>Date Code      : Entered / Modified Date                                Date : 09/10/2008<BR>Restriction Cd.: CNS settlement            Start Date: 30/11/2018   End date : 30/11/2018<BR>Option number  : 1                 Option item number: 1  Default Indication : N<BR>Option Type    : cash and securities    Option status: Confirmed           <BR>Tender Amt(Min): 0.00                 Tender Amt(Max): 0.00                <BR>Tndr Inc. Amnt.: 0.00                       Item Type: submit by participant         <BR>ISIN/Currency  : CA13523ZAB90             Item Status: Confirmed                     <BR>Rate           :    1.0000000000000    Payment Method: daily                         <BR>Proration Indicates : N<BR>Option number  : 1                 Option item number: 2  Default Indication : N<BR>Option Type    : cash and securities    Option status: Confirmed           <BR>Tender Amt(Min): 0.00                 Tender Amt(Max): 0.00                <BR>Tndr Inc. Amnt.: 0.00                       Item Type: receive by participant        <BR>ISIN/Currency  : CA13520ZAB28             Item Status: Confirmed                     <BR>Rate           :    1.0000000000000    Payment Method: daily                         <BR>Proration Indicates : N<BR>Option number  : 1                 Option item number: 3  Default Indication : N<BR>Option Type    : cash and securities    Option status: Confirmed           <BR>Tender Amt(Min): 0.00                 Tender Amt(Max): 0.00                <BR>Tndr Inc. Amnt.: 0.00                       Item Type: receive by participant        <BR>ISIN/Currency  : CAD                      Item Status: Confirmed                     <BR>Rate           :    0.5368910670000    Payment Method: daily                         <BR>Proration Indicates : N<BR>Opt.Critical Dt: CDS expiry date and time        Date: 30/11/2018       Time : 19:00:00.0<BR>Opt.Critical Dt: agent expiry date and time      Date: 30/11/2018       Time : 19:00:00.0<BR>Opt.Critical Dt: daily tender expirty time       Date: 01/01/1900       Time : 19:00:00.0<BR>
CTCHG	I	2016/02/02	2016/02/02	7348	783732	CA13523ZAB90	2016/02/01	1.0000000	1.0000000	0.5368910	0.5488740	CAD	CAD			1862.57522	1821.91161	BND	783522	783522	CTCHG		2015/10/01	2016/02/01	2018/11/30	2018/11/30	8041					As on 01/02/2016<BR>--------------------------------------------------------------------------------------------<BR>Event Type     : Voluntary conversion                                 Status : Confirmed <BR>Security Issuer: GOVERNMENT OF CANADA                              <BR>Security Descrp: CPB SERIES 04 C 12/01/18                               ISIN : CA13523ZAB90<BR>Mandatory/Volun: Voluntary  Action Required Indicator: Y Related Bulletin ID :            <BR>Subject to Tax : N        Residency Restriction Indi.: N Rts Step-up Indicat.: N<BR>Addtnl rts indi: Additional quantity  unavailabAction: Changed         <BR>AB int. rate   :    0.0000000000000              AB principal repayment rate : 0.0000000000000 <BR>Date Code      : Activation Date                                        Date : 01/12/2008<BR>Date Code      : Start Date                                             Date : 01/12/2008<BR>Date Code      : End Date                                               Date : 30/11/2018<BR>Date Code      : Entered / Modified Date                                Date : 09/10/2008<BR>Restriction Cd.: CNS settlement            Start Date: 30/11/2018   End date : 30/11/2018<BR>Option number  : 1                 Option item number: 1  Default Indication : N<BR>Option Type    : cash and securities    Option status: Confirmed           <BR>Tender Amt(Min):            0.00      Tender Amt(Max): 0.00                <BR>Tndr Inc. Amnt.:            0.00            Item Type: submit by participant         <BR>ISIN/Currency  : CA13523ZAB90             Item Status: Confirmed                     <BR>Rate           :    1.0000000000000    Payment Method: daily                         <BR>Proration Indicates : N<BR>Option number  : 1                 Option item number: 2  Default Indication : N<BR>Option Type    : cash and securities    Option status: Confirmed           <BR>Tender Amt(Min):            0.00      Tender Amt(Max): 0.00                <BR>Tndr Inc. Amnt.:            0.00            Item Type: receive by participant        <BR>ISIN/Currency  : CA13520ZAB28             Item Status: Confirmed                     <BR>Rate           :    1.0000000000000    Payment Method: daily                         <BR>Proration Indicates : N<BR>Option number  : 1                 Option item number: 3  Default Indication : N<BR>Option Type    : cash and securities    Option status: Confirmed           <BR>Tender Amt(Min):            0.00      Tender Amt(Max): 0.00                <BR>Tndr Inc. Amnt.:            0.00            Item Type: receive by participant        <BR>ISIN/Currency  : CAD                      Item Status: Confirmed                     <BR>Rate           :    0.5488740460000    Payment Method: daily                         <BR>Proration Indicates : N<BR>Opt.Critical Dt: CDS expiry date and time        Date: 30/11/2018       Time : 19:00:00<BR>Opt.Critical Dt: agent expiry date and time      Date: 30/11/2018       Time : 19:00:00<BR>Opt.Critical Dt: daily tender expirty time       Date: 01/01/1900       Time : 19:00:00<BR>
CTCHG	I	2016/02/03	2016/02/03	7349	4500934	XS1227093611	2015/05/15		1.0000000		28328.6118980		EUR				3.53000	EQS		4522797	CTCHG		2015/05/06	2015/06/15	2020/04/25	2020/04/25	23850					CAType  :  CONVERT - CONVERSION OPTION <BR><BR>ExercisePeriod                              <BR>From : 2015-06-15<BR>Until dateExIn=`EXCLUDED`   :  2020-04-24<BR><BR>ExercisePrice       <BR>Value  :  3.53<BR><BR>Isin  :  CY0105562116<BR><BR>Rates                              <BR>New To Old : 28328.611898 : 100000.000000
CTCHG	I	2016/02/03	2016/02/03	7350	4500934	XS1227093611	2015/07/27	1.0000000	1.0000000	28328.6118980	29073.9933129	EUR	EUR			3.53000	3.43950	EQS	4522797	4522797	CTCHG		2015/06/15	2015/07/13	2020/04/25	2020/04/25	23850					CAType  :   CONVERT - CONVERSION OPTION <BR><BR>ExercisePrice      <BR>Value  :  3.4395<BR><BR>Isin  :  CY0105562116<BR><BR>Rates                              <BR>NewToOld  :   29073.993312 : 100000.000000<BR><BR>PLEASE BE ADVISED THAT THE CONVERSION PRICE AND RATIO HAVE BEEN ADJUSTED WITH EFFECT FROM 13JUL15.<BR>
CTCHG	I	2016/02/03	2016/02/03	7352	3668197	XS0762115664	2014/10/06					CAD	CAD	USDCAD		0.55000	0.55000	EQS	78036	78036	CLEAN		2014/10/06	2014/10/06	2017/03/30	2017/03/30	13357					
CTCHG	I	2016/02/03	2016/02/03	7353	3565335	CA70706PAD65	2012/07/20	1.0000000	1.0000000	101.0101000	86.8688974	CAD	CAD			9.90000	11.51160	EQS	2336974	2291700	CTCHG		2012/02/22	2012/07/20	2017/03/30	2017/03/30	12379					As per cds_fi  05/06/2012<BR><BR>The New 6.25% Series B Debentures will have all of the rights and entitlements of the former 6.25% Series B Debentures, except that the New 6.25% Series B Debentures will be convertible into Pengrowth Shares at a conversion price of CAD 11.5116 per Pengrowth Share (approximately 86.8689 Pengrowth Shares for each CAD 1,000 principal amount being converted.)`
CTCHG	I	2016/02/03	2016/02/03	7354	4318408	XS1090758688	2016/01/28	1.0000000	1.0000000	2129.0185224	2131.2418746	JPY	JPY			4697.00000	4692.10000	EQS	61250	61250	CTCHG		2014/08/29	2015/11/01	2019/08/15	2019/08/15	19747					Updated on 28/01/2016<BR>-------------------------------------<BR><BR>DUE TO A DIVIDEND PAYMENT  THE CONVERSION PRICE HAS BEEN ADJUSTED FROM JPY 4,697 TO JPY 4,692.1 AND IS EFFECTIVE RETROACTIVELY  FROM 1 NOVEMBER 2015
CTCHG	I	2016/02/04	2016/02/04	7359	4657353	XS1328242158	2016/01/05		1.0000000		2371.3540431	JPY	JPY				4217.00000	EQS	58385	58385	CTCHG		2016/01/05	2016/01/05	2020/12/05	2020/12/05	23551					CAType  :  CONVERT - CONVERSION OPTION<BR>ExercisePrice :  JPY 4217<BR>NewToOld       :  2371.354043 : 10000000.000000
CTCHG	I	2016/02/06	2016/02/08	7361	4016750	XS0914319552	2016/02/05	2963.8411381	3012.4111338	1.0000000	1.0000000	JPY	JPY			1687.00000	1659.80000	EQS	57841	57841	CTCHG		2015/05/11	2016/01/01	2018/04/09	2018/04/09	15687					
CTCHG	I	2016/02/06	2016/02/08	7362	4694632	TW0001730109	2016/02/05	1.0000000	1.0000000	2717.3900000	2739.7300000	TWD	TWD			36.80000	36.50000	EQS	55252	55252	CTCHG		2016/03/03	2016/03/03	2019/02/02	2019/02/02	23853					
CTCHG	I	2016/02/09	2016/02/09	7363	2335000	GB00B5KVCW36	2011/01/13		1.0000000		0.3224217	GBP	GBP				3.10152	EQS	4912	4912	CLEAN		2011/07/31	2011/07/31	2018/01/30	2018/01/30	13031					
CTCHG	I	2016/02/10	2016/02/10	7364	4610362		2016/02/09	1.0000000	1.0000000	0.5555555	1.7241379	AUD	AUD			1.80000	0.58000	EQS	11018	11018	CTCHG		2014/11/27	2014/11/27	2016/11/13	2018/11/13	23278					
CTCHG	I	2016/02/12	2016/02/12	7366	4539134	FR0012799229	2016/02/10	1.0000000	1.0000000	1.0610000	1.1050000	EUR	EUR			54.44863	52.28054	EQS	52302	52302	CORR		2015/08/04	2016/02/05			23167					As on 10/02/2016<BR><BR>NOTICE OF ADJUSTEMENT TO THE CONVERSION RATIO<BR>ODIRNANE NEOPOST 3.375% - FR0012799229<BR>Holders of the net share settled undated senior unsecured bonds convertible into new shares and/or exchangeable for existing shares ( ODIRNANE ) (ISIN code: FR0012799229) are informed that Neopost SA Board of Directors held on November 27th, 2015 decided to distribute an interim dividend of EUR0.80 per NEOPOST SA share (ISIN code: FR0000120560). The interim dividend will be paid on February 9, 2016 and the ex-date is February 5, 2016.<BR>Following this interim dividend payment, in accordance with paragraphs 15.7.2.4 and 15.7.2.10 of the Terms and Conditions of the ORDINANE (available on company website), the Conversion Ratio is adjusted from 1.061 to 1.105 NEOPOST SA share for 1 ORDINANE (calculated to three decimal places by rounding to the nearest thousandth). The new Conversion Ratio is effective on February 5, 2016.
CTCHG	I	2016/02/15	2016/02/15	7367	1658661	AU0000ANZPA9	2009/12/18					AUD	AUD					EQS	45514	45514	CLEAN		2009/12/18	2016/12/15	2016/12/14		6740					
CTCHG	I	2016/02/15	2016/02/15	7368	4113297	BE6258011566	2016/02/12	1.0000000	1.0000000	26940.3809369	46296.2962962	EUR	EUR			3.71190	2.16000	EQS	701453	701453	CTCHG		2014/09/12	2016/02/08	2018/09/24	2018/09/24	20407					The present notice is given in relation to the 4.25% Convertible Bonds due 2018 (ISIN Code: 2.1) (the `2018 Convertible Bonds`) that have been issued by Nyrstar NV (a limited liability company organised and existing under the laws of Belgium, with registered office at Zinkstraat 1, 2490 Balen, Belgium, and registered with the register of legal persons of Turnhout under number BE 0888.728.945) (the `Company`). The Company announces that, in accordance with Condition 5(b) of the terms and conditions of the 2018 Convertible Bonds, the Conversion Price of the 2018 Convertible Bonds has been adjusted downwards following an offering by the Company of 608,165,740 new shares at an issue price of pound 0.45 per new share, or pound 273,674,583.00 in total, with statutory preferential subscription rights for the existing shareholders of the Company. As a result, the new Conversion Price is, after rounding in accordance with Condition 5(f) of the Terms and Conditions of the 2018 Convertible Bonds, pound 2.16 per Nyrstar share. The Conversion Price adjustment became effective on 8 February 2016.
EDI_ENDOFFILE
