EDI_RCONV_20160302
TableName	Actflag	Created	Changed	RconvID	SecID	ISIN	EffectiveDate	OldInterestAccrualConvention	NewInterestAccrualConvention	OldConvMethod	NewConvMethod	Eventtype	Notes
RCONV	I	2016/01/16	2016/01/18	120005	4560516	XS1260144735	2015/07/22	30E/360				CORR	
RCONV	I	2016/01/16	2016/01/18	120031	4650722	XS1324534970	2015/11/25	30E/360				CORR	
RCONV	I	2016/01/16	2016/01/18	120032	4652493	CA13595Z5N28	2015/12/01	A365				CORR	
RCONV	I	2016/01/16	2016/01/18	120033	4683911	XS1346651737	2016/01/16	30E/360	30360			CORR	
RCONV	I	2016/01/16	2016/01/18	120034	4683690	US853254AY62	2016/01/16	30E/360	30360			CORR	
RCONV	I	2016/01/16	2016/01/18	120036	4680432	XS1342499784	2016/01/13	A360	A365			CORR	
RCONV	I	2016/01/16	2016/01/18	120037	4678787	XS1342851331	2016/01/14	A365	AA		ICMA	CORR	
RCONV	I	2016/01/16	2016/01/18	120038	4671741	XS1338373969	2016/01/01	A360	AA			CORR	
RCONV	I	2016/01/16	2016/01/18	120039	2676849	XS0626791668	2015/12/23	30360	30E/360			CORR	
RCONV	I	2016/01/16	2016/01/18	120040	4671753	XS1338375154	2016/01/01	A360	AA			CORR	
RCONV	I	2016/01/16	2016/01/18	120041	3889613	XS0821726709	2012/08/29	30E/360	30360			CORR	
RCONV	I	2016/01/16	2016/01/18	120043	4626406	XS1222896307	2015/11/06	30E/360	30360			CORR	
RCONV	I	2016/01/16	2016/01/18	120044	4010210	XS0912154381	2013/04/11	30E/360	30360			CORR	
RCONV	I	2016/01/16	2016/01/18	120045	4674213	XS1289920149	2016/01/15	A360	30360			CORR	
RCONV	I	2016/01/16	2016/01/18	120046	4677998	XS1266266656	2016/01/16	A360	30E/360			CORR	
RCONV	I	2016/01/16	2016/01/18	120048	4473753	XS1139583089	2015/03/27	A360	30360			CORR	
RCONV	I	2016/01/16	2016/01/18	120049	4651909	XS1324192480	2015/12/02	A365				CORR	
RCONV	I	2016/01/16	2016/01/18	120050	4642306	XS1273520202	2015/11/18	30E/360	30360			CORR	
RCONV	I	2016/01/16	2016/01/18	120051	4654184	XS1325799119	2015/12/03	30E/360				CORR	
RCONV	I	2016/01/16	2016/01/18	120052	4574354	XS1271906155	2015/09/10	A365	A360			CORR	
RCONV	I	2016/01/16	2016/01/18	120053	4668494	XS1279287467	2015/12/24	A360	30360			CORR	
RCONV	I	2016/01/16	2016/01/18	120054	4666834	XS1335437593	2015/12/30	A360	30360			CORR	
RCONV	I	2016/01/16	2016/01/18	120055	4666553	XS1289947001	2016/01/09	A360	30360			CORR	
RCONV	I	2016/01/16	2016/01/18	120058	4684305	XS1346622803	2016/01/15	30E/360	AA		ICMA	CORR	
RCONV	I	2016/01/16	2016/01/18	120059	4544886	XS1193853857	2015/06/25	30E/360	30360			CORR	
RCONV	I	2016/01/16	2016/01/18	120060	4544887	XS1193857411	2015/06/25	A360	30360			CORR	
RCONV	I	2016/01/16	2016/01/18	120061	4544897	XS1193870356	2015/06/25	30E/360	30360			CORR	
RCONV	I	2016/01/16	2016/01/18	120062	4678948	XS1289418359	2016/01/08	A360	30E/360			CORR	
RCONV	I	2016/01/16	2016/01/18	120063	4685885	XS1293139603	2016/01/15	30E/360	A360			CORR	
RCONV	I	2016/01/16	2016/01/18	120064	4640636	XS1300502041	2015/11/13	30E/360	AA			CORR	
RCONV	I	2016/01/16	2016/01/18	120065	4666598	XS1289953157	2015/12/25	A360	30360			CORR	
RCONV	I	2016/01/16	2016/01/18	120066	4642674	XS1315832656	2015/12/09	30E/360	30360			CORR	
RCONV	I	2016/01/16	2016/01/18	120067	4661664	XS1314345536	2015/12/19	30E/360	30360			CORR	
RCONV	I	2016/01/16	2016/01/18	120068	4673522	XS1289928399	2015/12/29	A360				CORR	
RCONV	I	2016/01/16	2016/01/18	120069	4278555	XS1074397149	2014/06/04	30E/360	30360			CORR	
RCONV	I	2016/01/16	2016/01/18	120070	4661608	XS1314345619	2015/12/09	A360	30360			CORR	
RCONV	I	2016/01/16	2016/01/18	120071	4681497	XS1344874026	2016/01/15	30E/360	AA		ICMA	CORR	
RCONV	I	2016/01/16	2016/01/18	120072	4661678	XS1314345700	2015/12/09	30E/360	30360			CORR	
RCONV	I	2016/01/16	2016/01/18	120073	4430774	XS1175813655	2015/02/05	30E/360	30360			CORR	
RCONV	I	2016/01/16	2016/01/18	120074	4430773	XS1175814463	2015/02/05	30E/360	30360			CORR	
RCONV	I	2016/01/16	2016/01/18	120075	4678124	XS1341424304	2016/01/16	30E/360	A360			CORR	
RCONV	I	2016/01/16	2016/01/18	120076	4678129	XS1341424486	2016/01/16	30E/360	A360			CORR	
RCONV	I	2016/01/16	2016/01/18	120077	4661444	XS1314345023	2015/12/09	30E/360	AA			CORR	
RCONV	I	2016/01/16	2016/01/18	120078	4433176	XS1175224747	2015/02/04	AA	30360	ISDA	ISDA	CORR	
RCONV	I	2016/01/18	2016/01/18	120079	4664263	XS1333661483	2015/12/21	A365				CORR	
RCONV	I	2016/01/18	2016/01/18	120080	4680461	XS1336568040	2015/12/23	30E/360	30360			CORR	
RCONV	I	2016/01/18	2016/01/18	120081	4664274	XS1333660162	2015/12/23	A365				CORR	
RCONV	I	2016/01/18	2016/01/18	120082	4680478	XS1336568479	2015/12/23	30E/360	30360			CORR	
RCONV	I	2016/01/18	2016/01/18	120083	4680521	XS1336568636	2015/12/23	A365	30360			CORR	
RCONV	I	2016/01/18	2016/01/18	120084	4669230	XS1336612715	2016/01/01	A365				CORR	
RCONV	I	2016/01/18	2016/01/18	120085	4680245	XS1336570376	2015/12/23	30E/360	30360			CORR	
RCONV	I	2016/01/18	2016/01/18	120086	4680285	XS1336570889	2015/12/23	30E/360	30360			CORR	
RCONV	I	2016/01/18	2016/01/18	120087	4680377	XS1336570962	2015/12/23	A365	30360			CORR	
RCONV	I	2016/01/18	2016/01/18	120088	4249220	US949746RG83	2024/06/15	30360	A360			RCONV	
RCONV	I	2016/01/18	2016/01/18	120089	4687566	IN002015X431	2016/01/18	A360	A365			CLEAN	
RCONV	I	2016/01/19	2016/01/19	120090	4661293	XS1321981364	2016/01/09	30E/360	30360			CORR	
RCONV	I	2016/01/19	2016/01/19	120091	4673623	XS1339533884	2015/12/30	30E/360	30360			CORR	
RCONV	I	2016/01/19	2016/01/19	120092	3886402	XS0819128744	2012/08/18	30E/360	30360			CORR	
RCONV	I	2016/01/19	2016/01/19	120093	4666802	XS1335337702	2015/12/24	30E/360	30360			CORR	
RCONV	I	2016/01/19	2016/01/19	120094	4666785	XS1335311574	2015/12/22	A365	AA	ICMA	ICMA	CORR	
RCONV	I	2016/01/19	2016/01/19	120095	4624639	XS1222895754	2015/10/29	A360	30360			CORR	
RCONV	I	2016/01/19	2016/01/19	120097	4513494	XS1221908897	2015/05/27	30E/360	30360			CORR	
RCONV	I	2016/01/19	2016/01/19	120098	4672703	XS1332176657	2016/01/08	30E/360	A365			CORR	
RCONV	I	2016/01/19	2016/01/19	120099	4668169	XS1280021970	2015/12/31	A365				CORR	
RCONV	I	2016/01/19	2016/01/19	120100	4574266	XS1271680594	2015/08/05	30E/360	A365			CORR	
RCONV	I	2016/01/19	2016/01/19	120101	4667526	XS1279274051	2016/01/05	A360	30360			CORR	
RCONV	I	2016/01/19	2016/01/19	120102	4676022	XS1279274648	2016/01/05	A360	30360			CORR	
RCONV	I	2016/01/19	2016/01/19	120103	4665735	XS1279286659	2015/12/25	A360	30360			CORR	
RCONV	I	2016/01/19	2016/01/19	120104	4170564	XS0951366136	2013/10/23	30360	AA			CORR	
RCONV	I	2016/01/19	2016/01/19	120105	4669332	XS1289413046	2016/01/19	30E/360	A360			CORR	
RCONV	I	2016/01/19	2016/01/19	120106	4669343	XS1289413129	2016/01/19	30E/360	A360			CORR	
RCONV	I	2016/01/19	2016/01/19	120107	4680238	XS1289910264	2016/01/16	A360	30360			CORR	
RCONV	I	2016/01/19	2016/01/19	120108	4640815	XS1317080098	2015/12/05	A365	AA			CORR	
RCONV	I	2016/01/19	2016/01/19	120109	4403067	XS1150799481	2016/01/18	AA	A365	ISDA	ISDA	CORR	
RCONV	I	2016/01/19	2016/01/19	120110	4669599	XS1280026854	2016/01/19	A360	30E/360			CORR	
RCONV	I	2016/01/19	2016/01/19	120111	825403	DK0009236721	1987/11/13	30360	30E/360			CORR	
RCONV	I	2016/01/19	2016/01/19	120112	825403	DK0009236721	2001/01/01	30E/360	AA			CORR	
RCONV	I	2016/01/19	2016/01/19	120113	4681436	XS1344742892	2016/01/16	30E/360	AA		ICMA	CORR	
RCONV	I	2016/01/19	2016/01/19	120114	4680456	XS1237760035	2016/01/10	A360	30E/360			CORR	
RCONV	I	2016/01/19	2016/01/19	120115	4679533	XS1281751641	2016/01/18	A360	30E/360			CORR	
RCONV	I	2016/01/19	2016/01/19	120116	4661821	XS1051361290	2015/12/10	A365	30360			CORR	
RCONV	I	2016/01/19	2016/01/19	120117	4652743	XS1280052850	2015/12/12	A360	30360			CORR	
RCONV	I	2016/01/19	2016/01/19	120118	4680827	XS1281750916	2016/01/09	A360	30E/360			CORR	
RCONV	I	2016/01/19	2016/01/19	120119	4432689	XS1174582376	2015/01/29	A365	AA		ICMA	CORR	
RCONV	I	2016/01/19	2016/01/19	120120	141673	XS0051799046	1994/07/13	A360	30360		ISDA	CORR	
RCONV	I	2016/01/19	2016/01/19	120121	143220	XS0058957316	1995/08/05	AA	30E/360	ICMA	ICMA	CORR	
RCONV	I	2016/01/19	2016/01/19	120122	4656163	XS1328699795	2015/12/10	A365	AA			CORR	
RCONV	I	2016/01/19	2016/01/19	120123	4679940	XS1342914782	2016/01/08	30E/360	A360			CORR	
RCONV	I	2016/01/19	2016/01/19	120124	4607606	XS0461345919	2015/11/19	30E/360	A360			CORR	
RCONV	I	2016/01/19	2016/01/19	120125	4655419	XS1279272519	2015/12/30	30E/360	30360			CORR	
RCONV	I	2016/01/19	2016/01/19	120126	4670660	XS1336942773	2016/01/05	30E/360	30360			CORR	
RCONV	I	2016/01/19	2016/01/19	120127	4681501	XS1344895450	2016/01/17	30E/360	AA	ICMA	ICMA	CORR	
RCONV	I	2016/01/19	2016/01/19	120128	4681439	XS1344745481	2016/01/15	30E/360	AA			CORR	
RCONV	I	2016/01/19	2016/01/19	120129	4644831	XS1320605766	2015/12/03	30360	AA		ICMA	CORR	
RCONV	I	2016/01/19	2016/01/19	120131	4686275	XS1339632603	2016/01/19	30E/360	A360			CORR	
RCONV	I	2016/01/19	2016/01/19	120132	4680405	XS1342922298	2016/01/09	30E/360	A360			CORR	
RCONV	I	2016/01/19	2016/01/19	120133	4683542	XS1346317164	2016/01/13	30E/360	A360			CORR	
RCONV	I	2016/01/19	2016/01/19	120134	4683567	XS1346317834	2016/01/13	30E/360	A360			CORR	
RCONV	I	2016/01/19	2016/01/19	120135	4683999	XS1346619254	2016/01/13	A360	30E/360			CORR	
RCONV	I	2016/01/20	2016/01/20	120136	4553974	XS1256229417	2015/07/14	A360	30360			CORR	
RCONV	I	2016/01/20	2016/01/20	120137	4683568	XS1344543696	2016/01/14	30E/360	30360			CORR	
RCONV	I	2016/01/20	2016/01/20	120138	4685715	XS1212523507	2016/01/16	A360	30360			CORR	
RCONV	I	2016/01/20	2016/01/20	120139	4683120	XS1212525890	2016/01/13	30E/360	30360			CORR	
RCONV	I	2016/01/20	2016/01/20	120140	4645408	XS1222897610	2015/11/13	30E/360	30360			CORR	
RCONV	I	2016/01/20	2016/01/20	120141	4634798	XS1222899582	2015/11/13	A360	30360			CORR	
RCONV	I	2016/01/20	2016/01/20	120142	4662556	XS1051364476	2015/12/11	30E/360	30360			CORR	
RCONV	I	2016/01/20	2016/01/20	120143	4195363	XS1029230734	2014/02/08	30E/360	AA			CORR	
RCONV	I	2016/01/20	2016/01/20	120145	4364465	XS1120482432	2014/10/30	30E/360	30360			CORR	
RCONV	I	2016/01/20	2016/01/20	120147	4674139	XS1279287624	2015/12/29	A360	30360			CORR	
RCONV	I	2016/01/20	2016/01/20	120148	4680881	XS1289653864	2016/01/13	A360	30360			CORR	
RCONV	I	2016/01/20	2016/01/20	120149	4681233	XS1289655646	2016/01/14	A360	30360			CORR	
RCONV	I	2016/01/20	2016/01/20	120151	4665740	XS1279286733	2015/12/25	A365	30360			CORR	
RCONV	I	2016/01/20	2016/01/20	120153	4564443	XS1262167775	2015/08/04	A360	AA			CORR	
RCONV	I	2016/01/20	2016/01/20	120154	4674432	XS1340020426	2016/01/12	30E/360	30360			CORR	
RCONV	I	2016/01/20	2016/01/20	120155	4674494	XS1340281143	2016/01/13	30E/360	30360			CORR	
RCONV	I	2016/01/20	2016/01/20	120156	4674490	XS1340281226	2016/01/13	30E/360	30360			CORR	
RCONV	I	2016/01/20	2016/01/20	120157	4675451	XS1290042230	2016/01/12	A360	30360			CORR	
RCONV	I	2016/01/20	2016/01/20	120158	4652051	XS1324400008	2015/11/25	30E/360	A360			CORR	
RCONV	I	2016/01/20	2016/01/20	120159	4665557	XS1334638951	2015/12/22	A360	AA		ISDA	CORR	
RCONV	I	2016/01/20	2016/01/20	120160	4473580	XS1209236923	2015/04/03	30E/360				CLEAN	
RCONV	I	2016/01/20	2016/01/20	120161	4482295	XS1217210662	2015/04/14	A360				CLEAN	
RCONV	I	2016/01/20	2016/01/20	120162	4538506	XS1222228295	2015/06/17	A360				CLEAN	
RCONV	I	2016/01/20	2016/01/20	120163	4664202	XS1333198676	2015/12/22	30E/360				CLEAN	
RCONV	I	2016/01/20	2016/01/20	120164	4688387	XS1350032634	2016/01/20	A360	30E/360			CORR	
RCONV	I	2016/01/20	2016/01/20	120165	4681078	XS1344632010	2016/01/12	30E/360	A360			CORR	
RCONV	I	2016/01/20	2016/01/20	120166	4669220	XS1336609257	2015/12/31	30E/360				CLEAN	
RCONV	I	2016/01/20	2016/01/20	120167	4543260	IT0004975485	2013/11/16	30E/360	30360			CORR	
RCONV	I	2016/01/21	2016/01/21	120169	4446600	XS1191582144	2015/02/18	30E/360	A365			CORR	
RCONV	I	2016/01/21	2016/01/21	120170	4681025	XS1344536138	2016/01/21	30E/360	A360			CORR	
RCONV	I	2016/01/21	2016/01/21	120171	4673344	XS1267261805	2016/01/16	A360	30360			CORR	
RCONV	I	2016/01/21	2016/01/21	120173	4683580	XS1346141028	2016/01/20	30E/360	A365			CORR	
RCONV	I	2016/01/21	2016/01/21	120174	4136347	XS0928238905	2013/11/05	30E/360	30360			CORR	
RCONV	I	2016/01/21	2016/01/21	120175	4570457	XS1267723275	2015/08/11	30E/360	30360			CORR	
RCONV	I	2016/01/21	2016/01/21	120176	4675385	XS1279288432	2016/01/12	A360	30360			CORR	
RCONV	I	2016/01/21	2016/01/21	120177	4289151	XS1068540415	2014/06/20	A360	30360			CORR	
RCONV	I	2016/01/21	2016/01/21	120178	4548605	XS1253428178	2015/07/04	30E/360	30360			CORR	
RCONV	I	2016/01/21	2016/01/21	120179	4548614	XS1253448010	2015/07/04	30E/360	30360			CORR	
RCONV	I	2016/01/21	2016/01/21	120180	4548620	XS1253465451	2015/07/04	30E/360	30360			CORR	
RCONV	I	2016/01/21	2016/01/21	120181	4548625	XS1253473554	2015/07/04	30E/360	30360			CORR	
RCONV	I	2016/01/21	2016/01/21	120182	4548650	XS1253478439	2015/07/04	30E/360	30360			CORR	
RCONV	I	2016/01/21	2016/01/21	120183	4657449	XS1327453152	2015/12/16	A360	30360			CORR	
RCONV	I	2016/01/21	2016/01/21	120184	4656425	XS1327470321	2015/12/17	30E/360	30360			CORR	
RCONV	I	2016/01/21	2016/01/21	120185	4663303	XS1332626016	2015/12/31	30E/360	30360			CORR	
RCONV	I	2016/01/21	2016/01/21	120186	4652806	XS1325176060	2015/11/21	30E/360	30360			CORR	
RCONV	I	2016/01/21	2016/01/21	120187	4652078	XS1324401071	2015/12/10	A360	30360			CORR	
RCONV	I	2016/01/21	2016/01/21	120188	4669156	XS1336576498	2015/12/29	A360	30360			CORR	
RCONV	I	2016/01/21	2016/01/21	120189	4681607	XS1345331299	2016/01/16	30E/360	AA			CORR	
RCONV	I	2016/01/21	2016/01/21	120190	4683480	XS1345697780	2016/01/14	30E/360	A365			CORR	
RCONV	I	2016/01/21	2016/01/21	120191	4681202	XS1289654672	2016/01/14	A360	30360			CORR	
RCONV	I	2016/01/21	2016/01/21	120192	4662516	XS1332255287	2015/12/24	A360	30360			CORR	
RCONV	I	2016/01/21	2016/01/21	120193	4677550	XS1313809094	2016/01/13	30E/360	30360			CORR	
RCONV	I	2016/01/21	2016/01/21	120194	4654056	XS1325734843	2015/12/12	30E/360	30360			CORR	
RCONV	I	2016/01/21	2016/01/21	120195	4682375	XS1345324328	2016/01/16	30E/360	A365			CORR	
RCONV	I	2016/01/21	2016/01/21	120196	4492231	XS1204434531	2015/04/08	30E/360	30360			CORR	
RCONV	I	2016/01/21	2016/01/21	120197	4269824	AU3CB0221117	2014/05/21	30E/360	AA	ICMA	ICMA	CORR	
RCONV	I	2016/01/21	2016/01/21	120198	4525360	XS1241945473	2015/06/05	30E/360	30360			CORR	
RCONV	I	2016/01/21	2016/01/21	120199	4664352	XS1333783832	2016/01/09	A360	30360			CORR	
RCONV	I	2016/01/21	2016/01/21	120201	4682524	XS1346084806	2016/01/16	30E/360	A360			CORR	
RCONV	I	2016/01/21	2016/01/21	120202	4683580	XS1346141028	2016/01/21	A365	30E/360			CORR	
RCONV	I	2016/01/21	2016/01/21	120203	4688211	XS1350031156	2016/01/19	A360	30E/360			CORR	
RCONV	I	2016/01/21	2016/01/21	120204	4006703	XS0905001805	2013/03/29	30E/360	A360			CORR	
RCONV	I	2016/01/21	2016/01/21	120205	4662634	XS1331759388	2015/12/15	30E/360	30360			CORR	
RCONV	I	2016/01/21	2016/01/21	120206	4681438	XS1344924656	2016/01/12	30E/360	A360			CORR	
RCONV	I	2016/01/21	2016/01/21	120207	4480467	IT0005104606	2015/04/02	30360	AA			CORR	
RCONV	I	2016/01/21	2016/01/21	120208	4480469	IT0005104614	2015/04/02	30360	AA			CORR	
RCONV	I	2016/01/21	2016/01/21	120209	4659030	XS1331156684	2015/12/15	30E/360	30360			CORR	
RCONV	I	2016/01/21	2016/01/21	120210	4662637	XS1331759461	2015/12/15	30E/360	30360			CORR	
RCONV	I	2016/01/21	2016/01/21	120211	4659032	XS1331156841	2015/12/15	30E/360	30360			CORR	
RCONV	I	2016/01/22	2016/01/22	120212	4455353	XS1197831602	2015/03/19	30E/360	A360			CORR	
RCONV	I	2016/01/22	2016/01/22	120213	4686869	XS1349364015	2016/01/22	30E/360	A360			CORR	
RCONV	I	2016/01/22	2016/01/22	120214	4655268	XS1273519709	2015/12/11	30E/360	30360			CORR	
RCONV	I	2016/01/22	2016/01/22	120215	4659088	XS1273520541	2015/12/25	30E/360	30360			CORR	
RCONV	I	2016/01/22	2016/01/22	120216	4121857	MX91LA010015	2013/10/04	A365	A360			CLEAN	
RCONV	I	2016/01/22	2016/01/22	120217	4686253	XS1337093121	2016/01/16	30E/360	30360			CORR	
RCONV	I	2016/01/22	2016/01/22	120218	4685400	CA63308ZHZ59	2016/01/20	A365				CORR	
RCONV	I	2016/01/22	2016/01/22	120219	4564401	XS0809884355	2015/06/30	30E/360	AA		ISDA	CORR	
RCONV	I	2016/01/22	2016/01/22	120220	4261265	XS1065236496	2014/05/30	30E/360	30360			CORR	
RCONV	I	2016/01/22	2016/01/22	120221	4009548	XS0912088902	2013/04/24	30E/360	30360			CORR	
RCONV	I	2016/01/22	2016/01/22	120222	4678023	XS1273521432	2016/01/08	30E/360	30360			CORR	
RCONV	I	2016/01/22	2016/01/22	120223	4680835	XS1289158690	2016/01/22	A360	30E/360			CORR	
RCONV	I	2016/01/22	2016/01/22	120224	4580452	XS1265418217	2015/08/18	30E/360	AA			CORR	
RCONV	I	2016/01/22	2016/01/22	120225	4608440	XS1295562851	2015/10/31	30E/360	30360			CORR	
RCONV	I	2016/01/22	2016/01/22	120226	4657835	XS1330259018	2016/01/21	A365	AA			CORR	
RCONV	I	2016/01/22	2016/01/22	120227	4662266	XS1280034361	2016/01/08	A360	30360			CORR	
RCONV	I	2016/01/22	2016/01/22	120228	4682160	XS1289420413	2016/01/22	30E/360	A360			CORR	
RCONV	I	2016/01/22	2016/01/22	120229	4686519	CA064151GR81	2016/01/22	A365				CORR	
RCONV	I	2016/01/22	2016/01/22	120230	4683425	XS1295013087	2016/01/22	30E/360	A360			CORR	
RCONV	I	2016/01/22	2016/01/22	120231	4680386	XS1342787576	2016/01/16	30E/360	AA			CORR	
RCONV	I	2016/01/22	2016/01/22	120232	4484851	XS1218432349	2015/04/17	30E/360	30360			CORR	
RCONV	I	2016/01/22	2016/01/22	120234	4682328	XS1345557695	2016/01/18	A360	30E/360			CORR	
RCONV	I	2016/01/22	2016/01/22	120235	4680853	XS1289168731	2016/01/21	30E/360	30360			CORR	
RCONV	I	2016/01/22	2016/01/22	120236	4686895	XS1349371572	2016/01/16	A360	30E/360			CORR	
RCONV	I	2016/01/22	2016/01/22	120237	4629809	XS1307985439	2015/11/21	30E/360	AA			CORR	
RCONV	I	2016/01/22	2016/01/22	120238	4688395	XS1350361371	2016/01/22	30E/360	A365			CORR	
RCONV	I	2016/01/22	2016/01/22	120239	4681076	XS1344633687	2016/01/16	30E/360	30360			CORR	
RCONV	I	2016/01/22	2016/01/22	120240	4681481	XS1344805640	2016/01/22	30E/360	A360			CORR	
RCONV	I	2016/01/22	2016/01/22	120241	4684535	XS1346816322	2016/01/20	A360	AA	ICMA	ICMA	CORR	
RCONV	I	2016/01/22	2016/01/22	120242	4683511	XS1346180869	2016/01/19	A365	AA	ICMA	ICMA	CORR	
RCONV	I	2016/01/22	2016/01/22	120243	4684534	XS1346839886	2016/01/20	30E/360	30360			CORR	
RCONV	I	2016/01/23	2016/01/25	120245	4673667	XS1339877463	2016/01/13	30E/360	30360			CORR	
RCONV	I	2016/01/23	2016/01/25	120246	4681071	XS1344643132	2016/01/23	30E/360	A360			CORR	
RCONV	I	2016/01/23	2016/01/25	120247	4682350	XS1345427139	2016/01/23	30E/360	A360			CORR	
RCONV	I	2016/01/23	2016/01/25	120250	4688477	XS1350034416	2016/01/23	30E/360	A365			CORR	
RCONV	I	2016/01/23	2016/01/25	120251	4690201	XS1352049198	2016/01/23	30E/360	AA		ICMA	CORR	
RCONV	I	2016/01/23	2016/01/25	120252	4690173	XS1352028432	2016/01/22	30E/360	AA		ICMA	CORR	
RCONV	I	2016/01/23	2016/01/25	120253	4690102	XS1351517187	2016/01/23	30E/360	AA	ICMA	ICMA	CORR	
RCONV	I	2016/01/23	2016/01/25	120254	4690297	XS1352121724	2016/01/22	30E/360	AA		ICMA	CORR	
RCONV	I	2016/01/23	2016/01/25	120255	4684531	XS1346839373	2016/01/23	30E/360	AA		ICMA	CORR	
RCONV	I	2016/01/23	2016/01/25	120256	4428036	XS1144014476	2015/04/04	A360	30360			CORR	
RCONV	I	2016/01/23	2016/01/25	120257	3878264	XS0811563526	2012/08/26	30E/360	30360			CORR	
RCONV	I	2016/01/23	2016/01/25	120258	4684115	XS1289161058	2016/01/13	30E/360	A360			CORR	
RCONV	I	2016/01/23	2016/01/25	120259	4690197	XS1351710691	2016/01/22	A360	30E/360			CORR	
RCONV	I	2016/01/23	2016/01/25	120260	4690563	XS1351586588	2016/01/23	30E/360	30360			CORR	
RCONV	I	2016/01/23	2016/01/25	120261	4688525	XS1350417421	2016/01/23	30E/360	AA	ICMA	ICMA	CORR	
RCONV	I	2016/01/23	2016/01/25	120262	4480479	IT0005104622	2015/04/02	30360	AA			CORR	
RCONV	I	2016/01/23	2016/01/25	120263	4685872	XS1348975035	2016/01/22	A360	AA	ICMA	ICMA	CORR	
RCONV	I	2016/01/23	2016/01/25	120264	4685025	XS1347734565	2016/01/23	30E/360	AA	ICMA	ICMA	CORR	
RCONV	I	2016/01/23	2016/01/25	120265	4472356	XS1208576659	2015/04/02	A365	AA		ISDA	CORR	
RCONV	I	2016/01/23	2016/01/25	120266	4668315	XS1336302796	2015/12/19	A360	AA			CORR	
RCONV	I	2016/01/23	2016/01/25	120267	4676673	XS1313808369	2016/01/22	30E/360	30360			CORR	
RCONV	I	2016/01/23	2016/01/25	120268	4683455	XS1346104687	2016/01/22	30E/360	A360			CORR	
RCONV	I	2016/01/25	2016/01/25	120269	4665048	XS1279286493	2015/12/24	A360				CORR	
RCONV	I	2016/01/25	2016/01/25	120270	4646474	XS1321408392	2015/12/03	30E/360	30360			CORR	
RCONV	I	2016/01/25	2016/01/25	120271	4669566	DE000DB9ZGS0	2011/07/13	A360	30360			CORR	
RCONV	I	2016/01/25	2016/01/25	120272	4685138	XS1347758663	2016/01/23	30E/360	AA	ICMA	ICMA	CORR	
RCONV	I	2016/01/25	2016/01/25	120273	4682120	XS1289154947	2016/01/22	30E/360				CORR	
RCONV	I	2016/01/25	2016/01/25	120274	2485493	IT0004687502	2011/03/01	AA				CORR	
RCONV	I	2016/01/25	2016/01/25	120275	4683346	XS1289157452	2016/01/22	A365				CORR	
RCONV	I	2016/01/25	2016/01/25	120276	4671340	XS1280018323	2016/01/16	30E/360				CORR	
RCONV	I	2016/01/25	2016/01/25	120277	4682138	XS1289159409	2016/01/22	30E/360				CORR	
RCONV	I	2016/01/25	2016/01/25	120278	4659924	XS1332008439	2016/01/16	A365				CORR	
RCONV	I	2016/01/25	2016/01/25	120279	4674532	XS1340146361	2016/01/12	30E/360	A365			CORR	
RCONV	I	2016/01/25	2016/01/25	120282	4686990	XS1349338795	2016/01/21	30E/360	A365			CORR	
RCONV	I	2016/01/25	2016/01/25	120285	4684427	XS1344520561	2016/01/16	30E/360	30360			CORR	
RCONV	I	2016/01/26	2016/01/26	120286	4682430	XS1345396821	2016/01/23	A360	AA			CORR	
RCONV	I	2016/01/26	2016/01/26	120287	4690206	XS1352072091	2016/01/25	30E/360	AA	ICMA	ICMA	CORR	
RCONV	I	2016/01/26	2016/01/26	120288	2746421	XS0635462913	2011/06/21	A360	30360			CORR	
RCONV	I	2016/01/26	2016/01/26	120289	4691734	XS1353633750	2016/01/25	A365	AA		ICMA	CORR	
RCONV	I	2016/01/26	2016/01/26	120292	4226566	XS1048460684	2014/03/26	A360	30360			CORR	
RCONV	I	2016/01/26	2016/01/26	120294	4661559	DE000WLB6Z65	2012/03/06	AA	30360			CORR	
RCONV	I	2016/01/26	2016/01/26	120295	4661559	DE000WLB6Z65	2013/03/07	30360	A360			RCONV	
RCONV	I	2016/01/26	2016/01/26	120296	4676849	XS1341083555	2016/01/25	30E/360	AA		ICMA	CORR	
RCONV	I	2016/01/26	2016/01/26	120297	4680759	XS1267279765	2016/01/13	30E/360	30360			CORR	
RCONV	I	2016/01/26	2016/01/26	120298	4572338	XS1269289713	2015/08/07	A360	30360			CORR	
RCONV	I	2016/01/26	2016/01/26	120299	4676851	XS1341083639	2016/01/25	30E/360	AA		ICMA	CORR	
RCONV	I	2016/01/26	2016/01/26	120300	4692131	XS1353555003	2016/01/25	30E/360	AA		ICMA	CORR	
RCONV	I	2016/01/26	2016/01/26	120301	3149445	IT0004763063	2011/10/02	AA	30360			CORR	
RCONV	I	2016/01/26	2016/01/26	120302	4661566	DE000WLB6ZJ1	2012/02/07	AA	30360			CORR	
RCONV	I	2016/01/26	2016/01/26	120303	4661566	DE000WLB6ZJ1	2013/02/08	30360	A360			RCONV	
RCONV	I	2016/01/26	2016/01/26	120304	4025519	IT0004906373	2013/04/20	AA	A365			CORR	
RCONV	I	2016/01/26	2016/01/26	120305	4684920	XS1347434927	2016/01/21	30E/360	30360			CORR	
RCONV	I	2016/01/26	2016/01/26	120306	4688909	XS1289146257	2016/01/23	30E/360	30360			CORR	
RCONV	I	2016/01/26	2016/01/26	120307	4683401	XS1289645845	2016/01/26	A360	30E/360			CORR	
RCONV	I	2016/01/26	2016/01/26	120308	4683402	XS1289646140	2016/01/26	A360	30E/360			CORR	
RCONV	I	2016/01/26	2016/01/26	120309	4688150	XS1330185221	2016/01/26	30E/360	A360			CORR	
RCONV	I	2016/01/26	2016/01/26	120310	4554954	XS1257180197	2015/07/15	30E/360	30360			CORR	
RCONV	I	2016/01/26	2016/01/26	120311	4680459	XS1237760381	2016/01/20	A360	30E/360			CORR	
RCONV	I	2016/01/26	2016/01/26	120312	4673866	XS1339542364	2015/12/30	30E/360	30360			CORR	
RCONV	I	2016/01/26	2016/01/26	120313	4683358	XS1289162452	2016/01/26	A360	30E/360			CORR	
RCONV	I	2016/01/26	2016/01/26	120314	4380656	US025816BJ74	2019/11/15	30360	A360			RCONV	
RCONV	I	2016/01/26	2016/01/26	120315	4682304	XS1344942047	2016/01/15	30E/360	30360			CORR	
RCONV	I	2016/01/26	2016/01/26	120316	4689007	XS1351131070	2016/01/20	30E/360	A360			CORR	
RCONV	I	2016/01/26	2016/01/26	120317	4690211	XS1352120163	2016/01/21	30E/360	A360			CORR	
RCONV	I	2016/01/26	2016/01/26	120318	4621558	XS1306323350	2015/12/01	30E/360	30360			CORR	
RCONV	I	2016/01/26	2016/01/26	120319	4684714	US654579AE17	2016/01/21	30E/360	30360			CORR	
RCONV	I	2016/01/26	2016/01/26	120320	4685544	USJ54675AC78	2016/01/21	30E/360	30360			CORR	
RCONV	I	2016/01/26	2016/01/26	120321	4660657	XS1322034403	2016/01/08	A360	30360			CORR	
RCONV	U	2007/05/23	2016/01/27	6327	552117	XS0260924344	2006/08/26	A360				CORR	
RCONV	I	2016/01/27	2016/01/27	120322	4686557	XS1267284849	2016/01/26	A365				CORR	
RCONV	I	2016/01/27	2016/01/27	120323	4689651	XS1339070689	2016/01/27	30E/360	30360			CORR	
RCONV	I	2016/01/27	2016/01/27	120324	4690497	XS1345635830	2016/01/26	30E/360	30360			CORR	
RCONV	I	2016/01/27	2016/01/27	120325	4681078	XS1344632010	2016/01/21	A360	30360			CORR	
RCONV	I	2016/01/27	2016/01/27	120326	4684196	XS1346827014	2016/01/27	30E/360	A360			CORR	
RCONV	I	2016/01/27	2016/01/27	120328	4686486	XS1348965580	2016/01/26	30E/360	30360			CORR	
RCONV	I	2016/01/27	2016/01/27	120329	4686090	XS1348774305	2016/01/21	30E/360	AA			CORR	
RCONV	I	2016/01/27	2016/01/27	120330	4622938	XS1222894864	2015/11/05	A360	30360			CORR	
RCONV	I	2016/01/27	2016/01/27	120331	4627753	XS1222897024	2015/11/06	A360	30360			CORR	
RCONV	I	2016/01/27	2016/01/27	120332	4574313	XS1271860733	2015/08/14	30E/360	30360			CORR	
RCONV	I	2016/01/27	2016/01/27	120333	4574847	XS1272322295	2015/08/15	A360	30360			CORR	
RCONV	I	2016/01/27	2016/01/27	120334	4682153	XS1289163427	2016/01/23	30E/360	30360			CORR	
RCONV	I	2016/01/27	2016/01/27	120335	4687910	XS1289630227	2016/01/20	A360	30360			CORR	
RCONV	I	2016/01/27	2016/01/27	120336	4689391	XS1351130775	2016/01/27	30E/360	A365			CORR	
RCONV	I	2016/01/27	2016/01/27	120338	4511163	XS1233604518	2015/05/22	A365				CORR	
RCONV	I	2016/01/27	2016/01/27	120339	3971359	XS0882233652	2013/02/07	30E/360	30360			CORR	
RCONV	I	2016/01/27	2016/01/27	120340	4441067	XS1188127358	2015/02/14	30E/360	A365			CORR	
RCONV	I	2016/01/27	2016/01/27	120341	4631957	XS1222898857	2015/11/06	A360	30360			CORR	
RCONV	I	2016/01/27	2016/01/27	120342	4680732	IT0005158677	2016/01/26	30360	30E/360	ICMA	ICMA	CORR	
RCONV	I	2016/01/27	2016/01/27	120343	4661545	DE000WLB6Y58	2012/01/10	AA	30360			CORR	
RCONV	I	2016/01/27	2016/01/27	120345	4686100	XS1302421380	2016/01/21	30E/360	30360			CORR	
RCONV	I	2016/01/27	2016/01/27	120346	4657417	XS1329465667	2015/12/18	30E/360	30360			CORR	
RCONV	I	2016/01/27	2016/01/27	120347	4662632	XS1332588091	2015/12/19	30E/360	30360			CORR	
RCONV	I	2016/01/27	2016/01/27	120348	4692011	XS1330968840	2016/01/26	A360	30E/360			CORR	
RCONV	I	2016/01/27	2016/01/27	120349	4538194	AU3CB0217826	2014/01/16	30E/360	AA	ICMA	ICMA	CORR	
RCONV	I	2016/01/27	2016/01/27	120350	4693754	XS1293155807	2016/01/27	30E/360	A360			CORR	
RCONV	I	2016/01/27	2016/01/27	120351	4694072	XS1354473404	2016/01/22	30E/360	30360			CORR	
RCONV	I	2016/01/27	2016/01/27	120352	4685132	XS1347753193	2016/01/15	30E/360	A360			CORR	
RCONV	I	2016/01/27	2016/01/27	120353	4686980	XS1349324142	2016/01/16	A360	30E/360			CORR	
RCONV	I	2016/01/27	2016/01/27	120354	4686983	XS1349325206	2016/01/16	A360	30E/360			CORR	
RCONV	I	2016/01/27	2016/01/27	120355	4688474	XS1349978855	2016/01/20	A360	30E/360			CORR	
RCONV	I	2016/01/27	2016/01/27	120356	4682136	XS1289648435	2016/01/22	A360	30360			CORR	
RCONV	I	2016/01/27	2016/01/27	120357	4687993	XS1293144785	2016/01/26	30E/360	A360			CORR	
RCONV	I	2016/01/27	2016/01/27	120358	4680920	XS1293130727	2016/01/21	A360				CORR	
RCONV	I	2016/01/27	2016/01/27	120359	4688009	XS1293144868	2016/01/26	30E/360	A360			CORR	
RCONV	I	2016/01/27	2016/01/27	120360	4687999	XS1293144942	2016/01/26	30E/360	A360			CORR	
RCONV	I	2016/01/27	2016/01/27	120361	4679037	XS1266593851	2016/01/26	A360	30360			CORR	
RCONV	I	2016/01/27	2016/01/27	120362	4634123	XS1313878735	2015/11/19	30E/360	30360			CORR	
RCONV	I	2016/01/27	2016/01/27	120363	4049109	CH0205276790	2013/06/06	30360	30E/360			CORR	
RCONV	I	2016/01/27	2016/01/27	120364	4681317	XS1334119416	2016/01/21	30E/360	A360			CORR	
RCONV	I	2016/01/27	2016/01/27	120365	4689014	XS1350941966	2016/01/27	30E/360	A360			CORR	
RCONV	I	2016/01/27	2016/01/27	120366	4690306	XS1352126871	2016/01/27	30E/360	A360			CORR	
RCONV	I	2016/01/27	2016/01/27	120367	4532277	DE000CR2KTT1	2015/04/10	AA	A365			CORR	
RCONV	I	2016/01/27	2016/01/27	120368	4681425	XS1344737033	2016/01/27	30E/360	30360			CORR	
RCONV	I	2016/01/27	2016/01/27	120369	4684331	XS1346655480	2016/01/13	A360	30E/360			CORR	
RCONV	I	2016/01/28	2016/01/28	120370	4253628	AU3SG0001266	2013/11/20	AA	A365			CORR	
RCONV	I	2016/01/28	2016/01/28	120371	2765644	IT0004723497	2011/05/28	AA	A360			CORR	
RCONV	I	2016/01/28	2016/01/28	120372	4687026	XS1349550589	2016/01/28	30E/360	30360			CORR	
RCONV	I	2016/01/28	2016/01/28	120373	4690210	XS1351716896	2016/01/27	30E/360	30360	ICMA	ICMA	CORR	
RCONV	I	2016/01/28	2016/01/28	120374	4694022	XS1354342302	2016/01/27	30E/360	AA		ICMA	CORR	
RCONV	I	2016/01/28	2016/01/28	120375	4671743	DE000HSH4Z94	2015/07/16	AA	A360	ICMA		CORR	
RCONV	I	2016/01/28	2016/01/28	120376	4690130	XS1352122375	2016/01/27	30E/360	AA	ICMA	ICMA	CORR	
RCONV	I	2016/01/28	2016/01/28	120378	4664008	DE000HSH5WE7	2015/11/05	30360	A360			CORR	
RCONV	I	2016/01/28	2016/01/28	120379	4542008	XS0890096778	2015/06/24	30E/360	30360			CORR	
RCONV	I	2016/01/28	2016/01/28	120380	4621288	XS1222894195	2015/10/29	A360	30360			CORR	
RCONV	I	2016/01/28	2016/01/28	120381	4687058	XS1308293254	2016/01/23	30E/360	30360			CORR	
RCONV	I	2016/01/28	2016/01/28	120382	4689706	XS1212524570	2016/01/27	A360	30360			CORR	
RCONV	I	2016/01/28	2016/01/28	120383	4150872	XS0899640329	2013/11/28	30E/360	30360			CORR	
RCONV	I	2016/01/28	2016/01/28	120384	4695381	CA064151GV93	2016/01/28	A365				CORR	
RCONV	I	2016/01/28	2016/01/28	120386	4685742	XS1289628247	2016/01/27	A360	30360			CORR	
RCONV	I	2016/01/28	2016/01/28	120388	4673414	XS1280016111	2016/01/19	30E/360	30360			CORR	
RCONV	I	2016/01/28	2016/01/28	120390	3512923	XS0743599143	2012/03/01	30E/360	30360			CORR	
RCONV	I	2016/01/28	2016/01/28	120391	4502906	XS1135627906	2015/05/09	A365	AA			CORR	
RCONV	I	2016/01/28	2016/01/28	120392	4641653	XS1315763075	2015/12/01	30E/360	30360			CORR	
RCONV	I	2016/01/28	2016/01/28	120393	4445639	XS1191013447	2015/02/18	A365	AA			CORR	
RCONV	I	2016/01/28	2016/01/28	120394	4445880	XS1191014411	2015/02/18	A365	AA			CORR	
RCONV	I	2016/01/28	2016/01/28	120395	4446351	XS1191507448	2015/02/18	30E/360	A360			CORR	
RCONV	I	2016/01/28	2016/01/28	120396	4684968	XS1347566595	2016/01/27	A360	30360			CORR	
RCONV	I	2016/01/28	2016/01/28	120397	4645562	XS1321012210	2015/12/18	A360	A365			CORR	
RCONV	I	2016/01/28	2016/01/28	120398	4686559	XS1267290739	2016/01/26	30E/360	30360			CORR	
RCONV	I	2016/01/28	2016/01/28	120399	4686531	XS1349020948	2016/01/28	30E/360	A360			CORR	
RCONV	I	2016/01/28	2016/01/28	120400	4689394	XS1351037640	2016/01/27	30E/360	30360			CORR	
RCONV	I	2016/01/29	2016/01/29	120403	4688389	XS1350139439	2016/01/29	30E/360	AA	ICMA	ICMA	CORR	
RCONV	I	2016/01/29	2016/01/29	120404	4646313	XS1279283128	2015/11/21	A360				CORR	
RCONV	I	2016/01/29	2016/01/29	120405	4691269	XS1353059790	2016/01/28	30E/360	A365			CORR	
RCONV	I	2016/01/29	2016/01/29	120406	4694009	XS1354313113	2016/01/29	30E/360	AA		ICMA	CORR	
RCONV	I	2016/01/29	2016/01/29	120407	4696512	XS1334231096	2016/01/29	A360	30360			CORR	
RCONV	I	2016/01/29	2016/01/29	120408	4691576	XS1351942633	2016/01/29	30E/360	30360			CORR	
RCONV	I	2016/01/29	2016/01/29	120409	4425153	XS1144019194	2016/01/27	A360	30360			CORR	
RCONV	I	2016/01/29	2016/01/29	120410	4666739	XS1334247845	2015/12/24	A360	30360			CORR	
RCONV	I	2016/01/29	2016/01/29	120411	4695171	XS1355183010	2016/01/29	30E/360	AA			CORR	
RCONV	I	2016/01/29	2016/01/29	120412	4689917	XS1289614296	2016/01/27	A360	30360			CORR	
RCONV	I	2016/01/29	2016/01/29	120413	4677429	XS1289913953	2016/01/28	A360	30360			CORR	
RCONV	I	2016/01/29	2016/01/29	120414	4369728	XS1123033166	2014/11/07	30E/360	30360			CORR	
RCONV	I	2016/01/29	2016/01/29	120415	1461365	NZGOVD0521C2	2009/05/13	30E/360	AA		ICMA	CORR	
RCONV	I	2016/01/29	2016/01/29	120416	4689049	XS1350853831	2016/01/21	30E/360	AA		ICMA	CORR	
RCONV	I	2016/01/29	2016/01/29	120417	4646413	XS1222901669	2015/11/19	A360	30360			CORR	
RCONV	I	2016/01/29	2016/01/29	120418	4688070	XS1293147028	2016/01/28	30E/360	A360			CORR	
RCONV	I	2016/01/29	2016/01/29	120419	4688130	XS1302420739	2016/01/27	30E/360	30360			CORR	
RCONV	I	2016/01/29	2016/01/29	120420	4680289	XS1313391788	2016/01/28	30E/360	30360			CORR	
RCONV	I	2016/01/29	2016/01/29	120422	4686630	XS1349008653	2016/01/23	30E/360	30360			CORR	
RCONV	I	2016/01/29	2016/01/29	120423	4686887	XS1349371499	2016/01/28	A360	30E/360			CORR	
RCONV	I	2016/01/29	2016/01/29	120424	4662453	XS1332208955	2015/12/17	30E/360	30360			CORR	
RCONV	I	2016/01/29	2016/01/29	120425	4688075	XS1293147291	2016/01/20	30E/360	A360			CORR	
RCONV	I	2016/01/29	2016/01/29	120426	4688083	XS1293147374	2016/01/20	30E/360	A360			CORR	
RCONV	I	2016/01/29	2016/01/29	120427	4688089	XS1293147705	2016/01/20	30E/360	A360			CORR	
RCONV	I	2016/01/29	2016/01/29	120428	4688097	XS1293147960	2016/01/20	30E/360	A360			CORR	
RCONV	I	2016/01/29	2016/01/29	120429	4688119	XS1293149669	2016/01/20	30E/360	A360			CORR	
RCONV	I	2016/01/29	2016/01/29	120430	4688123	XS1293149743	2016/01/20	30E/360	A360			CORR	
RCONV	I	2016/01/29	2016/01/29	120431	4694619	XS1353176248	2016/01/28	A360	30E/360			CORR	
RCONV	I	2016/01/29	2016/01/29	120432	4686652	XS1289166107	2016/01/24	30E/360	30360			CORR	
RCONV	I	2016/01/29	2016/01/29	120434	4687809	XS1289166529	2016/01/24	30E/360	30360			CORR	
RCONV	I	2016/01/29	2016/01/29	120435	4689830	XS1289141530	2016/01/28	A360	30E/360			CORR	
RCONV	I	2016/01/29	2016/01/29	120436	4695635	XS1292842421	2016/01/29	30E/360	A360			CORR	
RCONV	I	2016/01/29	2016/01/29	120437	4685008	XS1347701127	2016/01/28	30E/360	30360			CORR	
RCONV	I	2016/01/29	2016/01/29	120438	4686508	XS1348934867	2016/01/25	30E/360	A360			CORR	
RCONV	I	2016/01/29	2016/01/29	120439	4680654	XS1344214959	2016/01/20	30E/360	A360			CORR	
RCONV	I	2016/01/29	2016/01/29	120440	4691294	XS1353178889	2016/01/28	30E/360	30360			CORR	
RCONV	I	2016/01/29	2016/01/29	120441	4691282	XS1353166108	2016/01/29	30E/360	30360			CORR	
RCONV	I	2016/01/29	2016/01/29	120442	4680011	XS1344751968	2016/01/15	30E/360	AA		ICMA	CORR	
RCONV	I	2016/02/01	2016/02/01	120443	4681484	ARARGE320168	2015/12/31	30360	A360			CORR	
RCONV	I	2016/02/01	2016/02/01	120444	4681474	ARARGE320176	2015/12/31	30360	A360			CORR	
RCONV	I	2016/02/01	2016/02/01	120445	4681480	ARARGE320184	2015/12/31	30360	A360			CORR	
RCONV	I	2016/02/01	2016/02/01	120446	4689025	XS1351141541	2016/01/29	30E/360	30360			CORR	
RCONV	I	2016/02/01	2016/02/01	120447	4697487	CA780086MC57	2018/02/02	AA	A365			RCONV	
RCONV	I	2016/02/01	2016/02/01	120448	4129807	XS0982989831	2013/10/22	A365	AA		ICMA	CORR	
RCONV	I	2016/02/01	2016/02/01	120450	4558526	AT0000A1ERP2	2016/01/16	A360	AA	ICMA	ICMA	CORR	
RCONV	I	2016/02/01	2016/02/01	120452	4631960	XS1222898931	2015/11/12	A360	30360			CORR	
RCONV	I	2016/02/01	2016/02/01	120453	4688720	XS1267292354	2016/01/28	30E/360	30360			CORR	
RCONV	I	2016/02/01	2016/02/01	120454	3965965	XS0877985340	2013/02/15	30E/360	30360			CORR	
RCONV	I	2016/02/01	2016/02/01	120455	4692317	XS1353956177	2016/01/30	30E/360	A360			CORR	
RCONV	I	2016/02/01	2016/02/01	120456	4680820	XS1279275298	2016/01/29	30E/360	30360			CORR	
RCONV	I	2016/02/01	2016/02/01	120458	4691259	XS1352986381	2016/01/30	30E/360	AA	ICMA	ICMA	CORR	
RCONV	I	2016/02/01	2016/02/01	120459	4694055	XS1354465566	2016/01/26	30E/360	AA	ICMA	ICMA	CORR	
RCONV	I	2016/02/02	2016/02/02	120460	4497735		2015/04/29	AA	A365			CORR	
RCONV	I	2016/02/02	2016/02/02	120461	2965999	IT0004753528	2011/08/11	AA	30360			CORR	
RCONV	I	2016/02/02	2016/02/02	120462	4692313	XS1353819003	2016/01/24	30E/360	30360			CORR	
RCONV	I	2016/02/02	2016/02/02	120464	4674513	XS1340149381	2016/01/23	A360	30360			CORR	
RCONV	I	2016/02/02	2016/02/02	120465	4694525	XS1279276346	2016/01/30	30E/360	30360			CORR	
RCONV	I	2016/02/02	2016/02/02	120466	4692157	XS1353623959	2016/01/30	30E/360	AA	ICMA	ICMA	CORR	
RCONV	I	2016/02/02	2016/02/02	120467	4512081	XS1233575239	2015/05/23	30E/360	30360			CORR	
RCONV	I	2016/02/02	2016/02/02	120468	4687819	XS1289422112	2016/02/02	A360	30E/360			CORR	
RCONV	I	2016/02/02	2016/02/02	120469	4693616	XS1353957571	2016/01/30	AA	A360	ICMA	ICMA	CORR	
RCONV	I	2016/02/02	2016/02/02	120470	4671677	XS1327503782	2016/01/23	30E/360	AA			CORR	
RCONV	I	2016/02/02	2016/02/02	120471	4671682	XS1327531304	2016/01/23	30E/360	AA			CORR	
RCONV	I	2016/02/02	2016/02/02	120472	4671688	XS1327539620	2016/01/23	A365	AA			CORR	
RCONV	I	2016/02/02	2016/02/02	120473	4692316	XS1353893313	2016/02/02	30E/360	AA	ICMA	ICMA	CORR	
RCONV	I	2016/02/02	2016/02/02	120476	4674531	XS1279274309	2016/01/29	30E/360	30360			CORR	
RCONV	I	2016/02/02	2016/02/02	120477	4687805	XS1279275611	2016/01/30	A360	30E/360			CORR	
RCONV	I	2016/02/02	2016/02/02	120480	4644188	US50065RAD98	2015/11/20	30E/360	30360			CORR	
RCONV	I	2016/02/02	2016/02/02	120481	4680982	XS1338981829	2016/01/30	30E/360	A360			CORR	
RCONV	I	2016/02/02	2016/02/02	120484	4655035	XS1321568245	2015/11/24	A360	30360			CORR	
RCONV	I	2016/02/02	2016/02/02	120485	4193465	IT0004981467	2014/02/01	30360	AA			CORR	
RCONV	I	2016/02/02	2016/02/02	120486	4692393	XS1353627786	2016/02/02	30E/360	30360			CORR	
RCONV	I	2016/02/02	2016/02/02	120487	4652100	XS1326469969	2015/11/28	30E/360	30360			CORR	
RCONV	I	2016/02/02	2016/02/02	120488	4695737	XS1308291555	2016/02/02	30E/360	AA		ICMA	CORR	
RCONV	I	2016/02/02	2016/02/02	120489	4607588	XS1293418239	2015/10/02	30E/360	30360			CORR	
RCONV	I	2016/02/02	2016/02/02	120490	4688724	XS1267294137	2016/01/28	30E/360	30360			CORR	
RCONV	I	2016/02/03	2016/02/03	120491	4689028	XS1351142275	2016/02/02	30E/360	A360			CORR	
RCONV	I	2016/02/03	2016/02/03	120492	4620385	XS1303925470	2015/11/13	30E/360	AA		ICMA	CORR	
RCONV	I	2016/02/03	2016/02/03	120493	4683778	XS1289165711	2016/01/27	30E/360	30360			CORR	
RCONV	I	2016/02/03	2016/02/03	120494	4644159	USY4841KYV97	2015/11/20	30E/360	30360			CORR	
RCONV	I	2016/02/03	2016/02/03	120495	4037885	XS0933097668	2013/05/22	30E/360	30360			CORR	
RCONV	I	2016/02/03	2016/02/03	120496	4688718	XS1267290572	2016/01/26	30E/360	30360			CORR	
RCONV	I	2016/02/03	2016/02/03	120498	4300036	XS1084811964	2014/07/11	AA	A365	ISDA	ISDA	CORR	
RCONV	I	2016/02/03	2016/02/03	120499	4656985	USY20721BP35	2015/12/09	30E/360	30360			CORR	
RCONV	I	2016/02/03	2016/02/03	120501	4689018	XS1351141038	2016/02/03	30E/360	AA	ICMA	ICMA	CORR	
RCONV	I	2016/02/04	2016/02/04	120502	4682424	XS1345632498	2016/01/26	A365				CORR	
RCONV	I	2016/02/04	2016/02/04	120503	4682370	XS1345326026	2016/01/26	A365				CORR	
RCONV	I	2016/02/04	2016/02/04	120504	4682409	XS1345633546	2016/01/26	A365				CORR	
RCONV	I	2016/02/04	2016/02/04	120505	4682378	XS1345465220	2016/01/26	A365				CORR	
RCONV	I	2016/02/04	2016/02/04	120506	4675540	XS1335155930	2016/01/30	30E/360	A360			CORR	
RCONV	I	2016/02/04	2016/02/04	120507	4682388	XS1345523523	2016/01/26	A365				CORR	
RCONV	I	2016/02/04	2016/02/04	120508	4673821	XS1339422203	2016/01/30	A360	30360			CORR	
RCONV	I	2016/02/04	2016/02/04	120509	4691302	XS1353200485	2016/01/29	30E/360				CORR	
RCONV	I	2016/02/04	2016/02/04	120510	4684173	XS1346773762	2016/01/27	A360	30360			CORR	
RCONV	I	2016/02/04	2016/02/04	120511	4691067	XS1352916412	2016/02/04	30E/360	A360			CORR	
RCONV	I	2016/02/04	2016/02/04	120512	4682208	DE000A161VP4	2016/01/13	30360	A360			CORR	
RCONV	I	2016/02/04	2016/02/04	120513	4682214	DE000A161VQ2	2016/01/13	30360	A360			CORR	
RCONV	I	2016/02/04	2016/02/04	120514	4684576	AT000B066196	2016/03/11	AA	A360			RCONV	
RCONV	I	2016/02/04	2016/02/04	120515	4686885	XS1349546041	2016/02/02	A365				CORR	
RCONV	I	2016/02/04	2016/02/04	120517	4694308	XS1354389527	2016/02/02	30E/360	30360			CORR	
RCONV	I	2016/02/04	2016/02/04	120518	4694078	XS1354476175	2016/02/03	A360	AA	ICMA	ICMA	CORR	
RCONV	I	2016/02/04	2016/02/04	120519	4631333	XS0461368614	2015/10/31	A360	30360			CORR	
RCONV	I	2016/02/04	2016/02/04	120520	4681207	XS1279275371	2016/02/02	30E/360	30360			CORR	
RCONV	I	2016/02/04	2016/02/04	120521	4681415	XS1344905515	2016/01/23	A365				CORR	
RCONV	I	2016/02/04	2016/02/04	120522	4690835	XS1279291063	2016/02/03	A360	30360			CORR	
RCONV	I	2016/02/04	2016/02/04	120523	2473223	XS0599035192	2011/03/05	A360	30360			CORR	
RCONV	I	2016/02/04	2016/02/04	120524	4442999	XS1189793976	2015/02/13	A360	30360			CORR	
RCONV	I	2016/02/04	2016/02/04	120525	4646416	XS1222901826	2015/11/17	A360	30360			CORR	
RCONV	I	2016/02/04	2016/02/04	120526	4681450	XS1344787996	2016/01/23	30E/360				CORR	
RCONV	I	2016/02/04	2016/02/04	120527	4695850	XS1346532051	2016/02/02	30E/360	30360			CORR	
RCONV	I	2016/02/04	2016/02/04	120528	4691894	XS1353469007	2016/02/02	30E/360	30360			CORR	
RCONV	I	2016/02/04	2016/02/04	120529	4627733	XS1308301024	2015/10/20	30E/360	30360			CORR	
RCONV	I	2016/02/04	2016/02/04	120530	4641739	XS1310975906	2015/12/02	30E/360	A360			CORR	
RCONV	I	2016/02/04	2016/02/04	120531	4629733	XS1311444159	2015/11/10	A360	30360			CORR	
RCONV	I	2016/02/04	2016/02/04	120532	4626347	XS1308300059	2015/10/20	30E/360	30360			CORR	
RCONV	I	2016/02/04	2016/02/04	120533	4630990	XS1312225649	2015/11/10	A360	30360			CORR	
RCONV	I	2016/02/04	2016/02/04	120534	4632126	XS1313645639	2015/11/10	A360	30360			CORR	
RCONV	I	2016/02/04	2016/02/04	120535	4131744	XS0987101598	2014/10/31	30E/360	30360			CORR	
RCONV	I	2016/02/04	2016/02/04	120536	4664731	XS1333140249	2015/12/12	30E/360	A360			CORR	
RCONV	I	2016/02/04	2016/02/04	120537	4690087	XS1351385684	2016/02/01	30E/360				CORR	
RCONV	I	2016/02/04	2016/02/04	120538	4671709	XS1337711581	2015/12/24	30E/360	A360			CORR	
RCONV	I	2016/02/04	2016/02/04	120539	4671715	XS1337711821	2015/12/24	30E/360	A360			CORR	
RCONV	I	2016/02/04	2016/02/04	120540	4695928	XS1356690245	2016/02/03	A360	30360			CORR	
RCONV	I	2016/02/04	2016/02/04	120541	4664298	XS1334770473	2016/01/08	30E/360	A360			CORR	
RCONV	I	2016/02/04	2016/02/04	120542	4689006	XS1351139727	2016/01/21	30E/360	A360			CORR	
RCONV	I	2016/02/05	2016/02/05	120544	4697366	CA63308ZKE83	2016/02/03	A365				CORR	
RCONV	I	2016/02/05	2016/02/05	120545	640408	XS0312723942	2016/02/03	30360	A360			CORR	
RCONV	I	2016/02/05	2016/02/05	120546	4695182	XS1355498517	2016/02/03	30E/360	AA	ICMA	ICMA	CORR	
RCONV	I	2016/02/05	2016/02/05	120547	4576524	XS1222845650	2015/08/25	30E/360	30360			CORR	
RCONV	I	2016/02/05	2016/02/05	120548	4640868	XS1222902394	2015/11/25	30E/360	30360			CORR	
RCONV	I	2016/02/05	2016/02/05	120549	4690659	XS1236584188	2016/01/29	A360	A365			CORR	
RCONV	I	2016/02/05	2016/02/05	120551	4656820	XS1266616900	2015/12/02	A360	30360			CORR	
RCONV	I	2016/02/05	2016/02/05	120552	4567902	XS1265973047	2016/02/03	AA	30360			CORR	
RCONV	I	2016/02/05	2016/02/05	120553	4567919	XS1265973393	2016/02/03	30E/360	30360			CORR	
RCONV	I	2016/02/05	2016/02/05	120554	4444506	XS1162551383	2015/02/25	A360	30360			CORR	
RCONV	I	2016/02/05	2016/02/05	120555	4041039	IT0004909245	2013/05/18	AA	A365			CORR	
RCONV	I	2016/02/05	2016/02/05	120556	4684917	XS1289624766	2016/01/29	A360	30360			CORR	
RCONV	I	2016/02/05	2016/02/05	120557	4662521	XS1332333696	2015/12/09	30E/360	A365			CORR	
RCONV	I	2016/02/05	2016/02/05	120558	4691283	XS1353150441	2016/01/24	A360				CORR	
RCONV	I	2016/02/05	2016/02/05	120559	4687868	XS1289618362	2016/01/20	A360				CORR	
RCONV	I	2016/02/05	2016/02/05	120560	4680465	XS1342575393	2016/02/02	30E/360	A360			CORR	
RCONV	I	2016/02/05	2016/02/05	120561	4687832	XS1289612670	2016/01/29	A360	30360			CORR	
RCONV	I	2016/02/05	2016/02/05	120562	4688411	XS1350418403	2016/02/02	30E/360	A360			CORR	
RCONV	I	2016/02/05	2016/02/05	120565	4690138	XS1352124587	2016/02/04	30E/360	A360			CORR	
RCONV	I	2016/02/05	2016/02/05	120566	4691274	XS1353125922	2016/02/05	30E/360	A360			CORR	
RCONV	I	2016/02/05	2016/02/05	120567	4674555	XS1334772503	2016/01/29	30E/360	30360			CORR	
RCONV	I	2016/02/05	2016/02/05	120568	4688976	XS1289618016	2016/02/03	A360	30E/360			CORR	
RCONV	I	2016/02/05	2016/02/05	120569	4697188	XS1358041009	2016/02/03	30E/360	AA		ICMA	CORR	
RCONV	I	2016/02/05	2016/02/05	120571	4181139	DE000LB0VPF6	2014/01/14	AA	30360			CORR	
RCONV	I	2016/02/05	2016/02/05	120572	4692391	XS1353473371	2016/01/29	30E/360	30360			CORR	
RCONV	I	2016/02/05	2016/02/05	120573	4655429	XS1327117633	2015/12/05	30E/360	A360			CORR	
RCONV	I	2016/02/05	2016/02/05	120574	3850168	XS0786617042	2012/05/31	30E/360	30360			CORR	
RCONV	I	2016/02/05	2016/02/05	120575	4613880	XS1299700226	2015/11/07	A360	AA		ICMA	CORR	
RCONV	I	2016/02/05	2016/02/05	120576	4686851	XS1349322369	2016/02/02	A360	30E/360			CORR	
RCONV	I	2016/02/05	2016/02/05	120577	4697452	US500498AD29	2016/02/04	30E/360	30360			CORR	
RCONV	I	2016/02/05	2016/02/05	120578	4697450	USY2350DAC03	2016/02/04	30E/360	30360			CORR	
RCONV	I	2016/02/05	2016/02/05	120579	4686709	XS1330969228	2016/01/23	30E/360	30360			CORR	
RCONV	I	2016/02/05	2016/02/05	120580	4441957	XS1167061560	2015/02/26	A360	30360			CORR	
RCONV	I	2016/02/06	2016/02/08	120581	4688474	XS1349978855	2016/01/28	30E/360	30360			CORR	
RCONV	I	2016/02/06	2016/02/08	120582	4701102	XS1362319284	2016/02/05	30E/360	AA		ICMA	CORR	
RCONV	I	2016/02/06	2016/02/08	120583	4329973	XS1102337877	2014/08/30	A360	30360			CORR	
RCONV	I	2016/02/06	2016/02/08	120584	4442564	XS1143852553	2015/02/19	A360	30360			CORR	
RCONV	I	2016/02/06	2016/02/08	120585	4700705	XS1212523689	2016/02/06	A360	30E/360			CORR	
RCONV	I	2016/02/06	2016/02/08	120586	4578413	XS1222848910	2015/08/26	30E/360	30360			CORR	
RCONV	I	2016/02/06	2016/02/08	120587	4678018	XS1144640668	2016/02/06	A360	30E/360			CORR	
RCONV	I	2016/02/06	2016/02/08	120588	4038764	XS0935309699	2013/05/18	A360	A364			CORR	
RCONV	I	2016/02/06	2016/02/08	120589	4690692	XS1267305941	2016/02/03	30E/360	30360			CORR	
RCONV	I	2016/02/06	2016/02/08	120590	4581082	XS1277611676	2015/08/25	A360	30360			CORR	
RCONV	I	2016/02/06	2016/02/08	120591	4492958	XS1222743731	2015/04/29	30E/360	AA			CORR	
RCONV	I	2016/02/06	2016/02/08	120592	4700696	XS1212522012	2016/02/06	A360	30E/360			CORR	
RCONV	I	2016/02/06	2016/02/08	120593	4527407	XS1242516489	2015/06/19	30E/360	AA			CORR	
RCONV	I	2016/02/06	2016/02/08	120594	4687767	XS1279289836	2016/01/29	A360	30360			CORR	
RCONV	I	2016/02/06	2016/02/08	120595	4612613	XS1297924695	2015/09/30	AA	A365	ISDA	ISDA	CORR	
RCONV	I	2016/02/06	2016/02/08	120596	4646465	XS1321406693	2015/11/21	30E/360	A360			CORR	
RCONV	I	2016/02/06	2016/02/08	120597	4633322	XS1313787852	2015/11/06	A360	30360			CORR	
RCONV	I	2016/02/06	2016/02/08	120598	4699119	XS1345632811	2016/02/05	30E/360	30360			CORR	
RCONV	I	2016/02/06	2016/02/08	120599	4694813	XS1292840995	2016/02/06	30E/360	A360			CORR	
RCONV	I	2016/02/06	2016/02/08	120600	4698465	XS1301513377	2016/02/05	30E/360	A360			CORR	
RCONV	I	2016/02/06	2016/02/08	120601	4694282	XS1308292876	2016/02/05	30E/360	A360			CORR	
RCONV	I	2016/02/06	2016/02/08	120602	4698400	US90015LAA52	2016/02/05	30E/360	30360			CORR	
RCONV	I	2016/02/06	2016/02/08	120603	4690867	XS1289135300	2016/02/04	30E/360				CORR	
RCONV	I	2016/02/06	2016/02/08	120604	4695962	XS1356742657	2016/02/05	30E/360	AA	ICMA	ICMA	CORR	
RCONV	I	2016/02/06	2016/02/08	120605	4687022	XS1349562246	2016/02/06	30E/360	A360			CORR	
RCONV	I	2016/02/06	2016/02/08	120606	4687028	XS1349566403	2016/02/06	30E/360	A360			CORR	
RCONV	I	2016/02/06	2016/02/08	120607	4681216	XS1279288861	2016/02/06	A360	30E/360			CORR	
RCONV	I	2016/02/06	2016/02/08	120608	4696639	XS1289171016	2016/01/30	30E/360	30360			CORR	
RCONV	I	2016/02/06	2016/02/08	120609	4690148	XS1351722431	2016/02/05	30E/360	A360			CORR	
RCONV	I	2016/02/06	2016/02/08	120610	4692314	XS1353892422	2016/02/06	30E/360	A360			CORR	
RCONV	I	2016/02/06	2016/02/08	120611	4460762	XS1200996806	2015/03/27	A360	30360			CORR	
RCONV	I	2016/02/06	2016/02/08	120612	4683763	XS1279292384	2016/01/23	A360	30360			CORR	
RCONV	I	2016/02/06	2016/02/08	120613	4686500	XS1348879310	2016/01/22	30E/360	30360			CORR	
RCONV	I	2016/02/06	2016/02/08	120614	4697117	INE101Q07334	2016/01/28	AA	A365			CORR	
RCONV	I	2016/02/06	2016/02/08	120615	4694804	XS1292841027	2016/02/06	30E/360	A360			CORR	
RCONV	I	2016/02/06	2016/02/08	120616	4694819	XS1292841373	2016/02/06	30E/360	A360			CORR	
RCONV	I	2016/02/06	2016/02/08	120617	4695760	XS1330970408	2016/02/06	A360	A365			CORR	
RCONV	I	2016/02/06	2016/02/08	120618	4687000	XS1349351202	2016/02/05	30E/360	A360			CORR	
RCONV	I	2016/02/06	2016/02/08	120619	4599346	XS1237067654	2015/09/23	A360	30360			CORR	
RCONV	I	2016/02/06	2016/02/08	120620	4700129	XS1035526216	2016/02/03	30E/360	30360			CORR	
RCONV	I	2016/02/06	2016/02/08	120621	4655405	XS1327061823	2016/02/02	A360	A365			CORR	
RCONV	I	2016/02/08	2016/02/08	120625	4578239	XS1274558300	2015/08/26	30E/360	30360			CORR	
RCONV	I	2016/02/08	2016/02/08	120626	4685709	XS1279304494	2016/01/30	30E/360	30360			CORR	
RCONV	I	2016/02/08	2016/02/08	120627	4441984	XS1189303719	2016/02/05	30E/360	30360			CORR	
RCONV	I	2016/02/08	2016/02/08	120628	4682328	XS1345557695	2016/01/23	30E/360	30360			CORR	
RCONV	I	2016/02/08	2016/02/08	120629	4651381	XS1323906229	2015/11/25	30E/360	A360			CORR	
RCONV	I	2016/02/08	2016/02/08	120630	4651388	XS1323907383	2015/11/25	30E/360	A360			CORR	
RCONV	I	2016/02/08	2016/02/08	120631	4701032	XS1338125476	2016/02/08	30E/360	A360			CORR	
RCONV	I	2016/02/08	2016/02/08	120632	4701632	XS1338127845	2016/02/07	30E/360	A360			CORR	
RCONV	I	2016/02/08	2016/02/08	120633	4679697	XS1341885884	2016/01/23	A360	30360			CORR	
RCONV	I	2016/02/08	2016/02/08	120634	4686619	XS1348858660	2016/01/22	30E/360	30360			CORR	
RCONV	I	2016/02/08	2016/02/08	120635	4552934	XS1255380708	2015/07/16	30E/360	30360			CORR	
RCONV	I	2016/02/08	2016/02/08	120636	4688822	XS1279290768	2016/02/02	A365	30360			CORR	
RCONV	I	2016/02/08	2016/02/08	120637	4691232	XS1352926213	2016/02/05	30E/360	30360			CORR	
RCONV	I	2016/02/08	2016/02/08	120638	4686664	XS1279289596	2016/02/05	30E/360	30360			CORR	
RCONV	I	2016/02/08	2016/02/08	120639	4692095	XS1353513937	2016/02/02	30E/360	AA	ICMA	ICMA	CORR	
RCONV	I	2016/02/08	2016/02/08	120641	4678020	XS1273520624	2016/01/09	30E/360	30360			CORR	
RCONV	I	2016/02/08	2016/02/08	120642	4700906	XS1293140528	2016/02/06	30E/360	A360			CORR	
RCONV	I	2016/02/08	2016/02/08	120643	4663287	XS1332506200	2015/12/19	30E/360	30360			CORR	
RCONV	I	2016/02/08	2016/02/08	120644	4683302	XS1289150879	2016/01/30	A360	30360			CORR	
RCONV	I	2016/02/08	2016/02/08	120645	4689420	INE477L07578	2016/01/19	AA	A365			CORR	
RCONV	I	2016/02/08	2016/02/08	120646	4679769	XS1289167097	2016/01/28	A360	30360			CORR	
RCONV	I	2016/02/08	2016/02/08	120647	4691301	XS1353199026	2016/02/05	A365				CORR	
RCONV	I	2016/02/08	2016/02/08	120648	4686684	XS1289624840	2016/01/29	A360	30360			CORR	
RCONV	I	2016/02/08	2016/02/08	120649	4689414	INE477L07594	2016/01/19	AA	A365			CORR	
RCONV	I	2016/02/08	2016/02/08	120650	4689417	INE477L07586	2016/01/19	AA	A365			CORR	
RCONV	I	2016/02/08	2016/02/08	120651	4688555	XS1293149073	2016/01/21	30E/360	A360			CORR	
RCONV	I	2016/02/08	2016/02/08	120652	4693793	XS1293157688	2016/01/27	30E/360	A360			CORR	
RCONV	I	2016/02/08	2016/02/08	120655	4643604	USG8060YAA67	2015/11/28	30E/360	30360			CORR	
RCONV	I	2016/02/08	2016/02/08	120656	4694051	XS1354435221	2016/01/26	30E/360	A360			CORR	
RCONV	I	2016/02/08	2016/02/08	120657	4696012	XS1357027652	2016/01/30	30E/360	AA		ICMA	CORR	
RCONV	I	2016/02/08	2016/02/08	120658	4686905	XS1349376704	2016/02/02	30E/360	30360			CORR	
RCONV	I	2016/02/08	2016/02/08	120660	4698969	XS1348923662	2016/02/03	30E/360	A360			CORR	
RCONV	I	2016/02/08	2016/02/08	120661	4686851	XS1349322369	2016/02/03	30E/360	30360			CORR	
RCONV	I	2016/02/09	2016/02/09	120663	4699096	CA63308ZJT71	2016/02/09	A365				CORR	
RCONV	I	2016/02/09	2016/02/09	120664	4700625	XS1346531756	2016/02/06	30E/360	30360			CORR	
RCONV	I	2016/02/09	2016/02/09	120665	4685760	XS1289628916	2016/01/28	A360	30360			CORR	
RCONV	I	2016/02/09	2016/02/09	120666	4431271	XS1175803003	2015/02/13	A360	30360			CORR	
RCONV	I	2016/02/09	2016/02/09	120667	4692441	USP3579EBK21	2016/01/30	30E/360	30360			CORR	
RCONV	I	2016/02/09	2016/02/09	120668	4700200	XS1340899035	2016/02/09	30E/360	AA			CORR	
RCONV	I	2016/02/09	2016/02/09	120669	4685441	XS1347427715	2016/02/03	30E/360	30360			CORR	
RCONV	I	2016/02/09	2016/02/09	120670	4675603	XS1338980698	2015/12/31	30E/360	30360			CORR	
RCONV	I	2016/02/09	2016/02/09	120671	4693886	XS1354313204	2016/01/27	A360	30E/360			CORR	
RCONV	I	2016/02/09	2016/02/09	120672	4685750	XS1289628676	2016/01/28	A360	30360			CORR	
RCONV	I	2016/02/09	2016/02/09	120673	4690078	XS1336082810	2016/01/23	30E/360	A360			CORR	
RCONV	I	2016/02/09	2016/02/09	120674	4688937	XS1279290685	2016/02/02	A365	30360			CORR	
RCONV	I	2016/02/09	2016/02/09	120675	4572153	XS1269083777	2015/08/28	30E/360	A360			CORR	
RCONV	I	2016/02/09	2016/02/09	120676	4690072	XS1334092118	2016/01/27	30E/360	A365			CORR	
RCONV	I	2016/02/09	2016/02/09	120677	4700259	XS1361210229	2016/02/05	30E/360	AA	ICMA	ICMA	CORR	
RCONV	I	2016/02/09	2016/02/09	120678	4698567	XS1358618475	2016/02/03	30E/360	A360			CORR	
RCONV	I	2016/02/09	2016/02/09	120679	4681487	XS1344809634	2016/01/24	30E/360	30360			CORR	
RCONV	I	2016/02/10	2016/02/10	120680	4681579	XS1342509335	2016/02/10	30E/360	A360			CORR	
RCONV	I	2016/02/10	2016/02/10	120681	4684366	XS1346645176	2016/01/20	30E/360	AA			CORR	
RCONV	I	2016/02/10	2016/02/10	120682	4702912	XS1363560548	2016/02/09	30E/360	A360			CORR	
RCONV	I	2016/02/10	2016/02/10	120683	4672621	XS1236457070	2016/02/09	A360	AA			CORR	
RCONV	I	2016/02/10	2016/02/10	120684	4678740	XS1236574205	2016/01/22	A360	30360			CORR	
RCONV	I	2016/02/10	2016/02/10	120685	4691740	XS1236577489	2016/02/04	A360	30360			CORR	
RCONV	I	2016/02/10	2016/02/10	120686	4678205	XS1236580194	2016/02/09	A360	30360			CORR	
RCONV	I	2016/02/10	2016/02/10	120687	4677984	XS1236586472	2016/01/22	A360	30360			CORR	
RCONV	I	2016/02/10	2016/02/10	120688	4694558	XS1279292467	2016/02/09	A360	30360			CORR	
RCONV	I	2016/02/10	2016/02/10	120689	4694563	XS1279292541	2016/02/09	A360	30360			CORR	
RCONV	I	2016/02/10	2016/02/10	120690	4697646	XS1358064555	2016/02/09	A360	30360			CORR	
RCONV	I	2016/02/10	2016/02/10	120691	4690881	XS1289604651	2016/02/04	A360	30360			CORR	
RCONV	I	2016/02/10	2016/02/10	120692	4686315	XS1348764686	2016/01/28	30E/360	30360			CORR	
RCONV	I	2016/02/10	2016/02/10	120693	4691267	XS1353059873	2018/02/05	A360	30360			RCONV	
RCONV	I	2016/02/10	2016/02/10	120694	4700696	XS1212522012	2016/02/07	30E/360	30360			CORR	
RCONV	I	2016/02/10	2016/02/10	120695	4325888	XS1099408954	2014/08/24	AA	A365	ISDA	ISDA	CORR	
RCONV	I	2016/02/10	2016/02/10	120696	4700705	XS1212523689	2016/02/07	30E/360	30360			CORR	
RCONV	I	2016/02/10	2016/02/10	120697	4689708	XS1236584691	2016/02/05	A360	30360			CORR	
RCONV	I	2016/02/10	2016/02/10	120698	4686628	XS1236578297	2016/02/03	A360	30360			CORR	
RCONV	I	2016/02/10	2016/02/10	120700	4700059	XS1279304817	2016/02/09	30E/360	30360			CORR	
RCONV	I	2016/02/10	2016/02/10	120701	4689930	XS1289615426	2016/02/03	A360	A365			CORR	
RCONV	I	2016/02/10	2016/02/10	120702	4690918	XS1290016820	2016/02/05	A360	30360			CORR	
RCONV	I	2016/02/10	2016/02/10	120703	4696781	XS1290044368	2016/02/04	A360	30360			CORR	
RCONV	I	2016/02/10	2016/02/10	120704	4620350	XS1303918269	2015/11/13	30E/360	30360			CORR	
RCONV	I	2016/02/10	2016/02/10	120705	4675541	XS1335158447	2016/01/30	A365	AA			CORR	
RCONV	I	2016/02/10	2016/02/10	120706	4675540	XS1335155930	2016/01/31	A360	AA			CORR	
RCONV	I	2016/02/10	2016/02/10	120707	4693921	XS1339639871	2016/02/04	A365	30E/360			CORR	
RCONV	I	2016/02/10	2016/02/10	120708	4620385	XS1303925470	2015/11/14	AA	30360	ICMA	ICMA	CORR	
RCONV	I	2016/02/10	2016/02/10	120709	4620362	XS1303926528	2015/11/13	30E/360	AA			CORR	
RCONV	I	2016/02/10	2016/02/10	120710	4620366	XS1303927179	2015/11/13	30E/360	AA			CORR	
RCONV	I	2016/02/10	2016/02/10	120711	4636407	XS1308339420	2015/11/06	30E/360	30360			CORR	
RCONV	I	2016/02/10	2016/02/10	120712	4686980	XS1349324142	2016/01/28	30E/360	30360			CORR	
RCONV	I	2016/02/10	2016/02/10	120713	4686446	XS1348855997	2016/01/22	30E/360	30360			CORR	
RCONV	I	2016/02/10	2016/02/10	120714	4694933	XS1308292363	2016/02/09	30E/360				CORR	
RCONV	I	2016/02/10	2016/02/10	120715	442352	XS0265848761	2006/09/29	A365	A360			CORR	
RCONV	I	2016/02/10	2016/02/10	120716	4689423	TW000F028071	2016/01/23	30E/360	30360			CORR	
RCONV	I	2016/02/10	2016/02/10	120717	4696008	XS1357027496	2016/01/30	30E/360	AA	ICMA	ICMA	CORR	
RCONV	I	2016/02/10	2016/02/10	120718	4700813	JP388820BG22	2026/02/11	A365	A360			RCONV	
RCONV	I	2016/02/10	2016/02/10	120719	4700818	JP388820AG23	2021/02/11	A365	A360			RCONV	
RCONV	I	2016/02/11	2016/02/11	120720	4698458	XS1292851760	2016/02/02	30E/360	A360			CORR	
RCONV	I	2016/02/11	2016/02/11	120721	4573557	XS1270848580	2015/09/02	30E/360	A360			CORR	
RCONV	I	2016/02/11	2016/02/11	120722	4698462	XS1292851844	2016/02/03	30E/360	A360			CORR	
RCONV	I	2016/02/11	2016/02/11	120723	4696833	XS1292849350	2016/01/29	30E/360	A360			CORR	
RCONV	I	2016/02/11	2016/02/11	120724	4579405	XS1275869268	2015/09/02	30E/360	A360			CORR	
RCONV	I	2016/02/11	2016/02/11	120725	4408689	XS0461383092	2014/12/20	A360	30360			CORR	
RCONV	I	2016/02/11	2016/02/11	120726	4694039	XS1354386341	2016/01/26	30E/360	A360			CORR	
RCONV	I	2016/02/11	2016/02/11	120727	4640613	XS0809887614	2015/11/13	30E/360	30360			CORR	
RCONV	I	2016/02/11	2016/02/11	120728	4691235	XS1352929829	2016/02/06	A360	AA			CORR	
RCONV	I	2016/02/11	2016/02/11	120729	4100824	XS0969014025	2013/09/14	A365	AA			CORR	
RCONV	I	2016/02/11	2016/02/11	120730	4694000	XS1354306414	2016/02/09	A365				CORR	
RCONV	I	2016/02/11	2016/02/11	120731	4352236	XS1110745004	2016/02/10	A365	AA			CORR	
RCONV	I	2016/02/11	2016/02/11	120732	4213496	XS1014984840	2014/03/14	30E/360	30360			CORR	
RCONV	I	2016/02/11	2016/02/11	120733	4649318	XS1222903871	2016/02/10	30E/360	30360			CORR	
RCONV	I	2016/02/11	2016/02/11	120734	4296147	XS1082852739	2014/07/11	A360	30360			CORR	
RCONV	I	2016/02/11	2016/02/11	120735	4634027	FR0012993129	2015/10/28	A360				CLEAN	
RCONV	I	2016/02/11	2016/02/11	120736	4450154	XS1194025141	2016/02/10	30E/360	A365			CORR	
RCONV	I	2016/02/11	2016/02/11	120737	4695473	XS1267306675	2016/02/10	30E/360	30360			CORR	
RCONV	I	2016/02/11	2016/02/11	120738	4690832	XS1279276189	2016/02/04	A360	30360			CORR	
RCONV	I	2016/02/11	2016/02/11	120739	3987674	XS0808632763	2013/02/28	30E/360	AA			CORR	
RCONV	I	2016/02/11	2016/02/11	120740	4696623	XS1273527637	2016/02/11	30E/360	30360			CORR	
RCONV	I	2016/02/11	2016/02/11	120741	4296871	XS1061889553	2014/07/02	30E/360	A360			CORR	
RCONV	I	2016/02/11	2016/02/11	120742	4690972	XS1290052973	2016/02/05	A360	30360			CORR	
RCONV	I	2016/02/11	2016/02/11	120743	4562701	XS1261185893	2015/07/14	30E/360	A365			CORR	
RCONV	I	2016/02/11	2016/02/11	120744	4694084	XS1279276262	2016/02/05	A360	30360			CORR	
RCONV	I	2016/02/11	2016/02/11	120745	4687785	XS1279290412	2016/02/10	30E/360	30360			CORR	
RCONV	I	2016/02/11	2016/02/11	120746	4598406	XS1287061359	2015/09/03	30E/360	A360			CORR	
RCONV	I	2016/02/11	2016/02/11	120747	4696788	XS1290045092	2016/02/11	A360	30360			CORR	
RCONV	I	2016/02/11	2016/02/11	120748	4693851	XS1334476287	2016/01/26	A360				CORR	
RCONV	I	2016/02/11	2016/02/11	120749	4682152	XS1289650092	2016/02/05	A360	30E/360			CORR	
RCONV	I	2016/02/11	2016/02/11	120750	4688126	XS1313399419	2016/02/10	30E/360	30360			CORR	
RCONV	I	2016/02/11	2016/02/11	120751	4611204	XS1297484781	2015/10/28	30E/360	30360			CORR	
RCONV	I	2016/02/11	2016/02/11	120752	4694949	XS1313402817	2016/02/10	30E/360	30360			CORR	
RCONV	I	2016/02/11	2016/02/11	120753	4688783	XS1273423183	2016/02/03	A360	30360			CORR	
RCONV	I	2016/02/11	2016/02/11	120754	442368	XS0265869411	2006/09/28	A365	A360			CORR	
RCONV	I	2016/02/11	2016/02/11	120755	4696245	XS1357028544	2016/02/04	30E/360	A365			CORR	
RCONV	I	2016/02/11	2016/02/11	120756	2772454	IT0004707763	2011/04/02	A365	AA			CORR	
RCONV	I	2016/02/11	2016/02/11	120757	4699994	XS1279304650	2016/02/03	30E/360	30360			CORR	
RCONV	I	2016/02/11	2016/02/11	120758	4696004	XS1357027140	2016/02/10	A360	30360			CORR	
RCONV	I	2016/02/11	2016/02/11	120759	4700057	XS1279304734	2016/02/03	30E/360	30360			CORR	
RCONV	I	2016/02/11	2016/02/11	120760	4634873	XS1314351344	2015/11/03	30E/360	30360			CORR	
RCONV	I	2016/02/11	2016/02/11	120761	4701642	XS1339631118	2016/02/06	A360	30E/360			CORR	
RCONV	I	2016/02/11	2016/02/11	120762	4695992	XS1357020640	2016/01/28	30E/360	A360			CORR	
RCONV	I	2016/02/11	2016/02/11	120763	4444702	TH067503S106	2015/01/20	30360	A365			CORR	
RCONV	I	2016/02/11	2016/02/11	120764	4080215	TH069903R702	2013/07/20	30360	A365			CORR	
RCONV	I	2016/02/11	2016/02/11	120765	4697222	XS1358063581	2016/01/29	30E/360	A360			CORR	
RCONV	I	2016/02/11	2016/02/11	120766	4697177	XS1357989240	2016/01/29	30E/360	A360			CORR	
RCONV	I	2016/02/11	2016/02/11	120767	4696932	XS1358063664	2016/01/29	30E/360	A360			CORR	
RCONV	I	2016/02/11	2016/02/11	120768	4701866	XS1362552660	2016/02/10	30E/360	A360			CORR	
RCONV	I	2016/02/11	2016/02/11	120769	4701853	XS1362562461	2016/02/07	30E/360	A360			CORR	
RCONV	I	2016/02/11	2016/02/11	120770	4700252	XS1361290825	2016/02/10	30E/360	30360			CORR	
RCONV	I	2016/02/11	2016/02/11	120771	4699916	XS1360061938	2016/02/04	A360	30E/360			CORR	
RCONV	I	2016/02/11	2016/02/11	120772	4701814	XS1362387877	2016/02/06	30E/360	A360			CORR	
RCONV	I	2016/02/11	2016/02/11	120773	4701939	XS1362388255	2016/02/08	30E/360	A360			CORR	
RCONV	I	2016/02/11	2016/02/11	120774	4668054	XS1336103327	2015/12/30	30E/360	30360			CORR	
RCONV	I	2016/02/11	2016/02/11	120775	4676117	XS1340857629	2016/02/09	30E/360	A360			CORR	
RCONV	I	2016/02/12	2016/02/12	120778	4650208	XS1323540226	2015/12/15	30E/360	30360			CORR	
RCONV	I	2016/02/12	2016/02/12	120779	752510	XS0337082118	2007/12/19	30E/360	A360			CORR	
RCONV	I	2016/02/12	2016/02/12	120780	4579639	XS1222852433	2015/08/25	A360	30360			CORR	
RCONV	I	2016/02/12	2016/02/12	120782	4646421	XS1222902717	2015/11/25	A360	30360			CORR	
RCONV	I	2016/02/12	2016/02/12	120783	4649815	XS1222904416	2015/12/04	30E/360	30360			CORR	
RCONV	I	2016/02/12	2016/02/12	120784	4689390	XS1351078677	2016/02/10	A360	30360			CORR	
RCONV	I	2016/02/12	2016/02/12	120785	4696568	XS1265961380	2016/02/06	A360	30360			CORR	
RCONV	I	2016/02/12	2016/02/12	120786	4696734	US71656LBK61	2016/02/05	30E/360	30360			CORR	
RCONV	I	2016/02/12	2016/02/12	120787	4687784	XS1279290339	2016/02/12	A360	30360			CORR	
RCONV	I	2016/02/12	2016/02/12	120788	4700725	XS1267296694	2016/02/06	30E/360	30360			CORR	
RCONV	I	2016/02/12	2016/02/12	120789	4696740	US71656MBK45	2016/02/05	30E/360	30360			CORR	
RCONV	I	2016/02/12	2016/02/12	120790	4696716	US71656LBH33	2016/02/05	30E/360	30360			CORR	
RCONV	I	2016/02/12	2016/02/12	120791	4696720	US71656MBH16	2016/02/05	30E/360	30360			CORR	
RCONV	I	2016/02/12	2016/02/12	120792	4696924	XS1357663134	2016/02/11	A365	30360			CORR	
RCONV	I	2016/02/12	2016/02/12	120793	4693918	XS1334477178	2016/02/05	30E/360	30360			CORR	
RCONV	I	2016/02/12	2016/02/12	120794	4703788	XS1293155989	2016/02/11	30E/360	A360			CORR	
RCONV	I	2016/02/12	2016/02/12	120795	4701055	XS1338126102	2016/02/05	30E/360	A360			CORR	
RCONV	I	2016/02/12	2016/02/12	120796	4698721	XS1358923602	2016/02/02	30E/360	A360			CORR	
RCONV	I	2016/02/12	2016/02/12	120797	4701042	XS1338126011	2016/02/11	30E/360	A360			CORR	
RCONV	I	2016/02/12	2016/02/12	120798	4688975	XS1351109811	2016/01/27	30E/360	30360			CORR	
RCONV	I	2016/02/12	2016/02/12	120799	4701400	XS1362349869	2016/02/12	A365	A360			CORR	
RCONV	I	2016/02/12	2016/02/12	120800	507449	XS0172511122	2007/02/07	30360				CORR	
RCONV	I	2016/02/12	2016/02/12	120801	4689001	XS1351093122	2016/02/03	30E/360	30360			CORR	
RCONV	I	2016/02/12	2016/02/12	120802	4703917	XS1365137378	2016/02/11	A360	30E/360			CORR	
RCONV	I	2016/02/12	2016/02/12	120803	4702319	XS1345439225	2016/02/06	A365	AA	ICMA	ICMA	CORR	
RCONV	I	2016/02/12	2016/02/12	120804	4694040	XS1354388479	2016/02/12	30E/360	A360			CORR	
RCONV	I	2016/02/12	2016/02/12	120805	4701708	XS0461394966	2016/02/06	A360	30360			CORR	
RCONV	I	2016/02/13	2016/02/15	120806	4692359	XS1348957132	2016/02/13	30E/360	30360			CORR	
RCONV	I	2016/02/13	2016/02/15	120807	4692354	XS1348957058	2016/02/13	30E/360	30360			CORR	
RCONV	I	2016/02/13	2016/02/15	120808	2738263	XS0627376386	2011/06/12	A360	30360			CORR	
RCONV	I	2016/02/13	2016/02/15	120810	4704545	XS1348955516	2016/02/13	30E/360	30360			CORR	
RCONV	I	2016/02/13	2016/02/15	120811	4692345	XS1348955789	2016/02/11	30E/360	30360			CORR	
RCONV	I	2016/02/13	2016/02/15	120812	4692340	XS1348955607	2016/02/11	30E/360	30360			CORR	
RCONV	I	2016/02/13	2016/02/15	120813	4691970	XS1290051496	2016/02/12	A360	A365			CORR	
RCONV	I	2016/02/13	2016/02/15	120814	4375357	XS1128793236	2014/10/31	30E/360	30360			CORR	
RCONV	I	2016/02/13	2016/02/15	120815	4465426	XS1204614439	2015/03/20	30E/360	30360			CORR	
RCONV	I	2016/02/13	2016/02/15	120816	4688730	XS1267299011	2016/01/28	30E/360	30360			CORR	
RCONV	I	2016/02/13	2016/02/15	120817	4696929	XS1357665345	2016/02/11	A360	30360			CORR	
RCONV	I	2016/02/13	2016/02/15	120818	4697231	XS1358064803	2016/02/12	30E/360	30360			CORR	
RCONV	I	2016/02/13	2016/02/15	120819	4692323	XS1348956837	2016/02/11	30E/360	30360			CORR	
RCONV	I	2016/02/13	2016/02/15	120820	4610441	XS1296578393	2015/09/30	30E/360	30360			CORR	
RCONV	I	2016/02/13	2016/02/15	120821	4336510	XS1106107771	2014/09/26	A360	30360			CORR	
RCONV	I	2016/02/13	2016/02/15	120822	4441913	XS1139548173	2015/02/13	30E/360	30360			CORR	
RCONV	I	2016/02/13	2016/02/15	120823	4434720	XS1179433567	2015/02/13	30E/360	30360			CORR	
RCONV	I	2016/02/15	2016/02/15	120824	4310697	XS1090079788	2014/07/30	30E/360	30360			CORR	
RCONV	I	2016/02/15	2016/02/15	120825	4311611	XS1090439826	2014/07/30	30E/360	30360			CORR	
RCONV	I	2016/02/15	2016/02/15	120826	4703247	XS1302420143	2016/02/11	30E/360	30360			CORR	
RCONV	I	2016/02/15	2016/02/15	120827	4703277	XS1302420499	2016/02/11	30E/360	30360			CORR	
RCONV	I	2016/02/15	2016/02/15	120828	4645562	XS1321012210	2015/12/19	A365	AA			CORR	
RCONV	I	2016/02/15	2016/02/15	120829	4681308	XS1316191896	2016/01/28	30E/360	30360			CORR	
RCONV	I	2016/02/15	2016/02/15	120830	4677309	XS1289413632	2016/02/13	30E/360	A360			CORR	
RCONV	I	2016/02/15	2016/02/15	120831	4570916	INE370I07191	2015/07/24	AA	A365			CORR	
RCONV	I	2016/02/15	2016/02/15	120832	4701361	XS1362347061	2016/02/13	A365	A360			CORR	
RCONV	I	2016/02/15	2016/02/15	120834	4663217	XS1328130197	2015/12/17	30E/360	AA		ICMA	CORR	
RCONV	I	2016/02/15	2016/02/15	120835	4662294	XS1329519265	2015/12/11	30E/360	AA		ICMA	CORR	
RCONV	I	2016/02/15	2016/02/15	120836	4670403	XS1333089628	2015/12/19	30E/360	30360			CORR	
RCONV	I	2016/02/15	2016/02/15	120837	4660433	XS1332351169	2015/12/11	30E/360	AA			CORR	
RCONV	I	2016/02/15	2016/02/15	120838	4701554	XS1362373224	2016/02/13	30E/360	AA		ICMA	CORR	
RCONV	I	2016/02/15	2016/02/15	120839	4701675	XS1362373570	2016/02/13	30E/360	AA		ICMA	CORR	
RCONV	I	2016/02/15	2016/02/15	120840	4691067	XS1352916412	2016/02/05	A360	30360			CORR	
RCONV	I	2016/02/15	2016/02/15	120841	4691545	XS1265962198	2016/02/06	A360	30360			CORR	
RCONV	I	2016/02/15	2016/02/15	120842	4702662	XS1301516636	2016/02/13	A360	30E/360			CORR	
RCONV	I	2016/02/15	2016/02/15	120843	4703252	XS1302420572	2016/02/11	30E/360	30360			CORR	
RCONV	I	2016/02/15	2016/02/15	120845	4680993	XS1334135024	2016/01/20	30E/360	A360			CORR	
RCONV	I	2016/02/15	2016/02/15	120846	4701779	XS1338126441	2016/02/06	30E/360	A360			CORR	
RCONV	I	2016/02/15	2016/02/15	120847	4702228	XS1338127258	2016/02/12	30E/360	A360			CORR	
RCONV	I	2016/02/15	2016/02/15	120848	4701878	XS1338127332	2016/02/12	30E/360	A360			CORR	
RCONV	I	2016/02/15	2016/02/15	120849	4701600	XS1338127175	2016/02/06	30E/360	A360			CORR	
RCONV	I	2016/02/15	2016/02/15	120850	4701782	XS1338127506	2016/02/12	30E/360	A360			CORR	
RCONV	I	2016/02/15	2016/02/15	120851	4701604	XS1338128496	2016/02/12	30E/360	A360			CORR	
RCONV	I	2016/02/15	2016/02/15	120852	4701635	XS1338128140	2016/02/06	30E/360	A360			CORR	
RCONV	I	2016/02/15	2016/02/15	120853	4701877	XS1338128900	2016/02/12	30E/360	A360			CORR	
RCONV	I	2016/02/15	2016/02/15	120854	4701881	XS1338129031	2016/02/12	30E/360	A360			CORR	
RCONV	I	2016/02/15	2016/02/15	120855	4701614	XS1338129387	2016/02/06	30E/360	A360			CORR	
RCONV	I	2016/02/15	2016/02/15	120856	4432580	XS1176510532	2015/02/13	30E/360	30360			CORR	
RCONV	I	2016/02/15	2016/02/15	120857	4701933	XS1338129114	2016/02/08	30E/360	A360			CORR	
RCONV	I	2016/02/15	2016/02/15	120858	4703932	XS1365138855	2016/02/12	A360	30E/360			CORR	
RCONV	I	2016/02/15	2016/02/15	120859	4683629	XS1289413806	2016/02/13	30E/360	A360			CORR	
RCONV	I	2016/02/15	2016/02/15	120860	4142654	XS0995834792	2013/11/22	30360	30E/360			CORR	
RCONV	I	2016/02/15	2016/02/15	120861	4689756	IL0042101266	2016/01/21	A360	A365			CORR	
RCONV	I	2016/02/15	2016/02/15	120862	4700174	XS1361293258	2016/02/13	30E/360	AA	ICMA	ICMA	CORR	
RCONV	I	2016/02/15	2016/02/15	120863	4484871	XS1218431705	2015/04/17	30E/360	30360			CORR	
RCONV	I	2016/02/15	2016/02/15	120864	2731679	XS0632246426	2011/05/29	30360	A360			CORR	
RCONV	I	2016/02/15	2016/02/15	120865	4484854	XS1218432000	2015/04/17	30E/360	30360			CORR	
RCONV	I	2016/02/16	2016/02/16	120866	4559923	XS0890124224	2015/07/11	30E/360	30360			CORR	
RCONV	I	2016/02/16	2016/02/16	120867	4573661	XS0890144768	2015/08/06	30E/360	30360			CORR	
RCONV	I	2016/02/16	2016/02/16	120868	4053955	XS0943333186	2013/06/12	30E/360	30360			CORR	
RCONV	I	2016/02/16	2016/02/16	120869	4580374	XS1222853324	2016/02/15	30E/360	30360			CORR	
RCONV	I	2016/02/16	2016/02/16	120870	4653830	XS1222905579	2015/12/08	30E/360	30360			CORR	
RCONV	I	2016/02/16	2016/02/16	120871	4001107	XS0897397211	2013/03/22	30E/360	30360			CORR	
RCONV	I	2016/02/16	2016/02/16	120872	4705387	XS1366726146	2016/02/15	30E/360	AA	ICMA	ICMA	CORR	
RCONV	I	2016/02/16	2016/02/16	120873	4700737	XS1267325899	2016/02/11	30E/360	30360			CORR	
RCONV	I	2016/02/16	2016/02/16	120875	4699010	XS1358936414	2016/02/13	30E/360				CORR	
RCONV	I	2016/02/16	2016/02/16	120876	4683220	XS1289640374	2016/02/15	A360	30360			CORR	
RCONV	I	2016/02/16	2016/02/16	120877	4659222	XS1325163324	2015/12/18	30E/360	30360			CORR	
RCONV	I	2016/02/16	2016/02/16	120879	4704302	XS1212522285	2016/02/13	30E/360	30360			CORR	
RCONV	I	2016/02/16	2016/02/16	120880	4663217	XS1328130197	2016/02/15	AA	30360	ICMA		CORR	
RCONV	I	2016/02/16	2016/02/16	120881	4691384	XS1352923202	2016/02/05	30E/360	30360			CORR	
RCONV	I	2016/02/16	2016/02/16	120882	4687776	XS1279290172	2016/01/29	30E/360	30360			CORR	
RCONV	I	2016/02/16	2016/02/16	120883	4702484	XS1281094802	2016/02/15	A360	30E/360			CORR	
RCONV	I	2016/02/16	2016/02/16	120884	4690299	XS1352124827	2016/02/09	30E/360	A360			CORR	
RCONV	I	2016/02/16	2016/02/16	120885	4690305	XS1352127507	2016/02/09	30E/360	A360			CORR	
EDI_ENDOFFILE
