EDI_BBC_20160302
tablename	ActFlag	Created	Changed	BbcId	SecId	Cntrycd	Curencd	BbgcompId	Bbgcomptk
BBC	I	2016/01/22	2016/01/22	139345	4686868	RS		BBG000MKPCJ6	AIKBPB SG
BBC	I	2016/01/29	2016/01/29	139440	4687741	SE	SEK	BBG00BWDLZR1	COHOMTFP SS
EDI_ENDOFFILE
